Started at Fri Sep 15 21:00:23 IST 2017
possibly trimming /var/lib/jenkins/fingerprints/fc/bf/8dc1d10ee8ba6e8967899b37402a.xml
possibly trimming /var/lib/jenkins/fingerprints/8a/93/8f806d6e09ca5393b1e4b6c3d48d.xml
possibly trimming /var/lib/jenkins/fingerprints/8a/76/8c022f99922e56daba7b3d185d65.xml
possibly trimming /var/lib/jenkins/fingerprints/8a/5a/2354b630991685f3d49937b14a0c.xml
possibly trimming /var/lib/jenkins/fingerprints/3f/13/2496dd71e4a656de87ddcdf48935.xml
possibly trimming /var/lib/jenkins/fingerprints/3c/42/be5ea7cbf3635716abbb429cb90d.xml
possibly trimming /var/lib/jenkins/fingerprints/3c/e1/4c55850f0106a8e256471ff59ec3.xml
possibly trimming /var/lib/jenkins/fingerprints/3c/1b/c7aaf3449308e34296546078d9f7.xml
possibly trimming /var/lib/jenkins/fingerprints/4d/de/0990b45d1bbba6ee141da8fa9c25.xml
possibly trimming /var/lib/jenkins/fingerprints/04/17/7054e180d09e3998808efa0401c7.xml
possibly trimming /var/lib/jenkins/fingerprints/04/1a/51c0b0be07bd2d488f6f51c5c8b5.xml
possibly trimming /var/lib/jenkins/fingerprints/04/0b/4b4d8eac886f6b4a2a3bd2f31b00.xml
possibly trimming /var/lib/jenkins/fingerprints/04/a4/1f0a068986f0f73485cf507c0f40.xml
possibly trimming /var/lib/jenkins/fingerprints/8f/cc/8709d1082c3d496216f779565ffa.xml
possibly trimming /var/lib/jenkins/fingerprints/5d/c7/833cd0558fbd6a92ba1f0d44dd18.xml
possibly trimming /var/lib/jenkins/fingerprints/5d/90/6e6fbc54ee59c62e533e9d5b3c7a.xml
possibly trimming /var/lib/jenkins/fingerprints/63/93/363b47ddcbba82321110c3e07519.xml
possibly trimming /var/lib/jenkins/fingerprints/63/88/e87d5f47eeac0d78dfcd14c53c0b.xml
possibly trimming /var/lib/jenkins/fingerprints/63/ea/10aa4c877c57895d30a81a0e22dd.xml
possibly trimming /var/lib/jenkins/fingerprints/94/5c/6dc3c10d3ce784d456a8bbbd0262.xml
possibly trimming /var/lib/jenkins/fingerprints/ab/26/42735f873c4761313b795155a952.xml
possibly trimming /var/lib/jenkins/fingerprints/ab/62/1c3cee316236ad04a6f0fe4dd17c.xml
possibly trimming /var/lib/jenkins/fingerprints/ab/32/d7f29a2cf43a7a4f4a8388e52f38.xml
possibly trimming /var/lib/jenkins/fingerprints/51/69/ac4c99afe5e1cf2eefd9fe02aea3.xml
possibly trimming /var/lib/jenkins/fingerprints/51/e1/5f798e69358cb893e38c50596b9b.xml
possibly trimming /var/lib/jenkins/fingerprints/51/c3/347bde0cf85125a5dda054a69ce4.xml
possibly trimming /var/lib/jenkins/fingerprints/3b/1e/cecad9ebc3fbad2953ccf4a070ca.xml
possibly trimming /var/lib/jenkins/fingerprints/3b/6a/a14f00041268e9d08a85c2a7e4a8.xml
possibly trimming /var/lib/jenkins/fingerprints/3b/ab/6bf0cea4fbd5740a2a1a26b5f1df.xml
possibly trimming /var/lib/jenkins/fingerprints/18/58/6a078b51918942002ec085338e19.xml
possibly trimming /var/lib/jenkins/fingerprints/18/30/0c305daba83556e3fbbbabeb6ab4.xml
possibly trimming /var/lib/jenkins/fingerprints/18/86/716af564f10a9335f111bedb9510.xml
possibly trimming /var/lib/jenkins/fingerprints/f1/43/94997effbfe86b3e89ba31b84535.xml
possibly trimming /var/lib/jenkins/fingerprints/f1/ab/f35cf69042c18405ae3fa79713b5.xml
possibly trimming /var/lib/jenkins/fingerprints/de/5b/e7ca2c095bb8dd12c58db9321369.xml
possibly trimming /var/lib/jenkins/fingerprints/86/67/a442ee77e509fbe8176b94726eb2.xml
possibly trimming /var/lib/jenkins/fingerprints/6f/ad/f1eeb4c0582d76d4930adb8599a4.xml
possibly trimming /var/lib/jenkins/fingerprints/6f/04/451d3743f4fd390a840ef41d0383.xml
possibly trimming /var/lib/jenkins/fingerprints/82/69/dec37b287a7baeb46c46dae7efeb.xml
possibly trimming /var/lib/jenkins/fingerprints/82/2a/a8de6e4281d5ffb6a317c8fdccce.xml
possibly trimming /var/lib/jenkins/fingerprints/a4/2f/1f5bfa4e6f123ddcab3de7e0ff81.xml
possibly trimming /var/lib/jenkins/fingerprints/96/62/079424f4758ef2429e124373950a.xml
possibly trimming /var/lib/jenkins/fingerprints/44/47/c2b71fdf4e46db3a3e17a32348ce.xml
possibly trimming /var/lib/jenkins/fingerprints/7b/d2/5a06e2f6b5c1f49a54ba48105adb.xml
possibly trimming /var/lib/jenkins/fingerprints/d6/17/b3421a9968412f15f4958bd159c7.xml
possibly trimming /var/lib/jenkins/fingerprints/e4/ec/315d81edafd721d23ba921b92927.xml
possibly trimming /var/lib/jenkins/fingerprints/67/1c/434560d04e8f06aac02a413d11e4.xml
possibly trimming /var/lib/jenkins/fingerprints/c6/80/92e9c4a5e97afce9f4ad03286afa.xml
possibly trimming /var/lib/jenkins/fingerprints/c6/83/61d7147eb62ec245b120cc8f7af2.xml
possibly trimming /var/lib/jenkins/fingerprints/c6/47/e20db0da7ec16b7738c13c652084.xml
possibly trimming /var/lib/jenkins/fingerprints/c6/77/e80d061c23479161a6c98f5d7899.xml
possibly trimming /var/lib/jenkins/fingerprints/8c/f8/803ce64f8c479b2a2af776c66a6e.xml
possibly trimming /var/lib/jenkins/fingerprints/8c/72/699b83d2d23c8b238b7e74d24a3c.xml
possibly trimming /var/lib/jenkins/fingerprints/22/b4/066e8e2f7695926339ef94572bd0.xml
possibly trimming /var/lib/jenkins/fingerprints/48/d3/c8c08b2c632f247bc460e9e4399e.xml
possibly trimming /var/lib/jenkins/fingerprints/11/36/3bd58696feae207a992da2ce7a90.xml
possibly trimming /var/lib/jenkins/fingerprints/5a/43/75e8cedd563625e75cdade207830.xml
possibly trimming /var/lib/jenkins/fingerprints/5a/c5/dbe1f41bbeb6882d17559fb4fb33.xml
possibly trimming /var/lib/jenkins/fingerprints/c0/54/fcd955964c9e66d8b0342ca04f48.xml
possibly trimming /var/lib/jenkins/fingerprints/a8/08/e8f5110ff59310e030aff3f1879d.xml
possibly trimming /var/lib/jenkins/fingerprints/3a/49/aaa7d35be702536a390eb50925d2.xml
possibly trimming /var/lib/jenkins/fingerprints/0e/72/2616897e7de9f0d533f6f65c3427.xml
possibly trimming /var/lib/jenkins/fingerprints/ef/3d/59b762299e7b598d30ff450bade4.xml
possibly trimming /var/lib/jenkins/fingerprints/c1/6e/0948d540361e11e9e9a1e7916806.xml
possibly trimming /var/lib/jenkins/fingerprints/bf/a2/fa7647af22043d22b4586dc91ac0.xml
possibly trimming /var/lib/jenkins/fingerprints/92/53/509cedda13aa938031061c080776.xml
possibly trimming /var/lib/jenkins/fingerprints/b0/e0/8c9936dc52aa40439c71fcad6297.xml
possibly trimming /var/lib/jenkins/fingerprints/c2/a3/b5a4ce1c555f6df24dd3781ca96e.xml
possibly trimming /var/lib/jenkins/fingerprints/99/ee/1d90571b6b13a0140ce38537964c.xml
possibly trimming /var/lib/jenkins/fingerprints/f9/f9/32d531fa3491bae32ad9ffaacba9.xml
possibly trimming /var/lib/jenkins/fingerprints/f5/4a/8510f834a1a57166970bfc982e94.xml
possibly trimming /var/lib/jenkins/fingerprints/f5/b8/0a13f8fd64340ce4d70e9fc581e0.xml
possibly trimming /var/lib/jenkins/fingerprints/b1/b0/feebe6ddcbe1ea0284bbd17a813d.xml
possibly trimming /var/lib/jenkins/fingerprints/f4/5d/6fa1223a2a2fb022277fed7b545a.xml
possibly trimming /var/lib/jenkins/fingerprints/3e/f2/36ac4c24850cd54abff60be25f35.xml
possibly trimming /var/lib/jenkins/fingerprints/3e/ce/df84b152f1381541c0f27a78b96d.xml
possibly trimming /var/lib/jenkins/fingerprints/8e/ae/e85146662d4c191598a9e73d59a5.xml
possibly trimming /var/lib/jenkins/fingerprints/8e/5c/8db242fbef3db1acfcbb3bc8ec8b.xml
possibly trimming /var/lib/jenkins/fingerprints/7e/aa/d6fea5925cca6c36ee8b3e02ac9d.xml
possibly trimming /var/lib/jenkins/fingerprints/2b/15/a9c4606e4d0527fc8626bc8a5c1b.xml
possibly trimming /var/lib/jenkins/fingerprints/d4/f1/1349a0263b82d07c115a8522c431.xml
possibly trimming /var/lib/jenkins/fingerprints/d4/27/3cebc14cf668f29df545c594510a.xml
possibly trimming /var/lib/jenkins/fingerprints/eb/04/fa63fc70c722f2b8ec156166343b.xml
possibly trimming /var/lib/jenkins/fingerprints/db/0e/461169599af137eb24478c5292ce.xml
possibly trimming /var/lib/jenkins/fingerprints/b5/19/ed2cf84931a833f8b97e5d2e3995.xml
possibly trimming /var/lib/jenkins/fingerprints/2f/0a/baaa91246e7f9e7ecfd013059bc1.xml
possibly trimming /var/lib/jenkins/fingerprints/2f/ed/a59ce2bf93a5150917eb8ec7106e.xml
possibly trimming /var/lib/jenkins/fingerprints/2f/a4/90274ea58515ab882a20e66a9a16.xml
possibly trimming /var/lib/jenkins/fingerprints/2f/4c/ce2e32031d3cf2ad9e823a0dda68.xml
possibly trimming /var/lib/jenkins/fingerprints/e8/32/5763fd4235f174ab7b72ed815db1.xml
possibly trimming /var/lib/jenkins/fingerprints/80/e6/f590fc6e0f3e732c144ddbaa1cd9.xml
possibly trimming /var/lib/jenkins/fingerprints/80/ed/c364a78028f0250359566d0ea67f.xml
possibly trimming /var/lib/jenkins/fingerprints/80/00/60ba371a358f5b4c3223fdf21c0b.xml
possibly trimming /var/lib/jenkins/fingerprints/65/a4/68169d4f1b5e2c66114941a002e9.xml
possibly trimming /var/lib/jenkins/fingerprints/65/da/ddc231144b94cd66e7962e04e391.xml
possibly trimming /var/lib/jenkins/fingerprints/2c/04/4d9b776904d0ee9cd3d9d0811e60.xml
possibly trimming /var/lib/jenkins/fingerprints/83/13/8ccf5fa7b1b812bffcf9cf4acf83.xml
possibly trimming /var/lib/jenkins/fingerprints/83/73/09a10727ca78f1ce63adb3a29b08.xml
possibly trimming /var/lib/jenkins/fingerprints/0f/be/b5c1d9085a06ee99d4c6d0c0052c.xml
possibly trimming /var/lib/jenkins/fingerprints/0f/56/18e603c509c54c5a400349eef78e.xml
possibly trimming /var/lib/jenkins/fingerprints/e2/d7/4794fba570ec2115fb9d5b05dc9b.xml
possibly trimming /var/lib/jenkins/fingerprints/a5/51/2a5a5b4c61283138da691411a13d.xml
possibly trimming /var/lib/jenkins/fingerprints/8b/b8/fa2edfd60d5c7ed6bf9923d14aa8.xml
possibly trimming /var/lib/jenkins/fingerprints/8b/87/2759edf4ed8bed3793b3ab545919.xml
possibly trimming /var/lib/jenkins/fingerprints/8b/2c/9c5c51b961379f9f3e291f1ce8cc.xml
possibly trimming /var/lib/jenkins/fingerprints/a6/0e/12689670e2a214013a0a9921a950.xml
possibly trimming /var/lib/jenkins/fingerprints/ae/4b/376e0a0b5a9207444dd1f2743192.xml
possibly trimming /var/lib/jenkins/fingerprints/19/65/ebb7aca0f9f8faaed3870d8cf689.xml
possibly trimming /var/lib/jenkins/fingerprints/39/e6/79e31fc70b759441bb774a85a475.xml
possibly trimming /var/lib/jenkins/fingerprints/b4/c3/ba17e0ae691d9825756445d513ed.xml
possibly trimming /var/lib/jenkins/fingerprints/72/3c/b81b0d09f982efb8959caeea26a9.xml
possibly trimming /var/lib/jenkins/fingerprints/35/3c/f6a2bdba09595ccfa073b78c7fcb.xml
possibly trimming /var/lib/jenkins/fingerprints/32/cf/d593ee80cebf3d7f62b71822cefc.xml
possibly trimming /var/lib/jenkins/fingerprints/78/0b/5a8b72eebe6d0dbff1c11b5658fa.xml
possibly trimming /var/lib/jenkins/fingerprints/78/ef/fcd19de2bc16fa60debc99843e8b.xml
possibly trimming /var/lib/jenkins/fingerprints/78/09/b251e0a1d180f54fe9757961f33c.xml
possibly trimming /var/lib/jenkins/fingerprints/71/f5/c0b46d5f0d06f37832b207541aba.xml
possibly trimming /var/lib/jenkins/fingerprints/a9/fb/d503e0802507efeeaffb56bbdf52.xml
possibly trimming /var/lib/jenkins/fingerprints/a9/7d/fe2d0ceb81ffbdd15436961b0f23.xml
possibly trimming /var/lib/jenkins/fingerprints/f3/9f/13cbbdf88f003de28c72fe6d1bcb.xml
possibly trimming /var/lib/jenkins/fingerprints/5c/65/d00be86f4d6ba636f7602f50f287.xml
possibly trimming /var/lib/jenkins/fingerprints/5c/60/72bee7ef87f799ac899f722b6fdf.xml
possibly trimming /var/lib/jenkins/fingerprints/05/12/a49855728a4d3d3d500f824980c6.xml
possibly trimming /var/lib/jenkins/fingerprints/2e/1b/5a75f36eb047e0ca953453a95fa2.xml
possibly trimming /var/lib/jenkins/fingerprints/a0/15/924dddd6fbe1229baa6483c027dc.xml
possibly trimming /var/lib/jenkins/fingerprints/a0/0b/6287cab2ad554ae3cbdbe983dc88.xml
possibly trimming /var/lib/jenkins/fingerprints/a0/c5/2ace73cd8f641ba7cb1ec4b59ee2.xml
possibly trimming /var/lib/jenkins/fingerprints/e0/fe/409de1d8103d8d24d1dd5258719a.xml
possibly trimming /var/lib/jenkins/fingerprints/17/88/7cb40224ddfc3249aedfb7358560.xml
possibly trimming /var/lib/jenkins/fingerprints/17/b2/b704b3ad9b36a6fca1ace60a2a06.xml
possibly trimming /var/lib/jenkins/fingerprints/7f/97/854dc04c119d461fed14f5d8bb96.xml
possibly trimming /var/lib/jenkins/fingerprints/7f/bb/115f8cfd735359ee04f9efff3c85.xml
possibly trimming /var/lib/jenkins/fingerprints/5b/38/c40c97fbd0adee29f91e60405584.xml
possibly trimming /var/lib/jenkins/fingerprints/5b/51/51808c54175958befa2d0f5159eb.xml
possibly trimming /var/lib/jenkins/fingerprints/01/f4/6e8e5472199c3abcd8c9ca093856.xml
possibly trimming /var/lib/jenkins/fingerprints/d3/b6/5c7bab8f33eae16029824b49e5cd.xml
possibly trimming /var/lib/jenkins/fingerprints/d3/df/604a143fbbc10178f03b0093b208.xml
possibly trimming /var/lib/jenkins/fingerprints/d3/80/c9ba3a327fa25807d16df032af90.xml
possibly trimming /var/lib/jenkins/fingerprints/5e/ba/53f2780907ee01f224e1133f4bde.xml
possibly trimming /var/lib/jenkins/fingerprints/43/58/4adc1f895628055bad0aa98a1007.xml
possibly trimming /var/lib/jenkins/fingerprints/43/bf/c49bdc7324f6daaa60c1ee9f3972.xml
possibly trimming /var/lib/jenkins/fingerprints/6e/63/5278bb2692a18ae4ee1f6589c075.xml
possibly trimming /var/lib/jenkins/fingerprints/e1/6b/1b8fca0980263f764f633ec91dd6.xml
possibly trimming /var/lib/jenkins/fingerprints/16/3a/1b9b76bdf811657fd75509707adb.xml
possibly trimming /var/lib/jenkins/fingerprints/16/8d/e14e98fc6372a83858cae2f5786f.xml
possibly trimming /var/lib/jenkins/fingerprints/b3/ae/1e2cdaa4c010e4fe1cc13cc79483.xml
possibly trimming /var/lib/jenkins/fingerprints/89/54/e3cca9c74860499f1b5e10fa9f4b.xml
possibly trimming /var/lib/jenkins/fingerprints/89/7d/990eb5463fd5288092524c105769.xml
possibly trimming /var/lib/jenkins/fingerprints/c5/64/e8e6ae712ecce607dac5dc71deb8.xml
possibly trimming /var/lib/jenkins/fingerprints/2d/75/cefef03243943a3673d452b57f1f.xml
possibly trimming /var/lib/jenkins/fingerprints/53/ca/d957821a4bacaf9e108af24e6f90.xml
possibly trimming /var/lib/jenkins/fingerprints/53/3e/404eda70bbf8e40de134ffeec95b.xml
possibly trimming /var/lib/jenkins/fingerprints/1f/40/fb782a4f2cf78f161d32670f7a3a.xml
possibly trimming /var/lib/jenkins/fingerprints/55/6a/83e2563365ea48223885c753f9b7.xml
possibly trimming /var/lib/jenkins/fingerprints/55/24/d79b105e624875ae7ce508fc26a6.xml
possibly trimming /var/lib/jenkins/fingerprints/46/84/16453e28edc22a562fe070a937d1.xml
possibly trimming /var/lib/jenkins/fingerprints/30/e3/f2444bb1849f3ec71e09011d433e.xml
possibly trimming /var/lib/jenkins/fingerprints/c3/f8/39d7e2dbbb6b730a06a31b895e13.xml
possibly trimming /var/lib/jenkins/fingerprints/ed/f8/60ce1ea59beb384ee1e9660fcf64.xml
possibly trimming /var/lib/jenkins/fingerprints/a3/f6/f1437a00500cb85c99d7e9475ec6.xml
possibly trimming /var/lib/jenkins/fingerprints/5f/ab/5aadfc7c2e87a0d6dcf2e2aa3df0.xml
possibly trimming /var/lib/jenkins/fingerprints/98/7c/4773c7c7e36b8eadd18c66123f75.xml
possibly trimming /var/lib/jenkins/fingerprints/97/8d/cf0bcbfbbd820978a65008184ecb.xml
possibly trimming /var/lib/jenkins/fingerprints/ea/43/6eb1c06508c9fb3375c5ab560e71.xml
possibly trimming /var/lib/jenkins/fingerprints/ba/84/3b0485d179cce5b76a7b012df6d2.xml
possibly trimming /var/lib/jenkins/fingerprints/dd/37/a3893e7157fbfa58d0e2e5fe42cd.xml
possibly trimming /var/lib/jenkins/fingerprints/dd/c9/1fd850fa6177c91aab5d4e4d1fa6.xml
possibly trimming /var/lib/jenkins/fingerprints/09/e8/d05b1dfcfcb5b78302323df60724.xml
possibly trimming /var/lib/jenkins/fingerprints/29/62/e0278ff1682d1c3fc26400107cc7.xml
possibly trimming /var/lib/jenkins/fingerprints/25/2d/f23fde22e09e10bbf08df6c7d8bf.xml
possibly trimming /var/lib/jenkins/fingerprints/25/57/525150b95159e58c88f5e06e1a0a.xml
possibly trimming /var/lib/jenkins/fingerprints/25/4d/97770165b11612b1e5ce7f0e7ada.xml
possibly trimming /var/lib/jenkins/fingerprints/77/d3/9f085fd156ae2f567e8c2ad9febf.xml
possibly trimming /var/lib/jenkins/fingerprints/76/ef/2b0f563472b9f48cb3d1ebf81350.xml
possibly trimming /var/lib/jenkins/fingerprints/76/ff/ba9ca7cde1d302f658eb65e17280.xml
possibly trimming /var/lib/jenkins/fingerprints/6a/93/01306f9ce0fc5ec47c09d9660b0f.xml
possibly trimming /var/lib/jenkins/fingerprints/6a/a6/607802502c8016b676f25f8e4873.xml
possibly trimming /var/lib/jenkins/fingerprints/cb/d8/a83bc2f6350fc0f06f2d70b31d7f.xml
possibly trimming /var/lib/jenkins/fingerprints/06/9f/1e5b4a162b14bf23914314f98d90.xml
possibly trimming /var/lib/jenkins/fingerprints/00/58/192805c6a492ac640944457d0321.xml
possibly trimming /var/lib/jenkins/fingerprints/00/11/779578a1d76478d04ceb84cf97db.xml
possibly trimming /var/lib/jenkins/fingerprints/69/f1/1999ff90e5040acf97b7f87c965e.xml
possibly trimming /var/lib/jenkins/fingerprints/24/a6/1bb2a3d26bb786bf87c8980202b9.xml
possibly trimming /var/lib/jenkins/fingerprints/24/e7/a57275e6555c9413ef2d2b04d784.xml
possibly trimming /var/lib/jenkins/fingerprints/24/ea/17254d3623e981ddb9eaf646817f.xml
possibly trimming /var/lib/jenkins/fingerprints/b9/5e/ca1eb1319be5c61484564e909fc2.xml
possibly trimming /var/lib/jenkins/fingerprints/af/14/f5c8070a33b588cc7e2c2986bc38.xml
possibly trimming /var/lib/jenkins/fingerprints/e9/f9/c9fcc516ee11e5ca7420c7ce02f7.xml
possibly trimming /var/lib/jenkins/fingerprints/e9/6d/553698d9d80a435d723816841ab4.xml
possibly trimming /var/lib/jenkins/fingerprints/9c/98/ae6aae1396f4ba35362028609628.xml
possibly trimming /var/lib/jenkins/fingerprints/d1/88/33b12c54c99456d6285e9ad2be02.xml
possibly trimming /var/lib/jenkins/fingerprints/f0/e7/49f6e81d150c7f1507854ee26d11.xml
possibly trimming /var/lib/jenkins/fingerprints/f0/35/3f8deee4fed0662d94239fbca3cb.xml
possibly trimming /var/lib/jenkins/fingerprints/f0/b3/31d6df19cb05fb84151dd15e0ba6.xml
possibly trimming /var/lib/jenkins/fingerprints/fb/8e/79f64ce9fcdf6509da17f44437c5.xml
possibly trimming /var/lib/jenkins/fingerprints/f2/df/47541a4ccb9c8f407a800ee58c52.xml
possibly trimming /var/lib/jenkins/fingerprints/f2/e6/cc5ad08b2a6d5dd3c38453177368.xml
possibly trimming /var/lib/jenkins/fingerprints/85/d4/355152a98caa6e820a9d2b46fae9.xml
possibly trimming /var/lib/jenkins/fingerprints/38/6d/3714fef534d21175d8885ae48bf7.xml
possibly trimming /var/lib/jenkins/fingerprints/38/fa/94f115b5789744359f084800083a.xml
possibly trimming /var/lib/jenkins/fingerprints/38/26/8539f6a9557f611618d519b9c784.xml
possibly trimming /var/lib/jenkins/fingerprints/1c/f1/32eb615fd7fce2c638700063cfc2.xml
possibly trimming /var/lib/jenkins/fingerprints/87/e3/4d3a1fbb30b27e9436c718eca668.xml
possibly trimming /var/lib/jenkins/fingerprints/87/f0/c69f2d86475c9dc8cfbde270fa4e.xml
possibly trimming /var/lib/jenkins/fingerprints/37/4f/821d3319570730981cdeeaae0586.xml
possibly trimming /var/lib/jenkins/fingerprints/d5/4e/d05556e35914d5f9e85192afcda4.xml
possibly trimming /var/lib/jenkins/fingerprints/21/2a/c48e9076391d5307f4b1dc25dc29.xml
possibly trimming /var/lib/jenkins/fingerprints/21/b2/e8eb8978c7c0632474007fed77e1.xml
possibly trimming /var/lib/jenkins/fingerprints/ce/0b/5be90eaffddd4f238fb3d274ee5d.xml
possibly trimming /var/lib/jenkins/fingerprints/ce/d0/85c9552293ced42c0e59a3f524f6.xml
possibly trimming /var/lib/jenkins/fingerprints/79/f1/f63002d2d42b0437e9fdf89c1510.xml
possibly trimming /var/lib/jenkins/fingerprints/03/29/029793200907c4cff59f9e906357.xml
Cleaned up 0 records
Finished at Fri Sep 15 21:00:24 IST 2017. 1294ms
Started at Sat Sep 16 21:00:23 IST 2017
possibly trimming /var/lib/jenkins/fingerprints/fc/bf/8dc1d10ee8ba6e8967899b37402a.xml
possibly trimming /var/lib/jenkins/fingerprints/8a/93/8f806d6e09ca5393b1e4b6c3d48d.xml
possibly trimming /var/lib/jenkins/fingerprints/8a/76/8c022f99922e56daba7b3d185d65.xml
possibly trimming /var/lib/jenkins/fingerprints/8a/5a/2354b630991685f3d49937b14a0c.xml
possibly trimming /var/lib/jenkins/fingerprints/3f/13/2496dd71e4a656de87ddcdf48935.xml
possibly trimming /var/lib/jenkins/fingerprints/3c/42/be5ea7cbf3635716abbb429cb90d.xml
possibly trimming /var/lib/jenkins/fingerprints/3c/e1/4c55850f0106a8e256471ff59ec3.xml
possibly trimming /var/lib/jenkins/fingerprints/3c/1b/c7aaf3449308e34296546078d9f7.xml
possibly trimming /var/lib/jenkins/fingerprints/4d/de/0990b45d1bbba6ee141da8fa9c25.xml
possibly trimming /var/lib/jenkins/fingerprints/04/17/7054e180d09e3998808efa0401c7.xml
possibly trimming /var/lib/jenkins/fingerprints/04/1a/51c0b0be07bd2d488f6f51c5c8b5.xml
possibly trimming /var/lib/jenkins/fingerprints/04/0b/4b4d8eac886f6b4a2a3bd2f31b00.xml
possibly trimming /var/lib/jenkins/fingerprints/04/a4/1f0a068986f0f73485cf507c0f40.xml
possibly trimming /var/lib/jenkins/fingerprints/8f/cc/8709d1082c3d496216f779565ffa.xml
possibly trimming /var/lib/jenkins/fingerprints/5d/c7/833cd0558fbd6a92ba1f0d44dd18.xml
possibly trimming /var/lib/jenkins/fingerprints/5d/90/6e6fbc54ee59c62e533e9d5b3c7a.xml
possibly trimming /var/lib/jenkins/fingerprints/63/93/363b47ddcbba82321110c3e07519.xml
possibly trimming /var/lib/jenkins/fingerprints/63/88/e87d5f47eeac0d78dfcd14c53c0b.xml
possibly trimming /var/lib/jenkins/fingerprints/63/ea/10aa4c877c57895d30a81a0e22dd.xml
possibly trimming /var/lib/jenkins/fingerprints/94/5c/6dc3c10d3ce784d456a8bbbd0262.xml
possibly trimming /var/lib/jenkins/fingerprints/ab/26/42735f873c4761313b795155a952.xml
possibly trimming /var/lib/jenkins/fingerprints/ab/62/1c3cee316236ad04a6f0fe4dd17c.xml
possibly trimming /var/lib/jenkins/fingerprints/ab/32/d7f29a2cf43a7a4f4a8388e52f38.xml
possibly trimming /var/lib/jenkins/fingerprints/51/69/ac4c99afe5e1cf2eefd9fe02aea3.xml
possibly trimming /var/lib/jenkins/fingerprints/51/e1/5f798e69358cb893e38c50596b9b.xml
possibly trimming /var/lib/jenkins/fingerprints/51/c3/347bde0cf85125a5dda054a69ce4.xml
possibly trimming /var/lib/jenkins/fingerprints/3b/1e/cecad9ebc3fbad2953ccf4a070ca.xml
possibly trimming /var/lib/jenkins/fingerprints/3b/6a/a14f00041268e9d08a85c2a7e4a8.xml
possibly trimming /var/lib/jenkins/fingerprints/3b/ab/6bf0cea4fbd5740a2a1a26b5f1df.xml
possibly trimming /var/lib/jenkins/fingerprints/18/58/6a078b51918942002ec085338e19.xml
possibly trimming /var/lib/jenkins/fingerprints/18/30/0c305daba83556e3fbbbabeb6ab4.xml
possibly trimming /var/lib/jenkins/fingerprints/18/86/716af564f10a9335f111bedb9510.xml
possibly trimming /var/lib/jenkins/fingerprints/f1/43/94997effbfe86b3e89ba31b84535.xml
possibly trimming /var/lib/jenkins/fingerprints/f1/ab/f35cf69042c18405ae3fa79713b5.xml
possibly trimming /var/lib/jenkins/fingerprints/de/5b/e7ca2c095bb8dd12c58db9321369.xml
possibly trimming /var/lib/jenkins/fingerprints/86/67/a442ee77e509fbe8176b94726eb2.xml
possibly trimming /var/lib/jenkins/fingerprints/6f/ad/f1eeb4c0582d76d4930adb8599a4.xml
possibly trimming /var/lib/jenkins/fingerprints/6f/04/451d3743f4fd390a840ef41d0383.xml
possibly trimming /var/lib/jenkins/fingerprints/82/69/dec37b287a7baeb46c46dae7efeb.xml
possibly trimming /var/lib/jenkins/fingerprints/82/2a/a8de6e4281d5ffb6a317c8fdccce.xml
possibly trimming /var/lib/jenkins/fingerprints/a4/2f/1f5bfa4e6f123ddcab3de7e0ff81.xml
possibly trimming /var/lib/jenkins/fingerprints/96/62/079424f4758ef2429e124373950a.xml
possibly trimming /var/lib/jenkins/fingerprints/44/47/c2b71fdf4e46db3a3e17a32348ce.xml
possibly trimming /var/lib/jenkins/fingerprints/7b/d2/5a06e2f6b5c1f49a54ba48105adb.xml
possibly trimming /var/lib/jenkins/fingerprints/d6/17/b3421a9968412f15f4958bd159c7.xml
possibly trimming /var/lib/jenkins/fingerprints/e4/ec/315d81edafd721d23ba921b92927.xml
possibly trimming /var/lib/jenkins/fingerprints/67/1c/434560d04e8f06aac02a413d11e4.xml
possibly trimming /var/lib/jenkins/fingerprints/c6/80/92e9c4a5e97afce9f4ad03286afa.xml
possibly trimming /var/lib/jenkins/fingerprints/c6/83/61d7147eb62ec245b120cc8f7af2.xml
possibly trimming /var/lib/jenkins/fingerprints/c6/47/e20db0da7ec16b7738c13c652084.xml
possibly trimming /var/lib/jenkins/fingerprints/c6/77/e80d061c23479161a6c98f5d7899.xml
possibly trimming /var/lib/jenkins/fingerprints/8c/f8/803ce64f8c479b2a2af776c66a6e.xml
possibly trimming /var/lib/jenkins/fingerprints/8c/72/699b83d2d23c8b238b7e74d24a3c.xml
possibly trimming /var/lib/jenkins/fingerprints/22/b4/066e8e2f7695926339ef94572bd0.xml
possibly trimming /var/lib/jenkins/fingerprints/48/d3/c8c08b2c632f247bc460e9e4399e.xml
possibly trimming /var/lib/jenkins/fingerprints/11/36/3bd58696feae207a992da2ce7a90.xml
possibly trimming /var/lib/jenkins/fingerprints/5a/43/75e8cedd563625e75cdade207830.xml
possibly trimming /var/lib/jenkins/fingerprints/5a/c5/dbe1f41bbeb6882d17559fb4fb33.xml
possibly trimming /var/lib/jenkins/fingerprints/c0/54/fcd955964c9e66d8b0342ca04f48.xml
possibly trimming /var/lib/jenkins/fingerprints/a8/08/e8f5110ff59310e030aff3f1879d.xml
possibly trimming /var/lib/jenkins/fingerprints/3a/49/aaa7d35be702536a390eb50925d2.xml
possibly trimming /var/lib/jenkins/fingerprints/0e/72/2616897e7de9f0d533f6f65c3427.xml
possibly trimming /var/lib/jenkins/fingerprints/ef/3d/59b762299e7b598d30ff450bade4.xml
possibly trimming /var/lib/jenkins/fingerprints/c1/6e/0948d540361e11e9e9a1e7916806.xml
possibly trimming /var/lib/jenkins/fingerprints/bf/a2/fa7647af22043d22b4586dc91ac0.xml
possibly trimming /var/lib/jenkins/fingerprints/92/53/509cedda13aa938031061c080776.xml
possibly trimming /var/lib/jenkins/fingerprints/b0/e0/8c9936dc52aa40439c71fcad6297.xml
possibly trimming /var/lib/jenkins/fingerprints/c2/a3/b5a4ce1c555f6df24dd3781ca96e.xml
possibly trimming /var/lib/jenkins/fingerprints/99/ee/1d90571b6b13a0140ce38537964c.xml
possibly trimming /var/lib/jenkins/fingerprints/f9/f9/32d531fa3491bae32ad9ffaacba9.xml
possibly trimming /var/lib/jenkins/fingerprints/f5/4a/8510f834a1a57166970bfc982e94.xml
possibly trimming /var/lib/jenkins/fingerprints/f5/b8/0a13f8fd64340ce4d70e9fc581e0.xml
possibly trimming /var/lib/jenkins/fingerprints/b1/b0/feebe6ddcbe1ea0284bbd17a813d.xml
possibly trimming /var/lib/jenkins/fingerprints/f4/5d/6fa1223a2a2fb022277fed7b545a.xml
possibly trimming /var/lib/jenkins/fingerprints/3e/f2/36ac4c24850cd54abff60be25f35.xml
possibly trimming /var/lib/jenkins/fingerprints/3e/ce/df84b152f1381541c0f27a78b96d.xml
possibly trimming /var/lib/jenkins/fingerprints/8e/ae/e85146662d4c191598a9e73d59a5.xml
possibly trimming /var/lib/jenkins/fingerprints/8e/5c/8db242fbef3db1acfcbb3bc8ec8b.xml
possibly trimming /var/lib/jenkins/fingerprints/7e/aa/d6fea5925cca6c36ee8b3e02ac9d.xml
possibly trimming /var/lib/jenkins/fingerprints/2b/15/a9c4606e4d0527fc8626bc8a5c1b.xml
possibly trimming /var/lib/jenkins/fingerprints/d4/f1/1349a0263b82d07c115a8522c431.xml
possibly trimming /var/lib/jenkins/fingerprints/d4/27/3cebc14cf668f29df545c594510a.xml
possibly trimming /var/lib/jenkins/fingerprints/eb/04/fa63fc70c722f2b8ec156166343b.xml
possibly trimming /var/lib/jenkins/fingerprints/db/0e/461169599af137eb24478c5292ce.xml
possibly trimming /var/lib/jenkins/fingerprints/b5/19/ed2cf84931a833f8b97e5d2e3995.xml
possibly trimming /var/lib/jenkins/fingerprints/2f/0a/baaa91246e7f9e7ecfd013059bc1.xml
possibly trimming /var/lib/jenkins/fingerprints/2f/ed/a59ce2bf93a5150917eb8ec7106e.xml
possibly trimming /var/lib/jenkins/fingerprints/2f/a4/90274ea58515ab882a20e66a9a16.xml
possibly trimming /var/lib/jenkins/fingerprints/2f/4c/ce2e32031d3cf2ad9e823a0dda68.xml
possibly trimming /var/lib/jenkins/fingerprints/e8/32/5763fd4235f174ab7b72ed815db1.xml
possibly trimming /var/lib/jenkins/fingerprints/80/e6/f590fc6e0f3e732c144ddbaa1cd9.xml
possibly trimming /var/lib/jenkins/fingerprints/80/ed/c364a78028f0250359566d0ea67f.xml
possibly trimming /var/lib/jenkins/fingerprints/80/00/60ba371a358f5b4c3223fdf21c0b.xml
possibly trimming /var/lib/jenkins/fingerprints/65/a4/68169d4f1b5e2c66114941a002e9.xml
possibly trimming /var/lib/jenkins/fingerprints/65/da/ddc231144b94cd66e7962e04e391.xml
possibly trimming /var/lib/jenkins/fingerprints/2c/04/4d9b776904d0ee9cd3d9d0811e60.xml
possibly trimming /var/lib/jenkins/fingerprints/83/13/8ccf5fa7b1b812bffcf9cf4acf83.xml
possibly trimming /var/lib/jenkins/fingerprints/83/73/09a10727ca78f1ce63adb3a29b08.xml
possibly trimming /var/lib/jenkins/fingerprints/0f/be/b5c1d9085a06ee99d4c6d0c0052c.xml
possibly trimming /var/lib/jenkins/fingerprints/0f/56/18e603c509c54c5a400349eef78e.xml
possibly trimming /var/lib/jenkins/fingerprints/e2/d7/4794fba570ec2115fb9d5b05dc9b.xml
possibly trimming /var/lib/jenkins/fingerprints/a5/51/2a5a5b4c61283138da691411a13d.xml
possibly trimming /var/lib/jenkins/fingerprints/8b/b8/fa2edfd60d5c7ed6bf9923d14aa8.xml
possibly trimming /var/lib/jenkins/fingerprints/8b/87/2759edf4ed8bed3793b3ab545919.xml
possibly trimming /var/lib/jenkins/fingerprints/8b/2c/9c5c51b961379f9f3e291f1ce8cc.xml
possibly trimming /var/lib/jenkins/fingerprints/a6/0e/12689670e2a214013a0a9921a950.xml
possibly trimming /var/lib/jenkins/fingerprints/ae/4b/376e0a0b5a9207444dd1f2743192.xml
possibly trimming /var/lib/jenkins/fingerprints/19/65/ebb7aca0f9f8faaed3870d8cf689.xml
possibly trimming /var/lib/jenkins/fingerprints/39/e6/79e31fc70b759441bb774a85a475.xml
possibly trimming /var/lib/jenkins/fingerprints/b4/c3/ba17e0ae691d9825756445d513ed.xml
possibly trimming /var/lib/jenkins/fingerprints/72/3c/b81b0d09f982efb8959caeea26a9.xml
possibly trimming /var/lib/jenkins/fingerprints/35/3c/f6a2bdba09595ccfa073b78c7fcb.xml
possibly trimming /var/lib/jenkins/fingerprints/32/cf/d593ee80cebf3d7f62b71822cefc.xml
possibly trimming /var/lib/jenkins/fingerprints/78/0b/5a8b72eebe6d0dbff1c11b5658fa.xml
possibly trimming /var/lib/jenkins/fingerprints/78/ef/fcd19de2bc16fa60debc99843e8b.xml
possibly trimming /var/lib/jenkins/fingerprints/78/09/b251e0a1d180f54fe9757961f33c.xml
possibly trimming /var/lib/jenkins/fingerprints/71/f5/c0b46d5f0d06f37832b207541aba.xml
possibly trimming /var/lib/jenkins/fingerprints/a9/fb/d503e0802507efeeaffb56bbdf52.xml
possibly trimming /var/lib/jenkins/fingerprints/a9/7d/fe2d0ceb81ffbdd15436961b0f23.xml
possibly trimming /var/lib/jenkins/fingerprints/f3/9f/13cbbdf88f003de28c72fe6d1bcb.xml
possibly trimming /var/lib/jenkins/fingerprints/5c/65/d00be86f4d6ba636f7602f50f287.xml
possibly trimming /var/lib/jenkins/fingerprints/5c/60/72bee7ef87f799ac899f722b6fdf.xml
possibly trimming /var/lib/jenkins/fingerprints/05/12/a49855728a4d3d3d500f824980c6.xml
possibly trimming /var/lib/jenkins/fingerprints/2e/1b/5a75f36eb047e0ca953453a95fa2.xml
possibly trimming /var/lib/jenkins/fingerprints/a0/15/924dddd6fbe1229baa6483c027dc.xml
possibly trimming /var/lib/jenkins/fingerprints/a0/0b/6287cab2ad554ae3cbdbe983dc88.xml
possibly trimming /var/lib/jenkins/fingerprints/a0/c5/2ace73cd8f641ba7cb1ec4b59ee2.xml
possibly trimming /var/lib/jenkins/fingerprints/e0/fe/409de1d8103d8d24d1dd5258719a.xml
possibly trimming /var/lib/jenkins/fingerprints/17/88/7cb40224ddfc3249aedfb7358560.xml
possibly trimming /var/lib/jenkins/fingerprints/17/b2/b704b3ad9b36a6fca1ace60a2a06.xml
possibly trimming /var/lib/jenkins/fingerprints/7f/97/854dc04c119d461fed14f5d8bb96.xml
possibly trimming /var/lib/jenkins/fingerprints/7f/bb/115f8cfd735359ee04f9efff3c85.xml
possibly trimming /var/lib/jenkins/fingerprints/5b/38/c40c97fbd0adee29f91e60405584.xml
possibly trimming /var/lib/jenkins/fingerprints/5b/51/51808c54175958befa2d0f5159eb.xml
possibly trimming /var/lib/jenkins/fingerprints/01/f4/6e8e5472199c3abcd8c9ca093856.xml
possibly trimming /var/lib/jenkins/fingerprints/d3/b6/5c7bab8f33eae16029824b49e5cd.xml
possibly trimming /var/lib/jenkins/fingerprints/d3/df/604a143fbbc10178f03b0093b208.xml
possibly trimming /var/lib/jenkins/fingerprints/d3/80/c9ba3a327fa25807d16df032af90.xml
possibly trimming /var/lib/jenkins/fingerprints/5e/ba/53f2780907ee01f224e1133f4bde.xml
possibly trimming /var/lib/jenkins/fingerprints/43/58/4adc1f895628055bad0aa98a1007.xml
possibly trimming /var/lib/jenkins/fingerprints/43/bf/c49bdc7324f6daaa60c1ee9f3972.xml
possibly trimming /var/lib/jenkins/fingerprints/6e/63/5278bb2692a18ae4ee1f6589c075.xml
possibly trimming /var/lib/jenkins/fingerprints/e1/6b/1b8fca0980263f764f633ec91dd6.xml
possibly trimming /var/lib/jenkins/fingerprints/16/3a/1b9b76bdf811657fd75509707adb.xml
possibly trimming /var/lib/jenkins/fingerprints/16/8d/e14e98fc6372a83858cae2f5786f.xml
possibly trimming /var/lib/jenkins/fingerprints/b3/ae/1e2cdaa4c010e4fe1cc13cc79483.xml
possibly trimming /var/lib/jenkins/fingerprints/89/54/e3cca9c74860499f1b5e10fa9f4b.xml
possibly trimming /var/lib/jenkins/fingerprints/89/7d/990eb5463fd5288092524c105769.xml
possibly trimming /var/lib/jenkins/fingerprints/c5/64/e8e6ae712ecce607dac5dc71deb8.xml
possibly trimming /var/lib/jenkins/fingerprints/2d/75/cefef03243943a3673d452b57f1f.xml
possibly trimming /var/lib/jenkins/fingerprints/53/ca/d957821a4bacaf9e108af24e6f90.xml
possibly trimming /var/lib/jenkins/fingerprints/53/3e/404eda70bbf8e40de134ffeec95b.xml
possibly trimming /var/lib/jenkins/fingerprints/1f/40/fb782a4f2cf78f161d32670f7a3a.xml
possibly trimming /var/lib/jenkins/fingerprints/55/6a/83e2563365ea48223885c753f9b7.xml
possibly trimming /var/lib/jenkins/fingerprints/55/24/d79b105e624875ae7ce508fc26a6.xml
possibly trimming /var/lib/jenkins/fingerprints/46/84/16453e28edc22a562fe070a937d1.xml
possibly trimming /var/lib/jenkins/fingerprints/30/e3/f2444bb1849f3ec71e09011d433e.xml
possibly trimming /var/lib/jenkins/fingerprints/c3/f8/39d7e2dbbb6b730a06a31b895e13.xml
possibly trimming /var/lib/jenkins/fingerprints/ed/f8/60ce1ea59beb384ee1e9660fcf64.xml
possibly trimming /var/lib/jenkins/fingerprints/a3/f6/f1437a00500cb85c99d7e9475ec6.xml
possibly trimming /var/lib/jenkins/fingerprints/5f/ab/5aadfc7c2e87a0d6dcf2e2aa3df0.xml
possibly trimming /var/lib/jenkins/fingerprints/98/7c/4773c7c7e36b8eadd18c66123f75.xml
possibly trimming /var/lib/jenkins/fingerprints/97/8d/cf0bcbfbbd820978a65008184ecb.xml
possibly trimming /var/lib/jenkins/fingerprints/ea/43/6eb1c06508c9fb3375c5ab560e71.xml
possibly trimming /var/lib/jenkins/fingerprints/ba/84/3b0485d179cce5b76a7b012df6d2.xml
possibly trimming /var/lib/jenkins/fingerprints/dd/37/a3893e7157fbfa58d0e2e5fe42cd.xml
possibly trimming /var/lib/jenkins/fingerprints/dd/c9/1fd850fa6177c91aab5d4e4d1fa6.xml
possibly trimming /var/lib/jenkins/fingerprints/09/e8/d05b1dfcfcb5b78302323df60724.xml
possibly trimming /var/lib/jenkins/fingerprints/29/62/e0278ff1682d1c3fc26400107cc7.xml
possibly trimming /var/lib/jenkins/fingerprints/25/2d/f23fde22e09e10bbf08df6c7d8bf.xml
possibly trimming /var/lib/jenkins/fingerprints/25/57/525150b95159e58c88f5e06e1a0a.xml
possibly trimming /var/lib/jenkins/fingerprints/25/4d/97770165b11612b1e5ce7f0e7ada.xml
possibly trimming /var/lib/jenkins/fingerprints/77/d3/9f085fd156ae2f567e8c2ad9febf.xml
possibly trimming /var/lib/jenkins/fingerprints/76/ef/2b0f563472b9f48cb3d1ebf81350.xml
possibly trimming /var/lib/jenkins/fingerprints/76/ff/ba9ca7cde1d302f658eb65e17280.xml
possibly trimming /var/lib/jenkins/fingerprints/6a/93/01306f9ce0fc5ec47c09d9660b0f.xml
possibly trimming /var/lib/jenkins/fingerprints/6a/a6/607802502c8016b676f25f8e4873.xml
possibly trimming /var/lib/jenkins/fingerprints/cb/d8/a83bc2f6350fc0f06f2d70b31d7f.xml
possibly trimming /var/lib/jenkins/fingerprints/06/9f/1e5b4a162b14bf23914314f98d90.xml
possibly trimming /var/lib/jenkins/fingerprints/00/58/192805c6a492ac640944457d0321.xml
possibly trimming /var/lib/jenkins/fingerprints/00/11/779578a1d76478d04ceb84cf97db.xml
possibly trimming /var/lib/jenkins/fingerprints/69/f1/1999ff90e5040acf97b7f87c965e.xml
possibly trimming /var/lib/jenkins/fingerprints/24/a6/1bb2a3d26bb786bf87c8980202b9.xml
possibly trimming /var/lib/jenkins/fingerprints/24/e7/a57275e6555c9413ef2d2b04d784.xml
possibly trimming /var/lib/jenkins/fingerprints/24/ea/17254d3623e981ddb9eaf646817f.xml
possibly trimming /var/lib/jenkins/fingerprints/b9/5e/ca1eb1319be5c61484564e909fc2.xml
possibly trimming /var/lib/jenkins/fingerprints/af/14/f5c8070a33b588cc7e2c2986bc38.xml
possibly trimming /var/lib/jenkins/fingerprints/e9/f9/c9fcc516ee11e5ca7420c7ce02f7.xml
possibly trimming /var/lib/jenkins/fingerprints/e9/6d/553698d9d80a435d723816841ab4.xml
possibly trimming /var/lib/jenkins/fingerprints/9c/98/ae6aae1396f4ba35362028609628.xml
possibly trimming /var/lib/jenkins/fingerprints/d1/88/33b12c54c99456d6285e9ad2be02.xml
possibly trimming /var/lib/jenkins/fingerprints/f0/e7/49f6e81d150c7f1507854ee26d11.xml
possibly trimming /var/lib/jenkins/fingerprints/f0/35/3f8deee4fed0662d94239fbca3cb.xml
possibly trimming /var/lib/jenkins/fingerprints/f0/b3/31d6df19cb05fb84151dd15e0ba6.xml
possibly trimming /var/lib/jenkins/fingerprints/fb/8e/79f64ce9fcdf6509da17f44437c5.xml
possibly trimming /var/lib/jenkins/fingerprints/f2/df/47541a4ccb9c8f407a800ee58c52.xml
possibly trimming /var/lib/jenkins/fingerprints/f2/e6/cc5ad08b2a6d5dd3c38453177368.xml
possibly trimming /var/lib/jenkins/fingerprints/85/d4/355152a98caa6e820a9d2b46fae9.xml
possibly trimming /var/lib/jenkins/fingerprints/38/6d/3714fef534d21175d8885ae48bf7.xml
possibly trimming /var/lib/jenkins/fingerprints/38/fa/94f115b5789744359f084800083a.xml
possibly trimming /var/lib/jenkins/fingerprints/38/26/8539f6a9557f611618d519b9c784.xml
possibly trimming /var/lib/jenkins/fingerprints/1c/f1/32eb615fd7fce2c638700063cfc2.xml
possibly trimming /var/lib/jenkins/fingerprints/87/e3/4d3a1fbb30b27e9436c718eca668.xml
possibly trimming /var/lib/jenkins/fingerprints/87/f0/c69f2d86475c9dc8cfbde270fa4e.xml
possibly trimming /var/lib/jenkins/fingerprints/37/4f/821d3319570730981cdeeaae0586.xml
possibly trimming /var/lib/jenkins/fingerprints/d5/4e/d05556e35914d5f9e85192afcda4.xml
possibly trimming /var/lib/jenkins/fingerprints/21/2a/c48e9076391d5307f4b1dc25dc29.xml
possibly trimming /var/lib/jenkins/fingerprints/21/b2/e8eb8978c7c0632474007fed77e1.xml
possibly trimming /var/lib/jenkins/fingerprints/ce/0b/5be90eaffddd4f238fb3d274ee5d.xml
possibly trimming /var/lib/jenkins/fingerprints/ce/d0/85c9552293ced42c0e59a3f524f6.xml
possibly trimming /var/lib/jenkins/fingerprints/79/f1/f63002d2d42b0437e9fdf89c1510.xml
possibly trimming /var/lib/jenkins/fingerprints/03/29/029793200907c4cff59f9e906357.xml
Cleaned up 0 records
Finished at Sat Sep 16 21:00:25 IST 2017. 1424ms
