Started at Sat Sep 09 05:13:51 IST 2017
possibly trimming /var/lib/jenkins/fingerprints/fc/bf/0a4d99ee164449a030d0068dee98.xml
possibly trimming /var/lib/jenkins/fingerprints/fc/bf/8dc1d10ee8ba6e8967899b37402a.xml
possibly trimming /var/lib/jenkins/fingerprints/fc/bf/083e46b44981299f2708f228093a.xml
possibly trimming /var/lib/jenkins/fingerprints/fc/80/e0aabd516c54739262c3d618303a.xml
possibly trimming /var/lib/jenkins/fingerprints/fc/dd/8442ca371be3d3116c3686f9f3cd.xml
possibly trimming /var/lib/jenkins/fingerprints/fc/68/aa53387949e5f09bcc0abbea8be7.xml
possibly trimming /var/lib/jenkins/fingerprints/fc/15/b2ba87f10d0f226f0e2b667cd9cb.xml
possibly trimming /var/lib/jenkins/fingerprints/8a/93/8f806d6e09ca5393b1e4b6c3d48d.xml
possibly trimming /var/lib/jenkins/fingerprints/8a/e3/8e87cd4f86059c0294a8fe3e0b18.xml
possibly trimming /var/lib/jenkins/fingerprints/8a/d8/c9229ef2d59ab9f59f7050e846a5.xml
possibly trimming /var/lib/jenkins/fingerprints/8a/3f/0d03119be2d28c248dd698ab810e.xml
possibly trimming /var/lib/jenkins/fingerprints/8a/50/7817b28077e0478add944c64586a.xml
possibly trimming /var/lib/jenkins/fingerprints/8a/53/a7ae6e64acaf0747be3c3da394b0.xml
possibly trimming /var/lib/jenkins/fingerprints/8a/df/40d9d08c5cc1c7cdf0377e9ad834.xml
possibly trimming /var/lib/jenkins/fingerprints/8a/df/c4a9b8c3b2f7beae53e5ce8fdb73.xml
possibly trimming /var/lib/jenkins/fingerprints/8a/4f/8e0a407bce0646ee8ce6ada035f6.xml
possibly trimming /var/lib/jenkins/fingerprints/8a/76/8c022f99922e56daba7b3d185d65.xml
possibly trimming /var/lib/jenkins/fingerprints/8a/5a/2354b630991685f3d49937b14a0c.xml
possibly trimming /var/lib/jenkins/fingerprints/3f/13/2496dd71e4a656de87ddcdf48935.xml
possibly trimming /var/lib/jenkins/fingerprints/3f/dd/a7ea297dfa86a51b178bd1d3514b.xml
possibly trimming /var/lib/jenkins/fingerprints/3f/5c/b0506577bb2c3dd1488079cd789f.xml
possibly trimming /var/lib/jenkins/fingerprints/3f/95/a5a45cc505dcc5f5fd1eea6a5554.xml
possibly trimming /var/lib/jenkins/fingerprints/3f/88/bafd44fe5974cbdc3bfc57e3d80f.xml
possibly trimming /var/lib/jenkins/fingerprints/3f/a9/de5c3c3bb6847366d777b9e6c518.xml
possibly trimming /var/lib/jenkins/fingerprints/3f/b7/bae323fc306b54bdd2419235721f.xml
possibly trimming /var/lib/jenkins/fingerprints/3c/42/be5ea7cbf3635716abbb429cb90d.xml
possibly trimming /var/lib/jenkins/fingerprints/3c/e1/4c55850f0106a8e256471ff59ec3.xml
possibly trimming /var/lib/jenkins/fingerprints/3c/9b/7f16a2b8baf690837a3534da2c83.xml
possibly trimming /var/lib/jenkins/fingerprints/3c/6d/317186332d6fd9c098d5ae757cbc.xml
possibly trimming /var/lib/jenkins/fingerprints/3c/1b/c7aaf3449308e34296546078d9f7.xml
possibly trimming /var/lib/jenkins/fingerprints/4d/de/0990b45d1bbba6ee141da8fa9c25.xml
possibly trimming /var/lib/jenkins/fingerprints/4d/5c/1693079575b362edf41500630bbd.xml
possibly trimming /var/lib/jenkins/fingerprints/4d/8f/51d3fe3900efc6e395be48030d6d.xml
possibly trimming /var/lib/jenkins/fingerprints/4d/fe/bec402e7606b2c1f66dec1773e8f.xml
possibly trimming /var/lib/jenkins/fingerprints/4d/52/bf9e43b9dd209509611b139c9f7d.xml
possibly trimming /var/lib/jenkins/fingerprints/4d/82/9fa41a1864591dd926344a3e72c0.xml
possibly trimming /var/lib/jenkins/fingerprints/4d/bb/0c249b88b7aa357abde925d2afe2.xml
possibly trimming /var/lib/jenkins/fingerprints/4d/aa/dd1bf422b2d6a9d36c85eb7aef10.xml
possibly trimming /var/lib/jenkins/fingerprints/4d/c5/97b3ac3d2fb40a444a66e7bfebad.xml
possibly trimming /var/lib/jenkins/fingerprints/04/17/7054e180d09e3998808efa0401c7.xml
possibly trimming /var/lib/jenkins/fingerprints/04/1a/51c0b0be07bd2d488f6f51c5c8b5.xml
possibly trimming /var/lib/jenkins/fingerprints/04/ff/06b869b1b4f369b70eb287087aa4.xml
possibly trimming /var/lib/jenkins/fingerprints/04/1e/7447e8d7488f7c32d93541ce4b90.xml
possibly trimming /var/lib/jenkins/fingerprints/04/0b/4b4d8eac886f6b4a2a3bd2f31b00.xml
possibly trimming /var/lib/jenkins/fingerprints/04/06/7d1b5c9ac4447fd376632b13fba0.xml
possibly trimming /var/lib/jenkins/fingerprints/04/a4/1f0a068986f0f73485cf507c0f40.xml
possibly trimming /var/lib/jenkins/fingerprints/8f/cc/8709d1082c3d496216f779565ffa.xml
possibly trimming /var/lib/jenkins/fingerprints/8f/dd/6c63b86ba1d3e3b7b6faf324385d.xml
possibly trimming /var/lib/jenkins/fingerprints/5d/c7/833cd0558fbd6a92ba1f0d44dd18.xml
possibly trimming /var/lib/jenkins/fingerprints/5d/90/6e6fbc54ee59c62e533e9d5b3c7a.xml
possibly trimming /var/lib/jenkins/fingerprints/5d/52/fa44d13620bb8774b8de28195e1b.xml
possibly trimming /var/lib/jenkins/fingerprints/5d/a0/5977cbf9ce2e250548e8cb712726.xml
possibly trimming /var/lib/jenkins/fingerprints/5d/12/344dc7931438725bb55dbc9a2a1c.xml
possibly trimming /var/lib/jenkins/fingerprints/63/93/363b47ddcbba82321110c3e07519.xml
possibly trimming /var/lib/jenkins/fingerprints/63/16/8ed33eabfddc144e5acf32d76e5e.xml
possibly trimming /var/lib/jenkins/fingerprints/63/a4/61c6e878b1a510f0bb5c58b7ade7.xml
possibly trimming /var/lib/jenkins/fingerprints/63/95/244f2752bd4d1dfa16cc27094e39.xml
possibly trimming /var/lib/jenkins/fingerprints/63/40/121d5783780ba3cc05483311aaa9.xml
possibly trimming /var/lib/jenkins/fingerprints/63/a8/2d216b28173f01bd511b8d55d26d.xml
possibly trimming /var/lib/jenkins/fingerprints/63/88/e87d5f47eeac0d78dfcd14c53c0b.xml
possibly trimming /var/lib/jenkins/fingerprints/63/ea/10aa4c877c57895d30a81a0e22dd.xml
possibly trimming /var/lib/jenkins/fingerprints/94/5c/6dc3c10d3ce784d456a8bbbd0262.xml
possibly trimming /var/lib/jenkins/fingerprints/94/97/5ef44aa05c5067563875a783351e.xml
possibly trimming /var/lib/jenkins/fingerprints/94/76/41f6bb535b1d942d1bc387c45290.xml
possibly trimming /var/lib/jenkins/fingerprints/94/37/e7248fe7d542f4152a978b35cc22.xml
possibly trimming /var/lib/jenkins/fingerprints/ab/26/42735f873c4761313b795155a952.xml
possibly trimming /var/lib/jenkins/fingerprints/ab/62/cd0aec7f920efec8961c89d4920e.xml
possibly trimming /var/lib/jenkins/fingerprints/ab/62/1c3cee316236ad04a6f0fe4dd17c.xml
possibly trimming /var/lib/jenkins/fingerprints/ab/0c/1307a068f64f347daaebed9f59a4.xml
possibly trimming /var/lib/jenkins/fingerprints/ab/32/d7f29a2cf43a7a4f4a8388e52f38.xml
possibly trimming /var/lib/jenkins/fingerprints/51/69/ac4c99afe5e1cf2eefd9fe02aea3.xml
possibly trimming /var/lib/jenkins/fingerprints/51/e1/c8bf3338d54be3697f506e766373.xml
possibly trimming /var/lib/jenkins/fingerprints/51/e1/5f798e69358cb893e38c50596b9b.xml
possibly trimming /var/lib/jenkins/fingerprints/51/ed/2c6c0103cf3fdbeb9aa5170f5288.xml
possibly trimming /var/lib/jenkins/fingerprints/51/86/81ac224164cef4e59cbc2500360c.xml
possibly trimming /var/lib/jenkins/fingerprints/51/35/a996aca7d3eb0e4ab849efb104ff.xml
possibly trimming /var/lib/jenkins/fingerprints/51/c3/347bde0cf85125a5dda054a69ce4.xml
possibly trimming /var/lib/jenkins/fingerprints/3b/1e/cecad9ebc3fbad2953ccf4a070ca.xml
possibly trimming /var/lib/jenkins/fingerprints/3b/21/8aaa246059829318105cbf51334c.xml
possibly trimming /var/lib/jenkins/fingerprints/3b/13/918389855e782923d548c5bf1c23.xml
possibly trimming /var/lib/jenkins/fingerprints/3b/6a/a14f00041268e9d08a85c2a7e4a8.xml
possibly trimming /var/lib/jenkins/fingerprints/3b/ab/6bf0cea4fbd5740a2a1a26b5f1df.xml
possibly trimming /var/lib/jenkins/fingerprints/18/58/6a078b51918942002ec085338e19.xml
possibly trimming /var/lib/jenkins/fingerprints/18/30/0c305daba83556e3fbbbabeb6ab4.xml
possibly trimming /var/lib/jenkins/fingerprints/18/86/716af564f10a9335f111bedb9510.xml
possibly trimming /var/lib/jenkins/fingerprints/62/35/7aad9e7d1676637fd567c5e20a16.xml
possibly trimming /var/lib/jenkins/fingerprints/62/c2/aa54d784d15cf5b4fe5f2c1020a5.xml
possibly trimming /var/lib/jenkins/fingerprints/f1/99/a10f385a369d0e3a088bc3fecdc2.xml
possibly trimming /var/lib/jenkins/fingerprints/f1/35/bc26e809267d8fe5cfe6f4fad61d.xml
possibly trimming /var/lib/jenkins/fingerprints/f1/d6/32d69d0410910bde102362cbba76.xml
possibly trimming /var/lib/jenkins/fingerprints/f1/43/94997effbfe86b3e89ba31b84535.xml
possibly trimming /var/lib/jenkins/fingerprints/f1/d4/2c143cd6ee68baa7438c7ed1264d.xml
possibly trimming /var/lib/jenkins/fingerprints/f1/ab/f35cf69042c18405ae3fa79713b5.xml
possibly trimming /var/lib/jenkins/fingerprints/3d/83/75d490d00d8a9deddf201e8bb59e.xml
possibly trimming /var/lib/jenkins/fingerprints/3d/4f/3e1a96eb79683197f1c8b182f4a6.xml
possibly trimming /var/lib/jenkins/fingerprints/3d/a0/33b9318e910a4e3d718a6b1f5b58.xml
possibly trimming /var/lib/jenkins/fingerprints/3d/2a/8a7f03a4e6ac22a73a311fbf399a.xml
possibly trimming /var/lib/jenkins/fingerprints/de/35/5fd6d32f92684e4e18cfeadf536f.xml
possibly trimming /var/lib/jenkins/fingerprints/de/0e/1253afe1918a41e2c177579c3c18.xml
possibly trimming /var/lib/jenkins/fingerprints/de/5b/e7ca2c095bb8dd12c58db9321369.xml
possibly trimming /var/lib/jenkins/fingerprints/86/8d/e456b4d4331d6dcc4e8d3bee884e.xml
possibly trimming /var/lib/jenkins/fingerprints/86/2d/aa790add5da921afdc2cec0fc982.xml
possibly trimming /var/lib/jenkins/fingerprints/86/5f/8e8b0a14c92159e00041a7756bf0.xml
possibly trimming /var/lib/jenkins/fingerprints/86/1d/a3054b711d5bc080f6c065465427.xml
possibly trimming /var/lib/jenkins/fingerprints/86/76/e5cace1cbe75966671dd6a768642.xml
possibly trimming /var/lib/jenkins/fingerprints/86/67/a442ee77e509fbe8176b94726eb2.xml
possibly trimming /var/lib/jenkins/fingerprints/6f/29/69f0eb541a6f4ecfa15faa8155d7.xml
possibly trimming /var/lib/jenkins/fingerprints/6f/e7/a9f362e7ca2799ff6328861703ea.xml
possibly trimming /var/lib/jenkins/fingerprints/6f/ad/f1eeb4c0582d76d4930adb8599a4.xml
possibly trimming /var/lib/jenkins/fingerprints/6f/e0/482c64b6911c9bdb1c54047808a8.xml
possibly trimming /var/lib/jenkins/fingerprints/6f/04/451d3743f4fd390a840ef41d0383.xml
possibly trimming /var/lib/jenkins/fingerprints/cf/89/c593f0378e9509a06fce7030aeba.xml
possibly trimming /var/lib/jenkins/fingerprints/cf/e4/7de7e62341af0755f725dd7c6920.xml
possibly trimming /var/lib/jenkins/fingerprints/cf/88/331453c9050f0b2f058ec0baaeaa.xml
possibly trimming /var/lib/jenkins/fingerprints/64/0c/58226e7bb6beacc8ac3f6bb533d1.xml
possibly trimming /var/lib/jenkins/fingerprints/64/ab/55661baf7a0441a61a06d5abe5e5.xml
possibly trimming /var/lib/jenkins/fingerprints/64/ce/dbebe524a2615ec030fa05e537e6.xml
possibly trimming /var/lib/jenkins/fingerprints/82/b8/99580da472be37055da949b731fa.xml
possibly trimming /var/lib/jenkins/fingerprints/82/58/15288181386ff9e0b6e5bf30adee.xml
possibly trimming /var/lib/jenkins/fingerprints/82/69/dec37b287a7baeb46c46dae7efeb.xml
possibly trimming /var/lib/jenkins/fingerprints/82/2a/a8de6e4281d5ffb6a317c8fdccce.xml
possibly trimming /var/lib/jenkins/fingerprints/a4/44/73b98947e2a54c54e0db1387d137.xml
possibly trimming /var/lib/jenkins/fingerprints/a4/5d/e543986246f57dcc087664f3c646.xml
possibly trimming /var/lib/jenkins/fingerprints/a4/16/6cafe6e5d37c363b6795ee92c92c.xml
possibly trimming /var/lib/jenkins/fingerprints/a4/15/e9a322984be1e1f8a023d09dca5f.xml
possibly trimming /var/lib/jenkins/fingerprints/a4/53/17fcc85a35d151d85f25b8d823dc.xml
possibly trimming /var/lib/jenkins/fingerprints/a4/3c/360eb46438faf372af7e8f73c3e8.xml
possibly trimming /var/lib/jenkins/fingerprints/a4/b1/5652f6ec64c33cf94222c2149f1a.xml
possibly trimming /var/lib/jenkins/fingerprints/a4/31/6d3710840f4b7152b7ac1c904679.xml
possibly trimming /var/lib/jenkins/fingerprints/a4/2f/1f5bfa4e6f123ddcab3de7e0ff81.xml
possibly trimming /var/lib/jenkins/fingerprints/a4/23/e46b6d6e5c83adb8542c64cd1bfb.xml
possibly trimming /var/lib/jenkins/fingerprints/96/f5/266fd52a72d4c104ff7f7c9cde17.xml
possibly trimming /var/lib/jenkins/fingerprints/96/85/75ef15e4024d205fa6ecddec67a9.xml
possibly trimming /var/lib/jenkins/fingerprints/96/d9/16d22b35f49371fcfd362276888b.xml
possibly trimming /var/lib/jenkins/fingerprints/96/6e/8f95e04febb15626277f14838c78.xml
possibly trimming /var/lib/jenkins/fingerprints/96/62/079424f4758ef2429e124373950a.xml
possibly trimming /var/lib/jenkins/fingerprints/73/5b/cea3e47fd715900cfb95ec68b50f.xml
possibly trimming /var/lib/jenkins/fingerprints/73/a1/7009f359040fbe3824564832a248.xml
possibly trimming /var/lib/jenkins/fingerprints/73/81/394a4426246a731aae329edbeb61.xml
possibly trimming /var/lib/jenkins/fingerprints/73/ae/ea2ddd36d6ec128802868e23ef1d.xml
possibly trimming /var/lib/jenkins/fingerprints/44/af/f2b8a8cdb4f4f459fcf950891b24.xml
possibly trimming /var/lib/jenkins/fingerprints/44/58/7d0f480ace3c9a1725ed838e9cd7.xml
possibly trimming /var/lib/jenkins/fingerprints/44/9a/8526712f4ddfec8020ee083e6a57.xml
possibly trimming /var/lib/jenkins/fingerprints/44/18/d0dc2e326795dea1ae347d1deb19.xml
possibly trimming /var/lib/jenkins/fingerprints/44/01/9c402d24b5998be1b8caab296be1.xml
possibly trimming /var/lib/jenkins/fingerprints/44/33/0f96d4c122f2087fffaea0ac3499.xml
possibly trimming /var/lib/jenkins/fingerprints/44/47/c2b71fdf4e46db3a3e17a32348ce.xml
possibly trimming /var/lib/jenkins/fingerprints/42/e9/40d5d2d822f4dc04c65053e630ab.xml
possibly trimming /var/lib/jenkins/fingerprints/42/0d/9543baea66c6a882eb5e51e69094.xml
possibly trimming /var/lib/jenkins/fingerprints/42/cd/4f49ef16d2280e1a6bc84ba8af43.xml
possibly trimming /var/lib/jenkins/fingerprints/42/26/379119c158f0aa045ee89055989b.xml
possibly trimming /var/lib/jenkins/fingerprints/a1/8f/2d0153b5607dff8c5becbdd76dd1.xml
possibly trimming /var/lib/jenkins/fingerprints/a1/d3/b5e03deb87e11ae96eb85e0dab91.xml
possibly trimming /var/lib/jenkins/fingerprints/a1/40/517286b56eea981e188dcc3a13f6.xml
possibly trimming /var/lib/jenkins/fingerprints/a1/6d/1f0f594dc7909b49acaedd3ac5af.xml
possibly trimming /var/lib/jenkins/fingerprints/a1/73/35569fd2765c000e9d76116b0da9.xml
possibly trimming /var/lib/jenkins/fingerprints/a1/62/b170d47fa54434155f7ded56ccb2.xml
possibly trimming /var/lib/jenkins/fingerprints/7b/6f/c7c9958ddb7f47c37f89cc0872d8.xml
possibly trimming /var/lib/jenkins/fingerprints/7b/92/16b608d550787bdf43a63d88bf3b.xml
possibly trimming /var/lib/jenkins/fingerprints/7b/7c/fe9134e8448eea3663c406abb9ba.xml
possibly trimming /var/lib/jenkins/fingerprints/7b/d2/5a06e2f6b5c1f49a54ba48105adb.xml
possibly trimming /var/lib/jenkins/fingerprints/d6/a8/586b96f0a0fb5f6100371759fa17.xml
possibly trimming /var/lib/jenkins/fingerprints/d6/a9/c5a7022fe30ab24514d00e7046ab.xml
possibly trimming /var/lib/jenkins/fingerprints/d6/17/b3421a9968412f15f4958bd159c7.xml
possibly trimming /var/lib/jenkins/fingerprints/e4/1b/843e866581d60fa24edde0e7b72a.xml
possibly trimming /var/lib/jenkins/fingerprints/e4/ec/315d81edafd721d23ba921b92927.xml
possibly trimming /var/lib/jenkins/fingerprints/e4/c3/691864519d4f4794287deb4e61f5.xml
possibly trimming /var/lib/jenkins/fingerprints/e4/0f/dcd9dcf52833f3a9b2e63f1f438c.xml
possibly trimming /var/lib/jenkins/fingerprints/f7/2a/f462f38f94416fc26e24fd3606d2.xml
possibly trimming /var/lib/jenkins/fingerprints/f7/8e/4032400a1284c7a6700a9896dcf8.xml
possibly trimming /var/lib/jenkins/fingerprints/67/5d/fbe0c874dfecb97f353048ea8ecb.xml
possibly trimming /var/lib/jenkins/fingerprints/67/aa/3d67701de0b808ff606e1756c8bb.xml
possibly trimming /var/lib/jenkins/fingerprints/67/c1/cd4fa81ff39826826f46e88f420f.xml
possibly trimming /var/lib/jenkins/fingerprints/67/af/33dfdc06f3332b7df15d86c2b259.xml
possibly trimming /var/lib/jenkins/fingerprints/67/1c/434560d04e8f06aac02a413d11e4.xml
possibly trimming /var/lib/jenkins/fingerprints/67/06/158774fa528841e723fbbbcf34d0.xml
possibly trimming /var/lib/jenkins/fingerprints/88/4b/7c5a22df1caf8f72b1a648cddde3.xml
possibly trimming /var/lib/jenkins/fingerprints/88/2a/dd48c16ceb068eacb5a19e636c1e.xml
possibly trimming /var/lib/jenkins/fingerprints/88/50/bb82e28bf6b90a4217a4ab989795.xml
possibly trimming /var/lib/jenkins/fingerprints/c6/2b/bc5e43fa6e276fcc46695af20c9e.xml
possibly trimming /var/lib/jenkins/fingerprints/c6/ad/8f9f12dca37f99b6089098c470e9.xml
possibly trimming /var/lib/jenkins/fingerprints/c6/53/b0442acefad60d38ff21359c5af9.xml
possibly trimming /var/lib/jenkins/fingerprints/c6/80/92e9c4a5e97afce9f4ad03286afa.xml
possibly trimming /var/lib/jenkins/fingerprints/c6/83/61d7147eb62ec245b120cc8f7af2.xml
possibly trimming /var/lib/jenkins/fingerprints/c6/47/e20db0da7ec16b7738c13c652084.xml
possibly trimming /var/lib/jenkins/fingerprints/c6/77/e80d061c23479161a6c98f5d7899.xml
possibly trimming /var/lib/jenkins/fingerprints/8c/c0/8a8837afd8e78b444a99c53ce09b.xml
possibly trimming /var/lib/jenkins/fingerprints/8c/a2/437d3dbbaa2e76195adedfd901f4.xml
possibly trimming /var/lib/jenkins/fingerprints/8c/b7/d88faca2da5a3f9a3c50eee1fc3b.xml
possibly trimming /var/lib/jenkins/fingerprints/8c/f8/803ce64f8c479b2a2af776c66a6e.xml
possibly trimming /var/lib/jenkins/fingerprints/8c/49/1d211382df83cb68303e004d5df5.xml
possibly trimming /var/lib/jenkins/fingerprints/8c/72/699b83d2d23c8b238b7e74d24a3c.xml
possibly trimming /var/lib/jenkins/fingerprints/8c/47/ef4fd8418231acff83a4bcffeca0.xml
possibly trimming /var/lib/jenkins/fingerprints/22/fd/2c2a902ebd78c66a19cfdadd649d.xml
possibly trimming /var/lib/jenkins/fingerprints/22/35/04f742addd3f631ed8bdf689f1c9.xml
possibly trimming /var/lib/jenkins/fingerprints/22/bb/2f5de639e274ef2e2f988d3f6b2f.xml
possibly trimming /var/lib/jenkins/fingerprints/22/3a/5fac960a7398aa3c6607f8da4558.xml
possibly trimming /var/lib/jenkins/fingerprints/22/c7/26dd6db1ab8250af5695e74494e6.xml
possibly trimming /var/lib/jenkins/fingerprints/22/b4/066e8e2f7695926339ef94572bd0.xml
possibly trimming /var/lib/jenkins/fingerprints/48/42/46932538cad7f4a54c3568c57e10.xml
possibly trimming /var/lib/jenkins/fingerprints/48/d2/7f0f7d54e3fa1e6f8d0472fe8002.xml
possibly trimming /var/lib/jenkins/fingerprints/48/54/c2344aa182ad4f37976e83348aa0.xml
possibly trimming /var/lib/jenkins/fingerprints/48/76/2848e051af9fd3901ff7abef1275.xml
possibly trimming /var/lib/jenkins/fingerprints/48/f0/e0081b45aed086faf7678242a4d4.xml
possibly trimming /var/lib/jenkins/fingerprints/48/cd/00abc388c5156879b335e869adab.xml
possibly trimming /var/lib/jenkins/fingerprints/48/d3/c8c08b2c632f247bc460e9e4399e.xml
possibly trimming /var/lib/jenkins/fingerprints/48/7a/2c1ccf34851a12716e07ddc99272.xml
possibly trimming /var/lib/jenkins/fingerprints/fd/a7/f2a2f7ac9b017a5de1a4742753fd.xml
possibly trimming /var/lib/jenkins/fingerprints/fd/87/b0fa932a63edcc1ef652a9a33258.xml
possibly trimming /var/lib/jenkins/fingerprints/fd/66/7fbdaf3190bdd8aee4e8e2d12d5c.xml
possibly trimming /var/lib/jenkins/fingerprints/11/4b/f0c133c51fd6544ed943aca4efcd.xml
possibly trimming /var/lib/jenkins/fingerprints/11/0a/d2ea84f7031a1798648b6b318e79.xml
possibly trimming /var/lib/jenkins/fingerprints/11/b1/fa0b203ac23b91c1f2b7fb5ab2d1.xml
possibly trimming /var/lib/jenkins/fingerprints/11/36/3bd58696feae207a992da2ce7a90.xml
possibly trimming /var/lib/jenkins/fingerprints/5a/4e/f7a62f6f26168e20727238071267.xml
possibly trimming /var/lib/jenkins/fingerprints/5a/65/39a33d9a7b67b015ad109de87fb6.xml
possibly trimming /var/lib/jenkins/fingerprints/5a/43/75e8cedd563625e75cdade207830.xml
possibly trimming /var/lib/jenkins/fingerprints/5a/fe/545d418215cbb887c0d2d1e79f55.xml
possibly trimming /var/lib/jenkins/fingerprints/5a/c5/dbe1f41bbeb6882d17559fb4fb33.xml
possibly trimming /var/lib/jenkins/fingerprints/c0/8e/89de601b0a78f941b2c29db565c3.xml
possibly trimming /var/lib/jenkins/fingerprints/c0/76/502371b3b170b829c9b163a87081.xml
possibly trimming /var/lib/jenkins/fingerprints/c0/26/1a3f01afc3f720b13d67eb3bf448.xml
possibly trimming /var/lib/jenkins/fingerprints/c0/d6/2f5257816b463c4638aa4057c891.xml
possibly trimming /var/lib/jenkins/fingerprints/c0/f1/e4fb6ded2e1b6f072314500ac353.xml
possibly trimming /var/lib/jenkins/fingerprints/c0/f4/23ddd0f1184afc36eb8cb8ffc745.xml
possibly trimming /var/lib/jenkins/fingerprints/c0/fc/39ae35a97354654267c12d4f86c1.xml
possibly trimming /var/lib/jenkins/fingerprints/c0/54/fcd955964c9e66d8b0342ca04f48.xml
possibly trimming /var/lib/jenkins/fingerprints/a8/1f/8ea6884c29f9150804d0b6d930b5.xml
possibly trimming /var/lib/jenkins/fingerprints/a8/4b/747b13a9251333f7280d8332a41d.xml
possibly trimming /var/lib/jenkins/fingerprints/a8/e0/d0c46b9a1b74f7128ed520001dcf.xml
possibly trimming /var/lib/jenkins/fingerprints/a8/08/e8f5110ff59310e030aff3f1879d.xml
possibly trimming /var/lib/jenkins/fingerprints/3a/62/e99303b69178330432d9f5425270.xml
possibly trimming /var/lib/jenkins/fingerprints/3a/2a/f8945d7b2ae38ca33a97f60a9611.xml
possibly trimming /var/lib/jenkins/fingerprints/3a/49/aaa7d35be702536a390eb50925d2.xml
possibly trimming /var/lib/jenkins/fingerprints/c8/02/b9ad760bc9c605f01fee07f2ccc5.xml
possibly trimming /var/lib/jenkins/fingerprints/c8/4c/4007b96f40c7749a65db9682b1ab.xml
possibly trimming /var/lib/jenkins/fingerprints/c8/9b/11ee8ea2ebb1388f7eaeec047800.xml
possibly trimming /var/lib/jenkins/fingerprints/0e/5b/d4ce84fab674dbc0c95c4bd193d0.xml
possibly trimming /var/lib/jenkins/fingerprints/0e/ff/b2e71f676c25d76c3ae5dd6674f9.xml
possibly trimming /var/lib/jenkins/fingerprints/0e/fa/eebe40df0ee7e2288676d7db1913.xml
possibly trimming /var/lib/jenkins/fingerprints/0e/c3/7b5b4733359678d3cbcbb0b451b5.xml
possibly trimming /var/lib/jenkins/fingerprints/0e/03/18be407e51fdf7ba6777eabfdf73.xml
possibly trimming /var/lib/jenkins/fingerprints/0e/b3/b79e7f2e71c6dbdd5b26249fdc59.xml
possibly trimming /var/lib/jenkins/fingerprints/0e/72/2616897e7de9f0d533f6f65c3427.xml
possibly trimming /var/lib/jenkins/fingerprints/ef/4c/e65593282056da006529e154ef4d.xml
possibly trimming /var/lib/jenkins/fingerprints/ef/27/5823c424317fc951a8c8b8dff08b.xml
possibly trimming /var/lib/jenkins/fingerprints/ef/37/dcdb84030422db428b63c4354e5b.xml
possibly trimming /var/lib/jenkins/fingerprints/ef/fb/e923b013d92b226b6224ff103a03.xml
possibly trimming /var/lib/jenkins/fingerprints/ef/b4/fda53de82718047bb834f2a3917e.xml
possibly trimming /var/lib/jenkins/fingerprints/ef/3d/59b762299e7b598d30ff450bade4.xml
possibly trimming /var/lib/jenkins/fingerprints/ef/20/5877178494d78d3392c199fdd7a5.xml
possibly trimming /var/lib/jenkins/fingerprints/ef/99/5253c00b46ea8eb3ec139e81e1c3.xml
possibly trimming /var/lib/jenkins/fingerprints/c1/02/2963c2a5d53272be2aefccc590ab.xml
possibly trimming /var/lib/jenkins/fingerprints/c1/34/bcc59701dba1534250a7b20767f3.xml
possibly trimming /var/lib/jenkins/fingerprints/c1/3b/de1d0dae26b8ca3c56b5e4e40157.xml
possibly trimming /var/lib/jenkins/fingerprints/c1/54/3fb5c92c05b09087358cf9869df6.xml
possibly trimming /var/lib/jenkins/fingerprints/c1/96/7f0a515c4b8155f62478ec823464.xml
possibly trimming /var/lib/jenkins/fingerprints/c1/22/b5f97a29fa6b8b0bc4e5c2c58bb6.xml
possibly trimming /var/lib/jenkins/fingerprints/c1/95/7a85d38024ae5389ec0e3d91b24c.xml
possibly trimming /var/lib/jenkins/fingerprints/c1/6e/0948d540361e11e9e9a1e7916806.xml
possibly trimming /var/lib/jenkins/fingerprints/bd/13/ca603dd866e7dc793234c2d79646.xml
possibly trimming /var/lib/jenkins/fingerprints/bd/ad/43504c07b9a025251de8781a86e4.xml
possibly trimming /var/lib/jenkins/fingerprints/bd/e0/58840b62959c7a2f2960b6031a57.xml
possibly trimming /var/lib/jenkins/fingerprints/36/b5/c255cf87425f1e528d6a3d0eb5f1.xml
possibly trimming /var/lib/jenkins/fingerprints/36/f6/9d49a209a0c69df42b80d6159566.xml
possibly trimming /var/lib/jenkins/fingerprints/36/61/5af7132d52e3363afe1ecbbe39f4.xml
possibly trimming /var/lib/jenkins/fingerprints/36/fc/ce3df21d4efaa2d8337a13c5eb01.xml
possibly trimming /var/lib/jenkins/fingerprints/bf/92/fc0d8b7481393afeeddb47908370.xml
possibly trimming /var/lib/jenkins/fingerprints/bf/dc/ae1ff93f0c07d733f03bdce28c9e.xml
possibly trimming /var/lib/jenkins/fingerprints/bf/bd/e49a1ee85efd6eea301999ce3bec.xml
possibly trimming /var/lib/jenkins/fingerprints/bf/af/c9cff904388fedce934757752309.xml
possibly trimming /var/lib/jenkins/fingerprints/bf/bf/bcee676e5450aa04a0bdb7a5fd53.xml
possibly trimming /var/lib/jenkins/fingerprints/bf/cf/793719ed18bf35ab0d2ffb1549ee.xml
possibly trimming /var/lib/jenkins/fingerprints/bf/a2/fa7647af22043d22b4586dc91ac0.xml
possibly trimming /var/lib/jenkins/fingerprints/c4/87/d8f31fc54ba56bce6a97be082fb3.xml
possibly trimming /var/lib/jenkins/fingerprints/c4/ed/63e570c88568aafc7cffee1a112f.xml
possibly trimming /var/lib/jenkins/fingerprints/45/6e/3d919a0a3ad28a1f75170b2dc1fd.xml
possibly trimming /var/lib/jenkins/fingerprints/45/87/15c0f7646a56b1c6ad3138098beb.xml
possibly trimming /var/lib/jenkins/fingerprints/45/c5/6dc50536002872f493dcbce28249.xml
possibly trimming /var/lib/jenkins/fingerprints/45/0f/edce4f7f8ad3761577b10a664200.xml
possibly trimming /var/lib/jenkins/fingerprints/92/eb/5aabc1b47287de53d45c086a435c.xml
possibly trimming /var/lib/jenkins/fingerprints/92/a1/3d215927d3d5fccb5487c1b13ba2.xml
possibly trimming /var/lib/jenkins/fingerprints/92/e1/12b2eeae8c7cb5b91d20d3473f4b.xml
possibly trimming /var/lib/jenkins/fingerprints/92/53/509cedda13aa938031061c080776.xml
possibly trimming /var/lib/jenkins/fingerprints/b0/20/3e64b3c06729baa0ef84743ab119.xml
possibly trimming /var/lib/jenkins/fingerprints/b0/99/d9f9b4b99071cc52b259308df69a.xml
possibly trimming /var/lib/jenkins/fingerprints/b0/54/861a20fde123127d5bfa35add483.xml
possibly trimming /var/lib/jenkins/fingerprints/b0/77/33e93350eb01774b0489748633b9.xml
possibly trimming /var/lib/jenkins/fingerprints/b0/e0/8c9936dc52aa40439c71fcad6297.xml
possibly trimming /var/lib/jenkins/fingerprints/c2/7f/395b8b52253ff534d1ebc2e17ef0.xml
possibly trimming /var/lib/jenkins/fingerprints/c2/ce/d5f8505fe9d1cae685201e9cba07.xml
possibly trimming /var/lib/jenkins/fingerprints/c2/85/28aa08ef2c216eb8766a78d73f7e.xml
possibly trimming /var/lib/jenkins/fingerprints/c2/97/956ec91dc461675c3855a388049b.xml
possibly trimming /var/lib/jenkins/fingerprints/c2/a0/2ba772086d732dd761781c0ed124.xml
possibly trimming /var/lib/jenkins/fingerprints/c2/77/4605d0b6f47e84196522d916b5b5.xml
possibly trimming /var/lib/jenkins/fingerprints/c2/da/8aaa34bfe0b75edaa12e5d2f8fa4.xml
possibly trimming /var/lib/jenkins/fingerprints/c2/c4/5367dd9df111966c96bdd13490c4.xml
possibly trimming /var/lib/jenkins/fingerprints/c2/a3/b5a4ce1c555f6df24dd3781ca96e.xml
possibly trimming /var/lib/jenkins/fingerprints/99/f9/9684b6df6200e529575dccce9970.xml
possibly trimming /var/lib/jenkins/fingerprints/99/48/cd7b368052063229cdec1579fbf4.xml
possibly trimming /var/lib/jenkins/fingerprints/99/f6/24c58d505797f656e3d7188fdb97.xml
possibly trimming /var/lib/jenkins/fingerprints/99/bc/885bb5c68be1c09ed23c997df5ac.xml
possibly trimming /var/lib/jenkins/fingerprints/99/ee/1d90571b6b13a0140ce38537964c.xml
possibly trimming /var/lib/jenkins/fingerprints/31/28/bf75a2549ebe38663401191bacab.xml
possibly trimming /var/lib/jenkins/fingerprints/31/9c/49a4304e3fa9fe3cd8dcfc009d37.xml
possibly trimming /var/lib/jenkins/fingerprints/31/86/322b6558b126cef0e00bdbd2466c.xml
possibly trimming /var/lib/jenkins/fingerprints/31/98/f1f1f85c07aa382d52e3e9c333a1.xml
possibly trimming /var/lib/jenkins/fingerprints/31/39/8baa54e6eff1f614e11423261cf4.xml
possibly trimming /var/lib/jenkins/fingerprints/f9/f2/0b46de6a0555ca748ad3a436c08c.xml
possibly trimming /var/lib/jenkins/fingerprints/f9/06/f8869e7d55751304cfc338a0a00b.xml
possibly trimming /var/lib/jenkins/fingerprints/f9/85/31c47b09ffc2ec77d2b5311d91b3.xml
possibly trimming /var/lib/jenkins/fingerprints/f9/27/4369f902713d6ae65e0e10d00f4f.xml
possibly trimming /var/lib/jenkins/fingerprints/f9/f9/32d531fa3491bae32ad9ffaacba9.xml
possibly trimming /var/lib/jenkins/fingerprints/4f/e7/11769d6d61f51c21d6c89d70e904.xml
possibly trimming /var/lib/jenkins/fingerprints/4f/52/1b4fd03b814ecfe7fc61f7a2d600.xml
possibly trimming /var/lib/jenkins/fingerprints/4f/d1/9d37ef74c8c49af3d6f7d738a44e.xml
possibly trimming /var/lib/jenkins/fingerprints/4f/29/e832878694d7096249c5c32f8fe9.xml
possibly trimming /var/lib/jenkins/fingerprints/4f/3e/3b8a34729e317e4c2484016ca151.xml
possibly trimming /var/lib/jenkins/fingerprints/4f/9c/24a0177c13906d8116ae37818dda.xml
possibly trimming /var/lib/jenkins/fingerprints/7d/43/6a53c64490bee564c576babb36b4.xml
possibly trimming /var/lib/jenkins/fingerprints/7d/01/d317c717268725896cfb81b18152.xml
possibly trimming /var/lib/jenkins/fingerprints/7d/18/b63063580284c3f5734081fdc99f.xml
possibly trimming /var/lib/jenkins/fingerprints/f5/b5/bb0235536b37ea60b1f5c790f6d5.xml
possibly trimming /var/lib/jenkins/fingerprints/f5/69/fbcfcaf3d738d0c066041fe91972.xml
possibly trimming /var/lib/jenkins/fingerprints/f5/6d/bc456d566ac5bd766bbc1d4ce7a5.xml
possibly trimming /var/lib/jenkins/fingerprints/f5/4a/8510f834a1a57166970bfc982e94.xml
possibly trimming /var/lib/jenkins/fingerprints/f5/b8/0a13f8fd64340ce4d70e9fc581e0.xml
possibly trimming /var/lib/jenkins/fingerprints/6c/56/b95e6166c3d3851d92d7e396f7e2.xml
possibly trimming /var/lib/jenkins/fingerprints/6c/d0/f67018526b8fd7d68f9ca010444e.xml
possibly trimming /var/lib/jenkins/fingerprints/6c/cd/5260c764f4c3840e87a4784d826d.xml
possibly trimming /var/lib/jenkins/fingerprints/6c/6f/a5516cea3e975606c3d78aabbd0d.xml
possibly trimming /var/lib/jenkins/fingerprints/6c/3c/b93924d2eb1955b53318da4ce401.xml
possibly trimming /var/lib/jenkins/fingerprints/6c/bc/e68a18eba8e0192ee30c73752440.xml
possibly trimming /var/lib/jenkins/fingerprints/6c/29/9ff5bd82fcf574a2d4227f5750d0.xml
possibly trimming /var/lib/jenkins/fingerprints/50/79/155844478bb8d79eaab1c272998a.xml
possibly trimming /var/lib/jenkins/fingerprints/50/d3/5a97cb2ea57d28444a4c8ac9e563.xml
possibly trimming /var/lib/jenkins/fingerprints/50/88/5bf953879373de768314dcf222a7.xml
possibly trimming /var/lib/jenkins/fingerprints/47/f4/ebae49c3fa3a61e98fe43e3b9eb8.xml
possibly trimming /var/lib/jenkins/fingerprints/47/d6/178194c38fc70d4e27db08ae5d10.xml
possibly trimming /var/lib/jenkins/fingerprints/47/10/69e42560bb0aa1091e2dd2de5f95.xml
possibly trimming /var/lib/jenkins/fingerprints/47/8b/d132aeb7b1ddbb2479800cbc6f18.xml
possibly trimming /var/lib/jenkins/fingerprints/27/af/feb7261bed55a9e118a3447c37ff.xml
possibly trimming /var/lib/jenkins/fingerprints/27/00/1d64928a1c965605513987d88f30.xml
possibly trimming /var/lib/jenkins/fingerprints/27/80/9bed0b611c4c7195d8d0be9027d7.xml
possibly trimming /var/lib/jenkins/fingerprints/27/1b/6cbde1527e944d1ef02cd49dead4.xml
possibly trimming /var/lib/jenkins/fingerprints/27/1f/55be57132bf55710adb6d2e8b7a0.xml
possibly trimming /var/lib/jenkins/fingerprints/ec/4b/f465a497ecf8723a8b6de45a5f7d.xml
possibly trimming /var/lib/jenkins/fingerprints/ec/2f/1109b7020232c6350fd9ded3e40b.xml
possibly trimming /var/lib/jenkins/fingerprints/ec/c3/6a63c16bb2195198d24f2b803804.xml
possibly trimming /var/lib/jenkins/fingerprints/ec/36/1661ce38268edc0f58716a471e5e.xml
possibly trimming /var/lib/jenkins/fingerprints/b1/e4/bce253a40b884ce39629f15cf74d.xml
possibly trimming /var/lib/jenkins/fingerprints/b1/da/027337932802e3f0d8e4a8772034.xml
possibly trimming /var/lib/jenkins/fingerprints/b1/32/d0178fc0abee1b27cac3d7a003b0.xml
possibly trimming /var/lib/jenkins/fingerprints/b1/8f/33545dacd6f3860930934c3dd30d.xml
possibly trimming /var/lib/jenkins/fingerprints/b1/b0/feebe6ddcbe1ea0284bbd17a813d.xml
possibly trimming /var/lib/jenkins/fingerprints/bc/b0/7d3b8d2397db7a3013b6465d347b.xml
possibly trimming /var/lib/jenkins/fingerprints/bc/11/af4b8ce7138cdc79b7ba8561638c.xml
possibly trimming /var/lib/jenkins/fingerprints/bc/3e/d3b74cebb7a535ec2bb4abb99748.xml
possibly trimming /var/lib/jenkins/fingerprints/bc/d2/5ed411ff19920cbc79735120b962.xml
possibly trimming /var/lib/jenkins/fingerprints/bc/ae/fdc4b6521ea530ec129811f363c8.xml
possibly trimming /var/lib/jenkins/fingerprints/bc/70/099003aafc0fe2d88a6459a1783c.xml
possibly trimming /var/lib/jenkins/fingerprints/bc/21/f8c35a9e2e7f4ae458239bf3b852.xml
possibly trimming /var/lib/jenkins/fingerprints/bc/a8/1a7b833d520092d2c762a05cff9f.xml
possibly trimming /var/lib/jenkins/fingerprints/13/2d/b2975a086024994c920769b900db.xml
possibly trimming /var/lib/jenkins/fingerprints/13/bc/641afd7fd95e09b260f69c1e4c91.xml
possibly trimming /var/lib/jenkins/fingerprints/13/0d/f3790d84357d3eb78af9449d77c9.xml
possibly trimming /var/lib/jenkins/fingerprints/f4/15/3a652ce29816f39e8dfb72cd4841.xml
possibly trimming /var/lib/jenkins/fingerprints/f4/3b/b28332a67508d0b7adda59a49b82.xml
possibly trimming /var/lib/jenkins/fingerprints/f4/19/92ab2729b1cb9c6b4721465aa4e4.xml
possibly trimming /var/lib/jenkins/fingerprints/f4/74/34154c2e4db67dee8cd1c66a64fa.xml
possibly trimming /var/lib/jenkins/fingerprints/f4/1e/b4e07a725eea3332743a29057855.xml
possibly trimming /var/lib/jenkins/fingerprints/f4/5d/6fa1223a2a2fb022277fed7b545a.xml
possibly trimming /var/lib/jenkins/fingerprints/91/28/5749478616f63f37b0ebb19f1fed.xml
possibly trimming /var/lib/jenkins/fingerprints/91/ca/4c0ab45db428d8bf3e07f387bd2f.xml
possibly trimming /var/lib/jenkins/fingerprints/91/cd/fcf75eb61fb04a5c7fe77eca1f4e.xml
possibly trimming /var/lib/jenkins/fingerprints/91/71/3c030b7c7e557fb3543cf271f514.xml
possibly trimming /var/lib/jenkins/fingerprints/3e/f2/36ac4c24850cd54abff60be25f35.xml
possibly trimming /var/lib/jenkins/fingerprints/3e/ea/fc985d3ca624abf2d3ad549180d0.xml
possibly trimming /var/lib/jenkins/fingerprints/3e/ce/cdb4ddfe3217357aafbf530b3ba0.xml
possibly trimming /var/lib/jenkins/fingerprints/3e/12/caa6bd5111671b5e321548d7700a.xml
possibly trimming /var/lib/jenkins/fingerprints/58/40/10e5e62f4fa4b8ccfdf35a2c3a8a.xml
possibly trimming /var/lib/jenkins/fingerprints/58/55/3f87d83b9f8ec74bd3529083ee2f.xml
possibly trimming /var/lib/jenkins/fingerprints/58/27/1fabdea43893e51af2740037e42e.xml
possibly trimming /var/lib/jenkins/fingerprints/58/9f/ef393fcfac175de3901d6f900009.xml
possibly trimming /var/lib/jenkins/fingerprints/8e/20/6c4534d22617092126b455de9be4.xml
possibly trimming /var/lib/jenkins/fingerprints/8e/3e/62c8e450cfa66d4bd90f1fb553d8.xml
possibly trimming /var/lib/jenkins/fingerprints/8e/c8/ec99fa93de9c175e71217a6def3e.xml
possibly trimming /var/lib/jenkins/fingerprints/8e/ae/e85146662d4c191598a9e73d59a5.xml
possibly trimming /var/lib/jenkins/fingerprints/8e/5c/8db242fbef3db1acfcbb3bc8ec8b.xml
possibly trimming /var/lib/jenkins/fingerprints/9b/cc/bc680238d9352156891cf53b96b4.xml
possibly trimming /var/lib/jenkins/fingerprints/9b/df/03f129c6ec8d0da680a979013e55.xml
possibly trimming /var/lib/jenkins/fingerprints/9b/2e/40069a269939c471a0b2c3c833ce.xml
possibly trimming /var/lib/jenkins/fingerprints/7e/af/c2e18e82d7a38cb800be2dc9d678.xml
possibly trimming /var/lib/jenkins/fingerprints/7e/a9/caf02d987156cc92e79dbcdf7f10.xml
possibly trimming /var/lib/jenkins/fingerprints/7e/aa/d6fea5925cca6c36ee8b3e02ac9d.xml
possibly trimming /var/lib/jenkins/fingerprints/2b/41/54ddf8ec97a43402f3dd81c23ac0.xml
possibly trimming /var/lib/jenkins/fingerprints/2b/15/a9c4606e4d0527fc8626bc8a5c1b.xml
possibly trimming /var/lib/jenkins/fingerprints/d4/ce/482153073855e7c6453dc3c725cb.xml
possibly trimming /var/lib/jenkins/fingerprints/d4/3a/ad24f2c143b675292ccfef487f9c.xml
possibly trimming /var/lib/jenkins/fingerprints/d4/f1/1349a0263b82d07c115a8522c431.xml
possibly trimming /var/lib/jenkins/fingerprints/d4/27/3cebc14cf668f29df545c594510a.xml
possibly trimming /var/lib/jenkins/fingerprints/95/1b/36984148fc4f4e901f06ab382273.xml
possibly trimming /var/lib/jenkins/fingerprints/95/2b/f1dfabce0c8dfa5c53f548529749.xml
possibly trimming /var/lib/jenkins/fingerprints/95/03/39565ffb3fead0640e697cb9f3c7.xml
possibly trimming /var/lib/jenkins/fingerprints/95/35/82b1d996a0bfa884aac40eb7b470.xml
possibly trimming /var/lib/jenkins/fingerprints/1d/f8/00392c432e449d9a19ed7a8f54a8.xml
possibly trimming /var/lib/jenkins/fingerprints/1d/5a/772e400b04bb67a7ef4a0e0996d8.xml
possibly trimming /var/lib/jenkins/fingerprints/1d/7a/3ec1bd370a57cc3a993d7d00501a.xml
possibly trimming /var/lib/jenkins/fingerprints/1d/67/63fb2a89c9fe54f75e69ded222f5.xml
possibly trimming /var/lib/jenkins/fingerprints/1d/33/8743fbf2b1b581cb5c50acee0521.xml
possibly trimming /var/lib/jenkins/fingerprints/f8/f1/352c52a4c6a500b597596501fc64.xml
possibly trimming /var/lib/jenkins/fingerprints/f8/54/64e2dabb306e7f9ea9d6315f12e4.xml
possibly trimming /var/lib/jenkins/fingerprints/f8/07/f86d7d9db25edbfc782aca7ca2a9.xml
possibly trimming /var/lib/jenkins/fingerprints/f8/f9/758c875f16a530e5903ca7553ea6.xml
possibly trimming /var/lib/jenkins/fingerprints/f8/23/94e20ffef15b0bcde8aeccf60b5f.xml
possibly trimming /var/lib/jenkins/fingerprints/4c/cb/8ad826f190f57d6e2a68749863ab.xml
possibly trimming /var/lib/jenkins/fingerprints/4c/25/7f52462860b62ab3cdab45f53082.xml
possibly trimming /var/lib/jenkins/fingerprints/4c/63/6153ca29294a4c329cddf25e7d3a.xml
possibly trimming /var/lib/jenkins/fingerprints/4c/89/c44ca3c604a043253e7482b1d65f.xml
possibly trimming /var/lib/jenkins/fingerprints/4c/d5/6b2e4977e541186de69f5126b4a6.xml
possibly trimming /var/lib/jenkins/fingerprints/4c/9f/3221c44f150e7618fc4311a2f2bc.xml
possibly trimming /var/lib/jenkins/fingerprints/eb/cf/1d4076dae45d606f6bbc855ac162.xml
possibly trimming /var/lib/jenkins/fingerprints/eb/7f/b54ca466828b095431efd8051fcb.xml
possibly trimming /var/lib/jenkins/fingerprints/eb/17/eed86279d5f362d3f37c519228c1.xml
possibly trimming /var/lib/jenkins/fingerprints/eb/9d/e409fb60d13e107b094a1764d3c3.xml
possibly trimming /var/lib/jenkins/fingerprints/eb/04/fa63fc70c722f2b8ec156166343b.xml
possibly trimming /var/lib/jenkins/fingerprints/70/2c/38f46de5c11b68edeead160add88.xml
possibly trimming /var/lib/jenkins/fingerprints/70/fd/a5202eb9d9ce4f250f2c2ba71152.xml
possibly trimming /var/lib/jenkins/fingerprints/db/2a/8e900965c9618cac9abec038e3de.xml
possibly trimming /var/lib/jenkins/fingerprints/db/54/ad82f342f6766741a0bcebb34fde.xml
possibly trimming /var/lib/jenkins/fingerprints/db/b2/78ccee53f343d9aa90b424fb632b.xml
possibly trimming /var/lib/jenkins/fingerprints/db/e1/b8ea535fffb7eaafcac0ceae5c22.xml
possibly trimming /var/lib/jenkins/fingerprints/db/0e/461169599af137eb24478c5292ce.xml
possibly trimming /var/lib/jenkins/fingerprints/b5/67/cba351c2a55c283cff9bdb783c46.xml
possibly trimming /var/lib/jenkins/fingerprints/b5/d3/0c1dc9ad3943f8b4c002a7c8bd64.xml
possibly trimming /var/lib/jenkins/fingerprints/b5/a0/500e4c194796ac59175f64ae7029.xml
possibly trimming /var/lib/jenkins/fingerprints/b5/19/ed2cf84931a833f8b97e5d2e3995.xml
possibly trimming /var/lib/jenkins/fingerprints/b5/21/e56daab5180a4a57e4e3b94687d1.xml
possibly trimming /var/lib/jenkins/fingerprints/c7/bb/f3e851d9977ed4d314bde8eb8209.xml
possibly trimming /var/lib/jenkins/fingerprints/c7/86/3932813240ae5178e96dd7537bfd.xml
possibly trimming /var/lib/jenkins/fingerprints/c7/19/aad6745c191a9ac643d82f42dd95.xml
possibly trimming /var/lib/jenkins/fingerprints/c7/14/52dc7aee7e24fc88ceb6d9601329.xml
possibly trimming /var/lib/jenkins/fingerprints/56/d7/48f33fa07cb50c86eb72f53141b5.xml
possibly trimming /var/lib/jenkins/fingerprints/56/5d/cb62414d9f227cc04e3c54ae33b3.xml
possibly trimming /var/lib/jenkins/fingerprints/1a/2e/a6575b64b82839a155c7a41ecfa5.xml
possibly trimming /var/lib/jenkins/fingerprints/1a/d1/e8959324b0f680b8e62406955642.xml
possibly trimming /var/lib/jenkins/fingerprints/1a/21/cb979328da73fb57c78da7ce99b9.xml
possibly trimming /var/lib/jenkins/fingerprints/1a/fe/6492b5fdb08b7bace3b4aaa6f4d0.xml
possibly trimming /var/lib/jenkins/fingerprints/1a/b5/27c37ea972ec0bc9836f34569cce.xml
possibly trimming /var/lib/jenkins/fingerprints/d7/fa/38a06066b6f556e8537f8d103366.xml
possibly trimming /var/lib/jenkins/fingerprints/d7/7d/a46301db5a9cefd4ebcefcf38285.xml
possibly trimming /var/lib/jenkins/fingerprints/b2/aa/6589063c557740b1f1019de0c981.xml
possibly trimming /var/lib/jenkins/fingerprints/b2/89/e996e2931e31a30550370402bd74.xml
possibly trimming /var/lib/jenkins/fingerprints/33/fc/1ad34083897dc0e83b723b45e110.xml
possibly trimming /var/lib/jenkins/fingerprints/33/f6/9f0375142f3c179b3b8494a1e33e.xml
possibly trimming /var/lib/jenkins/fingerprints/33/f5/40df15bd4a3324654a7a902207a2.xml
possibly trimming /var/lib/jenkins/fingerprints/10/51/bda4e75b3b4313628ab7122f56a4.xml
possibly trimming /var/lib/jenkins/fingerprints/10/2d/733dfddca330190e150210bc4780.xml
possibly trimming /var/lib/jenkins/fingerprints/10/ac/af31037097e1f46f03e0d2650cb7.xml
possibly trimming /var/lib/jenkins/fingerprints/c9/99/a28fd0788cca79fb64460a36b0af.xml
possibly trimming /var/lib/jenkins/fingerprints/c9/c9/67db3b6be7613b07e8e414c7f821.xml
possibly trimming /var/lib/jenkins/fingerprints/c9/2d/2cbad2bff8a52f70bf2473921633.xml
possibly trimming /var/lib/jenkins/fingerprints/c9/a9/9e9922cd03de1911495a5d4e42b1.xml
possibly trimming /var/lib/jenkins/fingerprints/c9/c3/4b5d5ebf843cdfcca93abb49051e.xml
possibly trimming /var/lib/jenkins/fingerprints/c9/1e/ae123d67b0d3f2431a1f221cdc68.xml
possibly trimming /var/lib/jenkins/fingerprints/6d/ee/9238dd2900171197104951940778.xml
possibly trimming /var/lib/jenkins/fingerprints/6d/cd/6be0af26658b96a86a161d271379.xml
possibly trimming /var/lib/jenkins/fingerprints/aa/6d/7c8b425df59f5f5bc98c58cfd9fc.xml
possibly trimming /var/lib/jenkins/fingerprints/aa/f3/5456c0f6ea424579491a92181bf3.xml
possibly trimming /var/lib/jenkins/fingerprints/aa/1d/688b71e9e672f71f7ebd7b98094d.xml
possibly trimming /var/lib/jenkins/fingerprints/aa/24/c0fa7116b0bc2a3ce0506d1f62af.xml
possibly trimming /var/lib/jenkins/fingerprints/2f/a7/d0e921c46245d0e1b39f3ac365f5.xml
possibly trimming /var/lib/jenkins/fingerprints/2f/18/3e60ad3d10e654bc3c276445033a.xml
possibly trimming /var/lib/jenkins/fingerprints/2f/e9/994b208fe7a438aad98acf3fcdc2.xml
possibly trimming /var/lib/jenkins/fingerprints/2f/77/40bafacc2493f9b813af45d1ae35.xml
possibly trimming /var/lib/jenkins/fingerprints/2f/a8/3c1a4c2ba8c7253224fefe72f307.xml
possibly trimming /var/lib/jenkins/fingerprints/2f/4a/71c19c7463261563bb04a0ffa6ca.xml
possibly trimming /var/lib/jenkins/fingerprints/2f/69/450e89451b03e46580aaae37dad4.xml
possibly trimming /var/lib/jenkins/fingerprints/2f/0a/baaa91246e7f9e7ecfd013059bc1.xml
possibly trimming /var/lib/jenkins/fingerprints/2f/ed/a59ce2bf93a5150917eb8ec7106e.xml
possibly trimming /var/lib/jenkins/fingerprints/2f/a4/90274ea58515ab882a20e66a9a16.xml
possibly trimming /var/lib/jenkins/fingerprints/2f/4c/ce2e32031d3cf2ad9e823a0dda68.xml
possibly trimming /var/lib/jenkins/fingerprints/e8/6f/321c8191b37bd720ff5679f57288.xml
possibly trimming /var/lib/jenkins/fingerprints/e8/3d/b1a986d8ba8c178b8aa0825ecec3.xml
possibly trimming /var/lib/jenkins/fingerprints/e8/9b/90c473074e8f08d834bc1f782b28.xml
possibly trimming /var/lib/jenkins/fingerprints/e8/32/5763fd4235f174ab7b72ed815db1.xml
possibly trimming /var/lib/jenkins/fingerprints/e8/96/2abf912eb8a44680258cf1ca3dc6.xml
possibly trimming /var/lib/jenkins/fingerprints/9f/c2/87c58f579c4abda4886f3fb5d5b4.xml
possibly trimming /var/lib/jenkins/fingerprints/9f/29/8a2d65e68184f9ebaa938bc12106.xml
possibly trimming /var/lib/jenkins/fingerprints/9f/90/fef26a4972d930f50ead90fd4c2b.xml
possibly trimming /var/lib/jenkins/fingerprints/80/20/e66ba34dd29c435308db7ab9d018.xml
possibly trimming /var/lib/jenkins/fingerprints/80/5d/37dd48858998b40351380b701cb0.xml
possibly trimming /var/lib/jenkins/fingerprints/80/1e/a78ebfb12ddcd3ff3a656228b195.xml
possibly trimming /var/lib/jenkins/fingerprints/80/62/0e888bafcc5de1b25049888c9617.xml
possibly trimming /var/lib/jenkins/fingerprints/80/e6/f590fc6e0f3e732c144ddbaa1cd9.xml
possibly trimming /var/lib/jenkins/fingerprints/80/ed/c364a78028f0250359566d0ea67f.xml
possibly trimming /var/lib/jenkins/fingerprints/80/00/60ba371a358f5b4c3223fdf21c0b.xml
possibly trimming /var/lib/jenkins/fingerprints/65/09/1441fd5dff60fed1eb6b7401603e.xml
possibly trimming /var/lib/jenkins/fingerprints/65/95/e56809c03a2702b952a0963124bb.xml
possibly trimming /var/lib/jenkins/fingerprints/65/35/1d0487ad57edda9171bb3b46b98c.xml
possibly trimming /var/lib/jenkins/fingerprints/65/7e/7ac32df76ad6aa4727b2e6b5e676.xml
possibly trimming /var/lib/jenkins/fingerprints/65/7e/7c796518905c5fe339dc614114b4.xml
possibly trimming /var/lib/jenkins/fingerprints/65/ba/b6bafff6e3bf60218b65d449a43c.xml
possibly trimming /var/lib/jenkins/fingerprints/65/74/18ffd2c814631914aa8d673ce58e.xml
possibly trimming /var/lib/jenkins/fingerprints/65/a4/68169d4f1b5e2c66114941a002e9.xml
possibly trimming /var/lib/jenkins/fingerprints/65/da/ddc231144b94cd66e7962e04e391.xml
possibly trimming /var/lib/jenkins/fingerprints/4e/4d/81a276dec1ecdbfe0e5c98e4ecff.xml
possibly trimming /var/lib/jenkins/fingerprints/4e/63/25e5ed2c1aa1949313c184d83640.xml
possibly trimming /var/lib/jenkins/fingerprints/61/9c/f7906143a8df5dec8f2c4ee3d57c.xml
possibly trimming /var/lib/jenkins/fingerprints/07/6e/ff1fd6537979f01efc7895a8f415.xml
possibly trimming /var/lib/jenkins/fingerprints/07/97/963b16665894843e17c905d66b88.xml
possibly trimming /var/lib/jenkins/fingerprints/07/9c/72bb461f7f1937831ce5fd4fa817.xml
possibly trimming /var/lib/jenkins/fingerprints/07/a7/507fceae672588549eb221aeb3ff.xml
possibly trimming /var/lib/jenkins/fingerprints/41/ac/1a9267d012b4d506d65e4253b6c0.xml
possibly trimming /var/lib/jenkins/fingerprints/41/9c/e88da45ece07966c5a0bc28c0c5a.xml
possibly trimming /var/lib/jenkins/fingerprints/41/f4/7a4c81b5a9f76bc7f12af69e4fbe.xml
possibly trimming /var/lib/jenkins/fingerprints/2c/00/b35c346929d32387c4d9ba4bc3bb.xml
possibly trimming /var/lib/jenkins/fingerprints/2c/1e/d823f6343313a9ad043bd798fe3a.xml
possibly trimming /var/lib/jenkins/fingerprints/2c/7f/3426d91c6e2008542f86e52c5d26.xml
possibly trimming /var/lib/jenkins/fingerprints/2c/04/4d9b776904d0ee9cd3d9d0811e60.xml
possibly trimming /var/lib/jenkins/fingerprints/2c/54/719d9d5ec2f348d2c1b33a4a0bc1.xml
possibly trimming /var/lib/jenkins/fingerprints/83/5d/a0007c0756055b5934d09a0d9cb0.xml
possibly trimming /var/lib/jenkins/fingerprints/83/9d/7d444cdd5c76ff329a82949daae9.xml
possibly trimming /var/lib/jenkins/fingerprints/83/87/6ec948eeb6e1c292926d2c14eff8.xml
possibly trimming /var/lib/jenkins/fingerprints/83/33/04415e63b828f79eb3376ab7493f.xml
possibly trimming /var/lib/jenkins/fingerprints/83/13/8ccf5fa7b1b812bffcf9cf4acf83.xml
possibly trimming /var/lib/jenkins/fingerprints/83/73/09a10727ca78f1ce63adb3a29b08.xml
possibly trimming /var/lib/jenkins/fingerprints/0f/18/acf5fa857f9959675e14d901a7ce.xml
possibly trimming /var/lib/jenkins/fingerprints/0f/80/5b7629e85b6045c3b0d63eae31e1.xml
possibly trimming /var/lib/jenkins/fingerprints/0f/be/b5c1d9085a06ee99d4c6d0c0052c.xml
possibly trimming /var/lib/jenkins/fingerprints/0f/56/18e603c509c54c5a400349eef78e.xml
possibly trimming /var/lib/jenkins/fingerprints/a7/1a/2fcd613caa580d87d68286c667ba.xml
possibly trimming /var/lib/jenkins/fingerprints/a7/35/47055286eb7f5c24ba540be92894.xml
possibly trimming /var/lib/jenkins/fingerprints/d8/0c/e71285696d36c1add1989b94f084.xml
possibly trimming /var/lib/jenkins/fingerprints/d8/27/16ad8f36df346b668cc427f88a0b.xml
possibly trimming /var/lib/jenkins/fingerprints/d8/17/a1ea325f7d7bd385f432f1c93e86.xml
possibly trimming /var/lib/jenkins/fingerprints/d8/f0/f0c8a1c257924716933a38014562.xml
possibly trimming /var/lib/jenkins/fingerprints/d8/fa/cb86c908e0977b21b1e83746e342.xml
possibly trimming /var/lib/jenkins/fingerprints/d8/76/683e63f9a70675296701dc487e50.xml
possibly trimming /var/lib/jenkins/fingerprints/d8/d8/7b7f8feb0439667bcce7fe0e5bcf.xml
possibly trimming /var/lib/jenkins/fingerprints/d8/e6/67267e677a1109bb7e9477f3646e.xml
possibly trimming /var/lib/jenkins/fingerprints/e2/8a/821904617f1770750f141f68f0d5.xml
possibly trimming /var/lib/jenkins/fingerprints/e2/d7/4794fba570ec2115fb9d5b05dc9b.xml
possibly trimming /var/lib/jenkins/fingerprints/1e/f2/a92ab2aa6133d0159e6ea7dfe964.xml
possibly trimming /var/lib/jenkins/fingerprints/1e/e4/9530106d55428c11653948ffd159.xml
possibly trimming /var/lib/jenkins/fingerprints/1e/90/d9cb4d36cb6c89dced8291c6b9b5.xml
possibly trimming /var/lib/jenkins/fingerprints/1e/74/20d7971fb57ad27b45b48d72a348.xml
possibly trimming /var/lib/jenkins/fingerprints/40/c1/ee909493066397a6d4d9f8d375d8.xml
possibly trimming /var/lib/jenkins/fingerprints/40/ed/d858822d785282b17b0ca060c2d1.xml
possibly trimming /var/lib/jenkins/fingerprints/40/50/43ea5fe424ca493a9dcc61d19bf5.xml
possibly trimming /var/lib/jenkins/fingerprints/40/c4/5f8d909eed613ae3dc8f89f76390.xml
possibly trimming /var/lib/jenkins/fingerprints/40/2c/15300c349b8c6f93186eff9e3048.xml
possibly trimming /var/lib/jenkins/fingerprints/40/9a/36b3ac1f726598ae09ab9fc0bec4.xml
possibly trimming /var/lib/jenkins/fingerprints/a5/94/b6ac72ee4f3e3e7b83065f0c06a0.xml
possibly trimming /var/lib/jenkins/fingerprints/a5/16/8034046d95e07f4aae3f5e2d1c67.xml
possibly trimming /var/lib/jenkins/fingerprints/a5/c1/a993c775f7b63fb07f84bb2003c8.xml
possibly trimming /var/lib/jenkins/fingerprints/a5/4a/527bb715d214c70193a37aa568f4.xml
possibly trimming /var/lib/jenkins/fingerprints/a5/a3/718e29e2e7bf6831e64377701611.xml
possibly trimming /var/lib/jenkins/fingerprints/a5/51/2a5a5b4c61283138da691411a13d.xml
possibly trimming /var/lib/jenkins/fingerprints/9a/4b/40374d11fcb2c5b1d2a4b789e91d.xml
possibly trimming /var/lib/jenkins/fingerprints/9a/fe/69754461dbfb327cb250c65dc263.xml
possibly trimming /var/lib/jenkins/fingerprints/9a/e9/c29e4497fc35a3eade1e6dd0bbeb.xml
possibly trimming /var/lib/jenkins/fingerprints/8b/b0/f03bea387738b61642a2502b3289.xml
possibly trimming /var/lib/jenkins/fingerprints/8b/70/fbcb152d96f6d1af47f18c47fe42.xml
possibly trimming /var/lib/jenkins/fingerprints/8b/e6/6b10266c841671306126ec00c847.xml
possibly trimming /var/lib/jenkins/fingerprints/8b/05/505224dcba92dce177e34eaca642.xml
possibly trimming /var/lib/jenkins/fingerprints/8b/eb/0ce717bd64841e03b046e844973a.xml
possibly trimming /var/lib/jenkins/fingerprints/8b/b8/fa2edfd60d5c7ed6bf9923d14aa8.xml
possibly trimming /var/lib/jenkins/fingerprints/8b/66/517dca0730071f6e9b9194d7eb0b.xml
possibly trimming /var/lib/jenkins/fingerprints/8b/87/2759edf4ed8bed3793b3ab545919.xml
possibly trimming /var/lib/jenkins/fingerprints/8b/2b/ab8fed298bd306fa48059c66c44d.xml
possibly trimming /var/lib/jenkins/fingerprints/a6/43/11cb39d119805b41d547c8dd039d.xml
possibly trimming /var/lib/jenkins/fingerprints/a6/86/93df58191585d9af914cfbe6067a.xml
possibly trimming /var/lib/jenkins/fingerprints/a6/b6/4dfe58229bdd810263fa0cc54cff.xml
possibly trimming /var/lib/jenkins/fingerprints/a6/99/8942af36816110db859228c60ca7.xml
possibly trimming /var/lib/jenkins/fingerprints/a6/0e/12689670e2a214013a0a9921a950.xml
possibly trimming /var/lib/jenkins/fingerprints/08/0f/3a49c658693dfbb4e48b0bfc8f07.xml
possibly trimming /var/lib/jenkins/fingerprints/08/38/98d794cc261853922ca941aee390.xml
possibly trimming /var/lib/jenkins/fingerprints/23/6d/4d2e957f1e99ca887964b1005816.xml
possibly trimming /var/lib/jenkins/fingerprints/23/7a/8e845441bad2e535c57d985c8204.xml
possibly trimming /var/lib/jenkins/fingerprints/23/c9/4d51e72f341fb412d6a015e16313.xml
possibly trimming /var/lib/jenkins/fingerprints/23/49/53c77588fcd130a9403700bf93b7.xml
possibly trimming /var/lib/jenkins/fingerprints/23/60/c0a51ade7cd92f92f3c8467977b2.xml
possibly trimming /var/lib/jenkins/fingerprints/23/96/ea4e1942a5fc7950cd4478120ec7.xml
possibly trimming /var/lib/jenkins/fingerprints/ae/51/02286b5720dd286d6b606cb891e2.xml
possibly trimming /var/lib/jenkins/fingerprints/ae/96/e5611e50631c3c12c3aaf862bf35.xml
possibly trimming /var/lib/jenkins/fingerprints/ae/f4/81868db6ebe61a4cf38a6cdff1ee.xml
possibly trimming /var/lib/jenkins/fingerprints/ae/0f/6b92d5a03661cd47df621c4eee6c.xml
possibly trimming /var/lib/jenkins/fingerprints/ae/c2/b4f01e28e86bb8cac61b672dd16d.xml
possibly trimming /var/lib/jenkins/fingerprints/ae/4b/376e0a0b5a9207444dd1f2743192.xml
possibly trimming /var/lib/jenkins/fingerprints/19/64/02222d9ed021c4c4c406ce620e0b.xml
possibly trimming /var/lib/jenkins/fingerprints/19/ec/751a4fe907ddb204dff93103acbb.xml
possibly trimming /var/lib/jenkins/fingerprints/19/65/ebb7aca0f9f8faaed3870d8cf689.xml
possibly trimming /var/lib/jenkins/fingerprints/19/af/d786995218c298ca78735a055f20.xml
possibly trimming /var/lib/jenkins/fingerprints/39/be/2e18be5f4792fb43a6ac9a7e4e94.xml
possibly trimming /var/lib/jenkins/fingerprints/39/10/43b829ec4c8028d0bcee9c75f4fb.xml
possibly trimming /var/lib/jenkins/fingerprints/39/7c/32613fb87aa3597822f7bd1a10a7.xml
possibly trimming /var/lib/jenkins/fingerprints/39/85/de95bb20f3b04e8ae02e79be240b.xml
possibly trimming /var/lib/jenkins/fingerprints/39/d5/639b773184162378c855e7ea3f3e.xml
possibly trimming /var/lib/jenkins/fingerprints/39/e6/79e31fc70b759441bb774a85a475.xml
possibly trimming /var/lib/jenkins/fingerprints/b4/1e/58e7b79d25993dad66a24370b2d8.xml
possibly trimming /var/lib/jenkins/fingerprints/b4/d7/02e1d0beeb0d2dae051d46b61599.xml
possibly trimming /var/lib/jenkins/fingerprints/b4/64/07350af973a1e9ad443f21dba8c7.xml
possibly trimming /var/lib/jenkins/fingerprints/b4/c3/ba17e0ae691d9825756445d513ed.xml
possibly trimming /var/lib/jenkins/fingerprints/72/cf/00db18a05e7d568f145790ce7ee9.xml
possibly trimming /var/lib/jenkins/fingerprints/72/ea/db6cc920189f62b22e133685b9df.xml
possibly trimming /var/lib/jenkins/fingerprints/72/8a/ac7d47036e43e1032d4458e76b0a.xml
possibly trimming /var/lib/jenkins/fingerprints/72/3c/b81b0d09f982efb8959caeea26a9.xml
possibly trimming /var/lib/jenkins/fingerprints/72/9c/4a12a3c1f72d46f974a6638bf9de.xml
possibly trimming /var/lib/jenkins/fingerprints/35/b0/e9a867f7c99087874d3d4e084ab7.xml
possibly trimming /var/lib/jenkins/fingerprints/35/8a/c61730fa3d7da4b7277cee338421.xml
possibly trimming /var/lib/jenkins/fingerprints/35/3c/f6a2bdba09595ccfa073b78c7fcb.xml
possibly trimming /var/lib/jenkins/fingerprints/35/56/96bb2e3d3c9892543396271d4d79.xml
possibly trimming /var/lib/jenkins/fingerprints/ee/05/d43d2f74676bb81be8431270e4a1.xml
possibly trimming /var/lib/jenkins/fingerprints/ee/06/a64d1187e7d139cb87aafe246642.xml
possibly trimming /var/lib/jenkins/fingerprints/ee/f3/643992041b02f819fa3c7bb70aec.xml
possibly trimming /var/lib/jenkins/fingerprints/32/cc/b1d20a42b5aaaceb90c9082a2efa.xml
possibly trimming /var/lib/jenkins/fingerprints/32/1d/2e409dd3c230459a66aa12e80905.xml
possibly trimming /var/lib/jenkins/fingerprints/32/2d/8f88c5111af612df838c0191cd7e.xml
possibly trimming /var/lib/jenkins/fingerprints/32/a7/94b6a820daf3fad92e59988df64c.xml
possibly trimming /var/lib/jenkins/fingerprints/32/cf/d593ee80cebf3d7f62b71822cefc.xml
possibly trimming /var/lib/jenkins/fingerprints/78/0b/97c077405f614c8552115f47d2d1.xml
possibly trimming /var/lib/jenkins/fingerprints/78/0b/5a8b72eebe6d0dbff1c11b5658fa.xml
possibly trimming /var/lib/jenkins/fingerprints/78/a7/94543da6ef5fdc85f6829284af8e.xml
possibly trimming /var/lib/jenkins/fingerprints/78/84/c75f08e37a7c89aa821689a9b37f.xml
possibly trimming /var/lib/jenkins/fingerprints/78/ef/fcd19de2bc16fa60debc99843e8b.xml
deleting obsolete /var/lib/jenkins/fingerprints/78/61/2011f53628c6478d39b3b230f739.xml
possibly trimming /var/lib/jenkins/fingerprints/28/90/75e48b909e9e74e6c915b3631d2e.xml
possibly trimming /var/lib/jenkins/fingerprints/28/43/e8afb002df3235cf1de50a20f46d.xml
possibly trimming /var/lib/jenkins/fingerprints/28/14/5f2e035f5328670a702cad9656be.xml
possibly trimming /var/lib/jenkins/fingerprints/28/14/5fd765ceebec718f3ccc86db7d91.xml
possibly trimming /var/lib/jenkins/fingerprints/75/61/5356605c8128013da9e3ac62a249.xml
possibly trimming /var/lib/jenkins/fingerprints/75/50/6034da0a2e6a8ed30607ae947891.xml
possibly trimming /var/lib/jenkins/fingerprints/75/fe/320d2b3763bd6883ae1ede35e987.xml
possibly trimming /var/lib/jenkins/fingerprints/75/4a/b27a4bc4f2409d6cd9652f3ae3e0.xml
possibly trimming /var/lib/jenkins/fingerprints/75/ae/444ec0b9ec176c2a2fea34cfe993.xml
possibly trimming /var/lib/jenkins/fingerprints/75/2e/308535ca877341b60817eede1890.xml
possibly trimming /var/lib/jenkins/fingerprints/0d/86/d5dc58af2e0519d2516ebe880063.xml
possibly trimming /var/lib/jenkins/fingerprints/0d/b5/3054e07407b711fc2b31120f9227.xml
possibly trimming /var/lib/jenkins/fingerprints/0d/42/48a640962d82159b4e9c4bb48c76.xml
possibly trimming /var/lib/jenkins/fingerprints/0d/4b/01fed48a36a59a1ccc421093ccf6.xml
possibly trimming /var/lib/jenkins/fingerprints/0d/1e/d9b413c0ddc3a7579a4ce4fe6d87.xml
possibly trimming /var/lib/jenkins/fingerprints/71/04/beee3803b41cd26694c05f9187d5.xml
possibly trimming /var/lib/jenkins/fingerprints/71/f5/c0b46d5f0d06f37832b207541aba.xml
possibly trimming /var/lib/jenkins/fingerprints/a9/fc/0a33f011fe32118d068c98607745.xml
possibly trimming /var/lib/jenkins/fingerprints/a9/fb/d503e0802507efeeaffb56bbdf52.xml
possibly trimming /var/lib/jenkins/fingerprints/a9/7d/fe2d0ceb81ffbdd15436961b0f23.xml
possibly trimming /var/lib/jenkins/fingerprints/9d/0d/7f67974f63e24365bd1d8ef12415.xml
possibly trimming /var/lib/jenkins/fingerprints/9d/c2/fa57929d7194a1111de0d4f689e1.xml
possibly trimming /var/lib/jenkins/fingerprints/9d/9b/a34cc40fc5c7e3b08d7bd731e100.xml
possibly trimming /var/lib/jenkins/fingerprints/f3/03/752dd2529cc4f1262c74272209e1.xml
possibly trimming /var/lib/jenkins/fingerprints/f3/36/bfef7dc8245e3e5d2559f097f1e1.xml
possibly trimming /var/lib/jenkins/fingerprints/f3/a9/76012ab46c6b946938cc00d7c1f1.xml
possibly trimming /var/lib/jenkins/fingerprints/f3/04/53ae9ee252c802d349009742065f.xml
possibly trimming /var/lib/jenkins/fingerprints/f3/97/d95dfdfffadcffc4834dbf962a5d.xml
possibly trimming /var/lib/jenkins/fingerprints/f3/9f/13cbbdf88f003de28c72fe6d1bcb.xml
possibly trimming /var/lib/jenkins/fingerprints/5c/c2/c478d73e8454b4c369cee66c5bc7.xml
possibly trimming /var/lib/jenkins/fingerprints/5c/c2/288708d15dd43bc8681f5b5541b0.xml
possibly trimming /var/lib/jenkins/fingerprints/5c/44/83e01a032a784be2f0b2ccb983ea.xml
possibly trimming /var/lib/jenkins/fingerprints/5c/3b/fb04ffb8bfd2531228a6af3bc650.xml
possibly trimming /var/lib/jenkins/fingerprints/5c/65/d00be86f4d6ba636f7602f50f287.xml
possibly trimming /var/lib/jenkins/fingerprints/5c/60/72bee7ef87f799ac899f722b6fdf.xml
possibly trimming /var/lib/jenkins/fingerprints/5c/1f/b1db3b8deb450d29a27166146f4b.xml
possibly trimming /var/lib/jenkins/fingerprints/fa/7f/b003080cdcaf54c8a6dc798f1d2d.xml
possibly trimming /var/lib/jenkins/fingerprints/fa/fb/78fc98a8e6c7382df04006412b5a.xml
possibly trimming /var/lib/jenkins/fingerprints/fa/b4/79574d40258f240ef459e01a573a.xml
possibly trimming /var/lib/jenkins/fingerprints/fa/8b/4a9c3ac666fe5c71defcf8ac61c3.xml
possibly trimming /var/lib/jenkins/fingerprints/05/83/00e5b820bc9ce7040066d927632a.xml
possibly trimming /var/lib/jenkins/fingerprints/05/9b/d8371fdb053bc30eddd7c3965c10.xml
possibly trimming /var/lib/jenkins/fingerprints/05/52/0badd876885f5db7286b0b8d72a2.xml
possibly trimming /var/lib/jenkins/fingerprints/05/94/7b45e58b92b36c44d9e6626d359b.xml
possibly trimming /var/lib/jenkins/fingerprints/05/12/a49855728a4d3d3d500f824980c6.xml
possibly trimming /var/lib/jenkins/fingerprints/2e/e1/c4c795c0c749988760d3f3b14ff5.xml
possibly trimming /var/lib/jenkins/fingerprints/2e/a8/e5d4753d0231620062e225de4162.xml
possibly trimming /var/lib/jenkins/fingerprints/2e/8f/f4581f1c288636a9a30861f29856.xml
possibly trimming /var/lib/jenkins/fingerprints/2e/9c/9dc87ffa5efd24c25ba50ff467ce.xml
possibly trimming /var/lib/jenkins/fingerprints/2e/1b/5a75f36eb047e0ca953453a95fa2.xml
possibly trimming /var/lib/jenkins/fingerprints/a0/ad/9550a7062ddb6528d8725c8230dd.xml
possibly trimming /var/lib/jenkins/fingerprints/a0/4e/a81d440c7f10523b898c90dee1c9.xml
possibly trimming /var/lib/jenkins/fingerprints/a0/15/924dddd6fbe1229baa6483c027dc.xml
possibly trimming /var/lib/jenkins/fingerprints/a0/0b/6287cab2ad554ae3cbdbe983dc88.xml
possibly trimming /var/lib/jenkins/fingerprints/a0/c5/2ace73cd8f641ba7cb1ec4b59ee2.xml
possibly trimming /var/lib/jenkins/fingerprints/0c/d3/7909caf632a9c50aa4d6c1a5115b.xml
possibly trimming /var/lib/jenkins/fingerprints/0c/7f/2e7785248468e14f1a7bce8c1d08.xml
possibly trimming /var/lib/jenkins/fingerprints/0c/74/50d250b594fcbc6bc170dbe2a98e.xml
possibly trimming /var/lib/jenkins/fingerprints/0c/5e/75de2764a8820b5d2a8704248488.xml
possibly trimming /var/lib/jenkins/fingerprints/e0/ff/5d37fc3fa67b7fdd51a74c4bb88c.xml
possibly trimming /var/lib/jenkins/fingerprints/e0/63/51d38c8893bac3d0e54f0b095e14.xml
possibly trimming /var/lib/jenkins/fingerprints/e0/16/cf1346ba3f65302c3d71c5b91f44.xml
possibly trimming /var/lib/jenkins/fingerprints/e0/ea/c5481c836427c979922bfeeeba78.xml
possibly trimming /var/lib/jenkins/fingerprints/e0/fe/409de1d8103d8d24d1dd5258719a.xml
possibly trimming /var/lib/jenkins/fingerprints/e0/9b/f72597c77d0a9d49b1ff6dce8091.xml
possibly trimming /var/lib/jenkins/fingerprints/bb/1b/52b6c4ffb462dc78a6913cdbe18b.xml
possibly trimming /var/lib/jenkins/fingerprints/bb/66/41fa615330b79d3da8872ba52b3a.xml
possibly trimming /var/lib/jenkins/fingerprints/bb/40/a137403be049174184834a27a3a7.xml
possibly trimming /var/lib/jenkins/fingerprints/bb/21/69fd3c5313b4b057fc32b857d391.xml
possibly trimming /var/lib/jenkins/fingerprints/f6/4d/2c969d852e8cc1be2942a7ac02ec.xml
possibly trimming /var/lib/jenkins/fingerprints/f6/32/d28a057446fa533d08e877100b3b.xml
possibly trimming /var/lib/jenkins/fingerprints/f6/cf/3fde0b992589ed3d87fa9674015f.xml
possibly trimming /var/lib/jenkins/fingerprints/9e/ce/7824aa461af32c4b6f70d966d312.xml
possibly trimming /var/lib/jenkins/fingerprints/9e/09/cdd12d2e874dc46c7016ecf8afd4.xml
possibly trimming /var/lib/jenkins/fingerprints/9e/eb/abaa007dc329845e5ab3c12b4e6b.xml
possibly trimming /var/lib/jenkins/fingerprints/dc/d9/5bcb84b09897b2b66d4684c040da.xml
possibly trimming /var/lib/jenkins/fingerprints/dc/28/c477c8b992a3d9902dc6362e5d8c.xml
possibly trimming /var/lib/jenkins/fingerprints/17/ba/6715f5defd50b2e781201f57b408.xml
possibly trimming /var/lib/jenkins/fingerprints/17/50/f9c339352fc4b728d61b57171613.xml
possibly trimming /var/lib/jenkins/fingerprints/17/12/4c31e7f9b739688b31ef47fee6c0.xml
possibly trimming /var/lib/jenkins/fingerprints/17/99/d2b96736bac07268a2b9017ccb25.xml
possibly trimming /var/lib/jenkins/fingerprints/17/88/7cb40224ddfc3249aedfb7358560.xml
possibly trimming /var/lib/jenkins/fingerprints/17/b2/b704b3ad9b36a6fca1ace60a2a06.xml
possibly trimming /var/lib/jenkins/fingerprints/7f/97/854dc04c119d461fed14f5d8bb96.xml
possibly trimming /var/lib/jenkins/fingerprints/7f/94/e1243c83cd90ea28e4bf0cc61eaa.xml
possibly trimming /var/lib/jenkins/fingerprints/7f/f0/7caa8271f930d1f28bd184a072b7.xml
possibly trimming /var/lib/jenkins/fingerprints/7f/bb/115f8cfd735359ee04f9efff3c85.xml
possibly trimming /var/lib/jenkins/fingerprints/74/f6/404cbfda930433433550253e3e52.xml
possibly trimming /var/lib/jenkins/fingerprints/74/b6/875cb5eafb4fe7404e9607c819f3.xml
possibly trimming /var/lib/jenkins/fingerprints/74/66/0663867f0272782de10a0ef7150c.xml
possibly trimming /var/lib/jenkins/fingerprints/74/8c/b7095603ddd12a7184c4358b8a8b.xml
possibly trimming /var/lib/jenkins/fingerprints/74/6a/bae7487b696ee544c8bf6119ae9b.xml
possibly trimming /var/lib/jenkins/fingerprints/14/93/8a142e4c13f15a134e5145793135.xml
possibly trimming /var/lib/jenkins/fingerprints/14/4c/0767e2aaf0c21a935908d0e52c68.xml
possibly trimming /var/lib/jenkins/fingerprints/5b/38/c40c97fbd0adee29f91e60405584.xml
possibly trimming /var/lib/jenkins/fingerprints/5b/79/5ff179912a21281545bb697796ea.xml
possibly trimming /var/lib/jenkins/fingerprints/5b/51/51808c54175958befa2d0f5159eb.xml
possibly trimming /var/lib/jenkins/fingerprints/01/8b/d5e6158d75bf328b2cafd53cfc6a.xml
possibly trimming /var/lib/jenkins/fingerprints/01/f4/6e8e5472199c3abcd8c9ca093856.xml
possibly trimming /var/lib/jenkins/fingerprints/fe/68/603c5e8e5624ca97c1abec5a02bc.xml
possibly trimming /var/lib/jenkins/fingerprints/fe/83/6f5c536710f2eb889dcc77c312aa.xml
possibly trimming /var/lib/jenkins/fingerprints/fe/12/2e42fe1ee6579d2f174aeb449bd5.xml
possibly trimming /var/lib/jenkins/fingerprints/fe/7d/a015c9d491d2e33c6a3ac2c00841.xml
possibly trimming /var/lib/jenkins/fingerprints/6b/1e/096f3c034634de6269a064bdaa6c.xml
possibly trimming /var/lib/jenkins/fingerprints/6b/ed/eeed26844c401db1a5f53f880de5.xml
possibly trimming /var/lib/jenkins/fingerprints/6b/61/354185f3d71d24e74234dd65fe37.xml
possibly trimming /var/lib/jenkins/fingerprints/6b/27/008bd6cb5f4cc430e219d785313a.xml
possibly trimming /var/lib/jenkins/fingerprints/6b/0c/65b0db4e60c6e5daadf65cac1192.xml
possibly trimming /var/lib/jenkins/fingerprints/6b/cb/4c5f52af62b755f0277aea6a3184.xml
possibly trimming /var/lib/jenkins/fingerprints/d3/3e/2697c30eeb20f544a66ec2f3fa90.xml
possibly trimming /var/lib/jenkins/fingerprints/d3/15/3041f9ad54a3e0aab79f4587ced0.xml
possibly trimming /var/lib/jenkins/fingerprints/d3/fe/a740138f35d80b964a2f7b34ffe3.xml
possibly trimming /var/lib/jenkins/fingerprints/d3/b6/5c7bab8f33eae16029824b49e5cd.xml
possibly trimming /var/lib/jenkins/fingerprints/d3/df/604a143fbbc10178f03b0093b208.xml
possibly trimming /var/lib/jenkins/fingerprints/d3/2f/4def46bb7dd890224727525fbe08.xml
possibly trimming /var/lib/jenkins/fingerprints/d3/80/c9ba3a327fa25807d16df032af90.xml
possibly trimming /var/lib/jenkins/fingerprints/5e/8c/dd3016f5f61a07ba5330546b9c65.xml
possibly trimming /var/lib/jenkins/fingerprints/5e/fe/1e1eb33abccb148d8f629c9d408f.xml
possibly trimming /var/lib/jenkins/fingerprints/5e/bb/241efd642d6985b89d56b8d640c8.xml
possibly trimming /var/lib/jenkins/fingerprints/5e/06/844478fd0e09db22bf39cf5cc308.xml
possibly trimming /var/lib/jenkins/fingerprints/5e/69/e33b6f67a3ca3ed1a9f8df1bda0c.xml
possibly trimming /var/lib/jenkins/fingerprints/5e/ba/53f2780907ee01f224e1133f4bde.xml
possibly trimming /var/lib/jenkins/fingerprints/43/4c/32bb33c28fc313689a19dfd7bcb4.xml
possibly trimming /var/lib/jenkins/fingerprints/43/a2/16c1b67cc307076f0c9f640f55f1.xml
possibly trimming /var/lib/jenkins/fingerprints/43/ed/073e853a6fc0048e59b40fc82814.xml
possibly trimming /var/lib/jenkins/fingerprints/43/58/4adc1f895628055bad0aa98a1007.xml
possibly trimming /var/lib/jenkins/fingerprints/43/bf/c49bdc7324f6daaa60c1ee9f3972.xml
possibly trimming /var/lib/jenkins/fingerprints/6e/a2/a28469d50d36107d7fc298c7ca1a.xml
possibly trimming /var/lib/jenkins/fingerprints/6e/3c/39f391e4994888b7d0030f775804.xml
possibly trimming /var/lib/jenkins/fingerprints/6e/42/3842bc79f0fc078c8ebe62c00c99.xml
possibly trimming /var/lib/jenkins/fingerprints/6e/63/5278bb2692a18ae4ee1f6589c075.xml
possibly trimming /var/lib/jenkins/fingerprints/e1/a7/1b6bffdd9cce5158cbfbcb5c54c2.xml
possibly trimming /var/lib/jenkins/fingerprints/e1/6b/1b8fca0980263f764f633ec91dd6.xml
possibly trimming /var/lib/jenkins/fingerprints/e1/4c/241f1279bcf58cfd8db3cbd56fb3.xml
possibly trimming /var/lib/jenkins/fingerprints/e1/02/edb5dabfc6194eec1df6b6ee1baf.xml
possibly trimming /var/lib/jenkins/fingerprints/e1/5d/fc3a748c99551bf78a1636e46bcf.xml
possibly trimming /var/lib/jenkins/fingerprints/16/7c/55378d00bad0a6eae0d157f77d77.xml
possibly trimming /var/lib/jenkins/fingerprints/16/7c/5fc09744bd9529355b8a22d059c4.xml
possibly trimming /var/lib/jenkins/fingerprints/16/5e/dd1f1f4f3d3a3b1be97a3a645a5b.xml
possibly trimming /var/lib/jenkins/fingerprints/16/3a/1b9b76bdf811657fd75509707adb.xml
possibly trimming /var/lib/jenkins/fingerprints/16/8d/e14e98fc6372a83858cae2f5786f.xml
possibly trimming /var/lib/jenkins/fingerprints/b3/72/fd283f3926a3da358ac9c8f7c3dc.xml
possibly trimming /var/lib/jenkins/fingerprints/b3/2c/2071bf4713bdf56c6757b8686f4c.xml
possibly trimming /var/lib/jenkins/fingerprints/b3/e3/4bfa58003e0eacd60f27c72199a9.xml
possibly trimming /var/lib/jenkins/fingerprints/b3/ae/1e2cdaa4c010e4fe1cc13cc79483.xml
possibly trimming /var/lib/jenkins/fingerprints/a2/5e/f213bb1f45b1cab3d4a5f5faff32.xml
possibly trimming /var/lib/jenkins/fingerprints/89/ad/9f77beec08c689388383fb0d9557.xml
possibly trimming /var/lib/jenkins/fingerprints/89/af/908e408eedc0c3abd5a1a08e29de.xml
possibly trimming /var/lib/jenkins/fingerprints/89/54/e3cca9c74860499f1b5e10fa9f4b.xml
possibly trimming /var/lib/jenkins/fingerprints/89/7d/990eb5463fd5288092524c105769.xml
possibly trimming /var/lib/jenkins/fingerprints/c5/24/b499813df37b6f1235d6b5420be4.xml
possibly trimming /var/lib/jenkins/fingerprints/c5/05/7d6dc3a531708e4a91249fadda3f.xml
possibly trimming /var/lib/jenkins/fingerprints/c5/90/cc97932d783256d4545ce65d05fc.xml
possibly trimming /var/lib/jenkins/fingerprints/c5/76/0c977e815531c31ffc5e0bef958d.xml
possibly trimming /var/lib/jenkins/fingerprints/c5/64/e8e6ae712ecce607dac5dc71deb8.xml
possibly trimming /var/lib/jenkins/fingerprints/4a/67/cd6d671c0a522365fa6323988a0b.xml
possibly trimming /var/lib/jenkins/fingerprints/4a/18/5d6950d8e0e3ac1dd0d598f6c9f4.xml
possibly trimming /var/lib/jenkins/fingerprints/2d/f9/af0e1936c18cefbfb6f91ea34809.xml
possibly trimming /var/lib/jenkins/fingerprints/2d/62/8d77835b0c2bf5283a07141e8ed8.xml
possibly trimming /var/lib/jenkins/fingerprints/2d/75/cefef03243943a3673d452b57f1f.xml
possibly trimming /var/lib/jenkins/fingerprints/12/8b/8afe2f5b1f8932199563c103b7ca.xml
possibly trimming /var/lib/jenkins/fingerprints/12/b6/5438bbaf225102d0396c21236052.xml
possibly trimming /var/lib/jenkins/fingerprints/12/0e/f11dd66e3666b884642f7713e005.xml
possibly trimming /var/lib/jenkins/fingerprints/53/ca/d957821a4bacaf9e108af24e6f90.xml
possibly trimming /var/lib/jenkins/fingerprints/53/3e/404eda70bbf8e40de134ffeec95b.xml
possibly trimming /var/lib/jenkins/fingerprints/53/cf/4497fe67cbd867a0520f36cc0534.xml
possibly trimming /var/lib/jenkins/fingerprints/53/16/0199f5667de3fca69b723173639b.xml
possibly trimming /var/lib/jenkins/fingerprints/e7/77/6f2b03a4c62d691a90d3c68c93c0.xml
possibly trimming /var/lib/jenkins/fingerprints/e7/86/40d6e510c65db6ee28f35b24a838.xml
possibly trimming /var/lib/jenkins/fingerprints/e7/20/869d96174edbf6774656f2ab5c1c.xml
possibly trimming /var/lib/jenkins/fingerprints/1f/40/fb782a4f2cf78f161d32670f7a3a.xml
possibly trimming /var/lib/jenkins/fingerprints/1f/bb/ae2cb72530207c20b797bdabd029.xml
possibly trimming /var/lib/jenkins/fingerprints/1f/01/4d4bfe25ab914f8bc45eb9371d10.xml
possibly trimming /var/lib/jenkins/fingerprints/1f/a1/13c6aacf3a01af1449df77acd474.xml
possibly trimming /var/lib/jenkins/fingerprints/55/d7/2dbbf97037a8643a9d05ca72c8ee.xml
possibly trimming /var/lib/jenkins/fingerprints/55/a2/64a0d89e84074bd6b54738bdb539.xml
possibly trimming /var/lib/jenkins/fingerprints/55/5a/c7550bbeeacf5b0f89fef6954319.xml
possibly trimming /var/lib/jenkins/fingerprints/55/6a/83e2563365ea48223885c753f9b7.xml
possibly trimming /var/lib/jenkins/fingerprints/55/24/d79b105e624875ae7ce508fc26a6.xml
possibly trimming /var/lib/jenkins/fingerprints/ff/e3/5e6cc73614dc712f9177b774b225.xml
possibly trimming /var/lib/jenkins/fingerprints/ff/11/0c950c9fcf08e98a325f6708ba78.xml
possibly trimming /var/lib/jenkins/fingerprints/ff/8a/fe14d17381f2f4670b6f9772d670.xml
possibly trimming /var/lib/jenkins/fingerprints/46/68/023fd79d270563bf9178d3d38b16.xml
possibly trimming /var/lib/jenkins/fingerprints/46/23/5c960277206f00fe24714437bc89.xml
possibly trimming /var/lib/jenkins/fingerprints/46/2c/0959f0322016495f4598243bc0f2.xml
possibly trimming /var/lib/jenkins/fingerprints/46/84/16453e28edc22a562fe070a937d1.xml
possibly trimming /var/lib/jenkins/fingerprints/30/2e/660f8e4928b7417ce145af88cacd.xml
possibly trimming /var/lib/jenkins/fingerprints/30/e3/f2444bb1849f3ec71e09011d433e.xml
possibly trimming /var/lib/jenkins/fingerprints/cc/e2/e261f386a1d592f7c93475d65293.xml
possibly trimming /var/lib/jenkins/fingerprints/cc/77/09e3bacd8fc5820726cd9dba542a.xml
possibly trimming /var/lib/jenkins/fingerprints/c3/37/981a986d096397a51cb6a00694e4.xml
possibly trimming /var/lib/jenkins/fingerprints/c3/8a/023cab50c3fc6c8d02c7a4add46e.xml
possibly trimming /var/lib/jenkins/fingerprints/c3/42/1356719cb32292646f58ef823a88.xml
possibly trimming /var/lib/jenkins/fingerprints/c3/04/2c01430be053e61b2a8315abcbcb.xml
possibly trimming /var/lib/jenkins/fingerprints/c3/f8/39d7e2dbbb6b730a06a31b895e13.xml
possibly trimming /var/lib/jenkins/fingerprints/ed/44/8347fc0104034aa14c8189bf37de.xml
possibly trimming /var/lib/jenkins/fingerprints/ed/78/3bcce7e90ec10c3deaa0944d3974.xml
possibly trimming /var/lib/jenkins/fingerprints/ed/f8/60ce1ea59beb384ee1e9660fcf64.xml
possibly trimming /var/lib/jenkins/fingerprints/a3/3a/fc363c76608dd7f8a723f137dbf1.xml
possibly trimming /var/lib/jenkins/fingerprints/5f/4a/710056b492b9cbdff5d3897b402a.xml
possibly trimming /var/lib/jenkins/fingerprints/5f/c6/136282498b2d65b51494530560ce.xml
possibly trimming /var/lib/jenkins/fingerprints/5f/ab/5aadfc7c2e87a0d6dcf2e2aa3df0.xml
possibly trimming /var/lib/jenkins/fingerprints/0a/0c/0a8f20c24803c71eb1e85230d1a8.xml
possibly trimming /var/lib/jenkins/fingerprints/0a/2b/dab6fe8ac70f185baf18d7faba8b.xml
possibly trimming /var/lib/jenkins/fingerprints/0a/4d/f7ddf1275f68f84d2c6781f49322.xml
possibly trimming /var/lib/jenkins/fingerprints/0a/ff/c5812b09809c99ddb077f615dc21.xml
possibly trimming /var/lib/jenkins/fingerprints/0a/7f/8208aa2586e3af8a03a7c2b0ce71.xml
possibly trimming /var/lib/jenkins/fingerprints/66/73/f1ff2b4353590b71fabd3f53326c.xml
possibly trimming /var/lib/jenkins/fingerprints/66/1d/5aee21cabe5640cc21b7104dde38.xml
possibly trimming /var/lib/jenkins/fingerprints/66/6a/d03e559b29c7fc493c16a0eecf7e.xml
possibly trimming /var/lib/jenkins/fingerprints/98/1d/851885e2128ef1a55fe62eae1605.xml
possibly trimming /var/lib/jenkins/fingerprints/98/7c/4773c7c7e36b8eadd18c66123f75.xml
possibly trimming /var/lib/jenkins/fingerprints/df/58/d4dcf9966853f3a932f681e710db.xml
possibly trimming /var/lib/jenkins/fingerprints/df/0a/47a8b6ea9989585a5368ef2f14e2.xml
possibly trimming /var/lib/jenkins/fingerprints/df/5c/4be0e94fca3787b42b5c15859ce2.xml
possibly trimming /var/lib/jenkins/fingerprints/49/07/42af9e4befa4444b5c38c07ada2f.xml
possibly trimming /var/lib/jenkins/fingerprints/49/e5/a5fd5779f5e00ae06129eb93d200.xml
possibly trimming /var/lib/jenkins/fingerprints/97/e4/44beb5107bcecb672085716949bd.xml
possibly trimming /var/lib/jenkins/fingerprints/97/ca/af51eb10e69975930c212b972e2e.xml
possibly trimming /var/lib/jenkins/fingerprints/97/c6/bb68108a3d68094eab0f67157962.xml
possibly trimming /var/lib/jenkins/fingerprints/97/8d/cf0bcbfbbd820978a65008184ecb.xml
possibly trimming /var/lib/jenkins/fingerprints/ea/47/27ed7ced4db0b1c2ed70a40799e6.xml
possibly trimming /var/lib/jenkins/fingerprints/ea/d9/d5ffa6e89b529667d9f1bca26207.xml
possibly trimming /var/lib/jenkins/fingerprints/ea/59/5a2e81695027bce8614e019ff920.xml
possibly trimming /var/lib/jenkins/fingerprints/ea/77/1a34d44d79a8c5edb772ca5c3cbf.xml
possibly trimming /var/lib/jenkins/fingerprints/ea/43/6eb1c06508c9fb3375c5ab560e71.xml
possibly trimming /var/lib/jenkins/fingerprints/d0/ad/9ecb190452720f773c520e3d4192.xml
possibly trimming /var/lib/jenkins/fingerprints/d0/1f/9778ef41fe79ad93ea57c27d0573.xml
possibly trimming /var/lib/jenkins/fingerprints/7c/fa/efcabe3606c52c36bee64cac00ca.xml
possibly trimming /var/lib/jenkins/fingerprints/7c/a9/701aea412ff7343c4b6bdbf4f7c7.xml
possibly trimming /var/lib/jenkins/fingerprints/ba/70/5af051d3f6ec124f36d0f07513dc.xml
possibly trimming /var/lib/jenkins/fingerprints/ba/fc/d174fa2079ba027c4f3398675e6b.xml
possibly trimming /var/lib/jenkins/fingerprints/ba/84/3b0485d179cce5b76a7b012df6d2.xml
possibly trimming /var/lib/jenkins/fingerprints/4b/20/b04c1f967af1a115fdefcbe70109.xml
possibly trimming /var/lib/jenkins/fingerprints/4b/71/2406f13960aacb5c0ed21237f58a.xml
possibly trimming /var/lib/jenkins/fingerprints/4b/72/ad6a01e0b8c2668484e6c54c42f9.xml
possibly trimming /var/lib/jenkins/fingerprints/52/84/45033f22da28f5047b6abcd1c7c9.xml
possibly trimming /var/lib/jenkins/fingerprints/52/70/f4d46dab856e922b6313ebfc3572.xml
possibly trimming /var/lib/jenkins/fingerprints/ca/89/cdbab0b0784947cb89038cb979fe.xml
possibly trimming /var/lib/jenkins/fingerprints/ca/28/a94467b2dd8e9448b4da692e0f7c.xml
possibly trimming /var/lib/jenkins/fingerprints/da/81/7f890fa443cb5189ef9e94e7ca40.xml
possibly trimming /var/lib/jenkins/fingerprints/da/6d/848c0e03a6779075369938442db7.xml
possibly trimming /var/lib/jenkins/fingerprints/da/e1/e72ba1e4845f6cf5319269510f6d.xml
possibly trimming /var/lib/jenkins/fingerprints/d2/6c/29852d68348fb3cb8b6104a02f81.xml
possibly trimming /var/lib/jenkins/fingerprints/d2/be/2edd503a224a7357ff39b8be57f1.xml
possibly trimming /var/lib/jenkins/fingerprints/b6/7c/8e11e8792fd5a96c08a2e50bddb6.xml
possibly trimming /var/lib/jenkins/fingerprints/b6/6d/0c48e1f1dc54d4227db52512c15b.xml
possibly trimming /var/lib/jenkins/fingerprints/b6/e6/837fed04d4a7bad291caad8756ea.xml
possibly trimming /var/lib/jenkins/fingerprints/b6/6c/31348050017b46d90921d8312752.xml
possibly trimming /var/lib/jenkins/fingerprints/b6/73/9ee17c12c33548d1548a9456794a.xml
possibly trimming /var/lib/jenkins/fingerprints/e3/66/f6cde4d48d3853588920795d72ae.xml
possibly trimming /var/lib/jenkins/fingerprints/15/4b/2f744a11226fd8abd92baef84523.xml
possibly trimming /var/lib/jenkins/fingerprints/20/0f/22f9b2845e11eaa5f6a8bad51feb.xml
possibly trimming /var/lib/jenkins/fingerprints/e6/e1/4bf9f850255f9ca2a640a13f803c.xml
possibly trimming /var/lib/jenkins/fingerprints/e6/a3/0febe60aa50a09bc07e1d29143f0.xml
possibly trimming /var/lib/jenkins/fingerprints/e6/36/959a70e268d9cbfcc703881f4100.xml
possibly trimming /var/lib/jenkins/fingerprints/e6/c8/7e07afd62e7dd46f2d6b82be8a0e.xml
possibly trimming /var/lib/jenkins/fingerprints/d9/86/4de305711defdd306eb3b926f769.xml
possibly trimming /var/lib/jenkins/fingerprints/57/0b/d4d676551cabd348d449679fbdb5.xml
possibly trimming /var/lib/jenkins/fingerprints/60/be/bae291441885f0d35d141450cdf5.xml
possibly trimming /var/lib/jenkins/fingerprints/60/e7/51dd6512e9a5101f6859a94e7ed3.xml
possibly trimming /var/lib/jenkins/fingerprints/60/88/ce44f6f7e5311bed6b2d93533ade.xml
possibly trimming /var/lib/jenkins/fingerprints/dd/fe/c70ef3cf4c2ffd730514a4cb99e3.xml
possibly trimming /var/lib/jenkins/fingerprints/dd/ae/e9113d63f0b5deb02994313a516f.xml
possibly trimming /var/lib/jenkins/fingerprints/dd/37/a3893e7157fbfa58d0e2e5fe42cd.xml
possibly trimming /var/lib/jenkins/fingerprints/dd/c9/1fd850fa6177c91aab5d4e4d1fa6.xml
possibly trimming /var/lib/jenkins/fingerprints/68/38/0001b88006ebe49be50cef5bb23a.xml
possibly trimming /var/lib/jenkins/fingerprints/68/15/208e8e440bf47f45914865f00971.xml
possibly trimming /var/lib/jenkins/fingerprints/68/91/0bf95dbcf90ce5859128f0f75d1e.xml
possibly trimming /var/lib/jenkins/fingerprints/68/f4/007be15d717d09373575278c08c1.xml
possibly trimming /var/lib/jenkins/fingerprints/90/dd/fc6677fae132aebf5b8cc1d4d4ae.xml
possibly trimming /var/lib/jenkins/fingerprints/90/8f/1df49795e0581919904008ec9dbc.xml
possibly trimming /var/lib/jenkins/fingerprints/90/1a/9986de924a54cfa63b442b1365ec.xml
possibly trimming /var/lib/jenkins/fingerprints/84/17/56c617979782d7f4f708a04f05de.xml
possibly trimming /var/lib/jenkins/fingerprints/09/f7/aa040d72c6793acf2a2197f17d07.xml
possibly trimming /var/lib/jenkins/fingerprints/09/e8/d05b1dfcfcb5b78302323df60724.xml
possibly trimming /var/lib/jenkins/fingerprints/09/b4/facc68f957e370148418120f04e4.xml
possibly trimming /var/lib/jenkins/fingerprints/29/31/1dd105dfb0e495da2e0719a558db.xml
possibly trimming /var/lib/jenkins/fingerprints/29/25/a3bf15a9c9566d06a79f8d0799c0.xml
possibly trimming /var/lib/jenkins/fingerprints/29/11/ebc15a90c3efc248671a2d511e98.xml
possibly trimming /var/lib/jenkins/fingerprints/29/62/e0278ff1682d1c3fc26400107cc7.xml
possibly trimming /var/lib/jenkins/fingerprints/25/15/96403cce9ee350ec8c1a85aa062e.xml
possibly trimming /var/lib/jenkins/fingerprints/25/2d/f23fde22e09e10bbf08df6c7d8bf.xml
possibly trimming /var/lib/jenkins/fingerprints/25/6c/3c5f9524da134579e370ca681c18.xml
possibly trimming /var/lib/jenkins/fingerprints/25/57/525150b95159e58c88f5e06e1a0a.xml
possibly trimming /var/lib/jenkins/fingerprints/77/ee/843cb323c5ce1a244a16438ea9da.xml
possibly trimming /var/lib/jenkins/fingerprints/77/90/4680a9e5519712d9031107c48b6a.xml
possibly trimming /var/lib/jenkins/fingerprints/77/d3/9f085fd156ae2f567e8c2ad9febf.xml
possibly trimming /var/lib/jenkins/fingerprints/59/89/c932ad8fff557a90f6f9032e57f9.xml
possibly trimming /var/lib/jenkins/fingerprints/cd/bb/606faa974f9361a85d6df53aeb9f.xml
possibly trimming /var/lib/jenkins/fingerprints/cd/03/178ffa1fc58fdc7951c10b5adbea.xml
possibly trimming /var/lib/jenkins/fingerprints/76/51/a25ecbb8a2ea3fcb6c19be76aa37.xml
possibly trimming /var/lib/jenkins/fingerprints/76/ef/2b0f563472b9f48cb3d1ebf81350.xml
possibly trimming /var/lib/jenkins/fingerprints/76/ff/ba9ca7cde1d302f658eb65e17280.xml
possibly trimming /var/lib/jenkins/fingerprints/76/10/04c3c52703aacfee9d47096a7b3b.xml
possibly trimming /var/lib/jenkins/fingerprints/76/12/095187350cc09ef8e5c997ce1e41.xml
possibly trimming /var/lib/jenkins/fingerprints/54/2e/d1593b2136961646f9063b889e75.xml
possibly trimming /var/lib/jenkins/fingerprints/6a/c1/813e9e680f10aa01e5bfa06a7f22.xml
possibly trimming /var/lib/jenkins/fingerprints/6a/44/d84b72897f28189f4792e2015b93.xml
possibly trimming /var/lib/jenkins/fingerprints/6a/93/01306f9ce0fc5ec47c09d9660b0f.xml
possibly trimming /var/lib/jenkins/fingerprints/6a/a6/607802502c8016b676f25f8e4873.xml
possibly trimming /var/lib/jenkins/fingerprints/cb/c7/9ca21a2445ee9486d8c21bf417d9.xml
possibly trimming /var/lib/jenkins/fingerprints/cb/2b/f7ed764f27b5606ab33d01330033.xml
possibly trimming /var/lib/jenkins/fingerprints/cb/d8/a83bc2f6350fc0f06f2d70b31d7f.xml
possibly trimming /var/lib/jenkins/fingerprints/06/7d/9414ebe343fd1b229cfe9c928a84.xml
possibly trimming /var/lib/jenkins/fingerprints/06/9f/1e5b4a162b14bf23914314f98d90.xml
possibly trimming /var/lib/jenkins/fingerprints/00/67/0735acb2a9d1421b506dc7d338bc.xml
possibly trimming /var/lib/jenkins/fingerprints/00/58/192805c6a492ac640944457d0321.xml
possibly trimming /var/lib/jenkins/fingerprints/00/11/779578a1d76478d04ceb84cf97db.xml
possibly trimming /var/lib/jenkins/fingerprints/00/cd/1efb5a1baefcf1ea887b7f6c3e7e.xml
possibly trimming /var/lib/jenkins/fingerprints/69/b9/7d9079f500cfaadd5bc8659dff68.xml
possibly trimming /var/lib/jenkins/fingerprints/69/a3/d06554ebc3027c9432509a67ede2.xml
possibly trimming /var/lib/jenkins/fingerprints/69/f1/1999ff90e5040acf97b7f87c965e.xml
possibly trimming /var/lib/jenkins/fingerprints/24/9d/2afad4d419a8139549ca2ab8a05a.xml
possibly trimming /var/lib/jenkins/fingerprints/24/a6/1bb2a3d26bb786bf87c8980202b9.xml
possibly trimming /var/lib/jenkins/fingerprints/24/1c/527a0a6982ef3934f4717da9f455.xml
possibly trimming /var/lib/jenkins/fingerprints/24/e7/a57275e6555c9413ef2d2b04d784.xml
possibly trimming /var/lib/jenkins/fingerprints/24/ea/17254d3623e981ddb9eaf646817f.xml
possibly trimming /var/lib/jenkins/fingerprints/b9/95/a1ef21994fd43ca116dad99d06a9.xml
possibly trimming /var/lib/jenkins/fingerprints/b9/5e/ca1eb1319be5c61484564e909fc2.xml
possibly trimming /var/lib/jenkins/fingerprints/b9/08/23934e1d74db184cefb537b088ae.xml
possibly trimming /var/lib/jenkins/fingerprints/b9/41/4a866e3a38e5788697b930521d58.xml
possibly trimming /var/lib/jenkins/fingerprints/81/2c/5384ea62208236321244dcab54ad.xml
possibly trimming /var/lib/jenkins/fingerprints/af/2f/0873d3eb615b1514ae8e8a750042.xml
possibly trimming /var/lib/jenkins/fingerprints/af/14/f5c8070a33b588cc7e2c2986bc38.xml
possibly trimming /var/lib/jenkins/fingerprints/be/49/90e99db740e9fbbab6e22b277b05.xml
possibly trimming /var/lib/jenkins/fingerprints/e9/2b/4f38d4b28686fa274e0208f87537.xml
possibly trimming /var/lib/jenkins/fingerprints/e9/f9/c9fcc516ee11e5ca7420c7ce02f7.xml
possibly trimming /var/lib/jenkins/fingerprints/e9/6d/553698d9d80a435d723816841ab4.xml
possibly trimming /var/lib/jenkins/fingerprints/e9/9e/824f3822f508838efef44e80100e.xml
possibly trimming /var/lib/jenkins/fingerprints/b8/e1/4dd6e93c8f34888846dcac492160.xml
possibly trimming /var/lib/jenkins/fingerprints/b8/63/6b789075b5146195187732e5d8dc.xml
possibly trimming /var/lib/jenkins/fingerprints/0b/f7/6311a4187d0d9f8f27654856357f.xml
possibly trimming /var/lib/jenkins/fingerprints/0b/95/ef9c97aba7b02ec50809acf3249c.xml
possibly trimming /var/lib/jenkins/fingerprints/26/7a/94075e602a1d4c6d4015b8e307fe.xml
possibly trimming /var/lib/jenkins/fingerprints/9c/98/ae6aae1396f4ba35362028609628.xml
possibly trimming /var/lib/jenkins/fingerprints/d1/58/0d90c1d942900f7c3fc496104e39.xml
possibly trimming /var/lib/jenkins/fingerprints/d1/88/33b12c54c99456d6285e9ad2be02.xml
possibly trimming /var/lib/jenkins/fingerprints/8d/e9/c6fdcbc8da12b1b7f96cac61d603.xml
possibly trimming /var/lib/jenkins/fingerprints/f0/aa/a5b357959c58a846e3cf25dad7b2.xml
possibly trimming /var/lib/jenkins/fingerprints/f0/e7/49f6e81d150c7f1507854ee26d11.xml
possibly trimming /var/lib/jenkins/fingerprints/f0/35/3f8deee4fed0662d94239fbca3cb.xml
possibly trimming /var/lib/jenkins/fingerprints/f0/b3/31d6df19cb05fb84151dd15e0ba6.xml
possibly trimming /var/lib/jenkins/fingerprints/fb/8e/79f64ce9fcdf6509da17f44437c5.xml
possibly trimming /var/lib/jenkins/fingerprints/f2/df/47541a4ccb9c8f407a800ee58c52.xml
possibly trimming /var/lib/jenkins/fingerprints/f2/38/881c6989bfbdbd48830622ee1442.xml
possibly trimming /var/lib/jenkins/fingerprints/85/d4/355152a98caa6e820a9d2b46fae9.xml
possibly trimming /var/lib/jenkins/fingerprints/38/6d/3714fef534d21175d8885ae48bf7.xml
possibly trimming /var/lib/jenkins/fingerprints/38/fa/94f115b5789744359f084800083a.xml
possibly trimming /var/lib/jenkins/fingerprints/38/26/8539f6a9557f611618d519b9c784.xml
possibly trimming /var/lib/jenkins/fingerprints/1c/f1/32eb615fd7fce2c638700063cfc2.xml
possibly trimming /var/lib/jenkins/fingerprints/87/e3/4d3a1fbb30b27e9436c718eca668.xml
possibly trimming /var/lib/jenkins/fingerprints/87/f0/c69f2d86475c9dc8cfbde270fa4e.xml
possibly trimming /var/lib/jenkins/fingerprints/37/4f/821d3319570730981cdeeaae0586.xml
possibly trimming /var/lib/jenkins/fingerprints/37/57/5cfa821f60d70eea85cfc6ddfb8b.xml
possibly trimming /var/lib/jenkins/fingerprints/d5/4e/d05556e35914d5f9e85192afcda4.xml
possibly trimming /var/lib/jenkins/fingerprints/21/2a/c48e9076391d5307f4b1dc25dc29.xml
possibly trimming /var/lib/jenkins/fingerprints/21/b2/e8eb8978c7c0632474007fed77e1.xml
possibly trimming /var/lib/jenkins/fingerprints/ce/0b/5be90eaffddd4f238fb3d274ee5d.xml
possibly trimming /var/lib/jenkins/fingerprints/ce/d0/85c9552293ced42c0e59a3f524f6.xml
possibly trimming /var/lib/jenkins/fingerprints/79/f1/f63002d2d42b0437e9fdf89c1510.xml
possibly trimming /var/lib/jenkins/fingerprints/03/aa/2059570c93376bc984b02ad2a8ca.xml
possibly trimming /var/lib/jenkins/fingerprints/03/29/029793200907c4cff59f9e906357.xml
possibly trimming /var/lib/jenkins/fingerprints/2a/6d/26595a60eb3bce49cb3e16ad5a55.xml
possibly trimming /var/lib/jenkins/fingerprints/02/93/9ad6ed2e9a840b395df8dc39b9d4.xml
possibly trimming /var/lib/jenkins/fingerprints/ad/48/4a7760aea1cdb5513b2d8f4708c5.xml
Cleaned up 1 records
Finished at Sat Sep 09 05:13:57 IST 2017. 6400ms
