Started at Wed Sep 13 09:29:13 IST 2017
Finished at Wed Sep 13 09:29:13 IST 2017. 2ms
Started at Wed Sep 13 09:59:13 IST 2017
Finished at Wed Sep 13 09:59:13 IST 2017. 1ms
Started at Wed Sep 13 10:29:13 IST 2017
Finished at Wed Sep 13 10:29:13 IST 2017. 1ms
Started at Wed Sep 13 10:59:13 IST 2017
Finished at Wed Sep 13 10:59:13 IST 2017. 1ms
Started at Wed Sep 13 11:29:13 IST 2017
Finished at Wed Sep 13 11:29:13 IST 2017. 1ms
Started at Wed Sep 13 11:59:13 IST 2017
Finished at Wed Sep 13 11:59:13 IST 2017. 1ms
Started at Wed Sep 13 12:29:13 IST 2017
Finished at Wed Sep 13 12:29:13 IST 2017. 1ms
Started at Wed Sep 13 12:59:13 IST 2017
Finished at Wed Sep 13 12:59:13 IST 2017. 1ms
Started at Wed Sep 13 13:29:13 IST 2017
Finished at Wed Sep 13 13:29:13 IST 2017. 0ms
Started at Wed Sep 13 13:59:13 IST 2017
Finished at Wed Sep 13 13:59:13 IST 2017. 2ms
Started at Wed Sep 13 14:29:13 IST 2017
Finished at Wed Sep 13 14:29:13 IST 2017. 1ms
Started at Wed Sep 13 14:59:13 IST 2017
Finished at Wed Sep 13 14:59:13 IST 2017. 2ms
Started at Wed Sep 13 15:29:13 IST 2017
Finished at Wed Sep 13 15:29:13 IST 2017. 1ms
Started at Wed Sep 13 15:59:13 IST 2017
Finished at Wed Sep 13 15:59:13 IST 2017. 1ms
Started at Wed Sep 13 16:29:13 IST 2017
Finished at Wed Sep 13 16:29:13 IST 2017. 1ms
Started at Wed Sep 13 16:59:13 IST 2017
Finished at Wed Sep 13 16:59:13 IST 2017. 1ms
Started at Wed Sep 13 17:29:13 IST 2017
Finished at Wed Sep 13 17:29:13 IST 2017. 1ms
Started at Wed Sep 13 17:59:13 IST 2017
Finished at Wed Sep 13 17:59:13 IST 2017. 1ms
Started at Wed Sep 13 18:29:13 IST 2017
Finished at Wed Sep 13 18:29:13 IST 2017. 1ms
Started at Wed Sep 13 18:59:13 IST 2017
Finished at Wed Sep 13 18:59:13 IST 2017. 2ms
Started at Wed Sep 13 19:29:13 IST 2017
Finished at Wed Sep 13 19:29:13 IST 2017. 1ms
Started at Wed Sep 13 19:59:13 IST 2017
Finished at Wed Sep 13 19:59:13 IST 2017. 1ms
Started at Wed Sep 13 20:29:13 IST 2017
Finished at Wed Sep 13 20:29:13 IST 2017. 1ms
Started at Wed Sep 13 20:59:13 IST 2017
Finished at Wed Sep 13 20:59:13 IST 2017. 0ms
Started at Wed Sep 13 21:29:13 IST 2017
Finished at Wed Sep 13 21:29:13 IST 2017. 1ms
Started at Wed Sep 13 21:59:13 IST 2017
Finished at Wed Sep 13 21:59:13 IST 2017. 2ms
Started at Wed Sep 13 22:29:13 IST 2017
Finished at Wed Sep 13 22:29:13 IST 2017. 1ms
Started at Wed Sep 13 22:59:13 IST 2017
Finished at Wed Sep 13 22:59:13 IST 2017. 1ms
Started at Wed Sep 13 23:29:13 IST 2017
Finished at Wed Sep 13 23:29:13 IST 2017. 2ms
Started at Wed Sep 13 23:59:13 IST 2017
Finished at Wed Sep 13 23:59:13 IST 2017. 2ms
Started at Thu Sep 14 00:29:13 IST 2017
Finished at Thu Sep 14 00:29:13 IST 2017. 2ms
Started at Thu Sep 14 00:59:13 IST 2017
Finished at Thu Sep 14 00:59:13 IST 2017. 2ms
Started at Thu Sep 14 01:29:13 IST 2017
Finished at Thu Sep 14 01:29:13 IST 2017. 1ms
Started at Thu Sep 14 01:59:13 IST 2017
Finished at Thu Sep 14 01:59:13 IST 2017. 1ms
Started at Thu Sep 14 02:29:13 IST 2017
Finished at Thu Sep 14 02:29:13 IST 2017. 1ms
Started at Thu Sep 14 02:59:13 IST 2017
Finished at Thu Sep 14 02:59:13 IST 2017. 2ms
Started at Thu Sep 14 03:29:13 IST 2017
Finished at Thu Sep 14 03:29:13 IST 2017. 2ms
Started at Thu Sep 14 03:59:13 IST 2017
Finished at Thu Sep 14 03:59:13 IST 2017. 2ms
Started at Thu Sep 14 04:29:13 IST 2017
Finished at Thu Sep 14 04:29:13 IST 2017. 1ms
Started at Thu Sep 14 04:59:13 IST 2017
Finished at Thu Sep 14 04:59:13 IST 2017. 0ms
Started at Thu Sep 14 05:29:13 IST 2017
Finished at Thu Sep 14 05:29:13 IST 2017. 2ms
Started at Thu Sep 14 05:59:13 IST 2017
Finished at Thu Sep 14 05:59:13 IST 2017. 1ms
Started at Thu Sep 14 06:29:13 IST 2017
Finished at Thu Sep 14 06:29:13 IST 2017. 1ms
Started at Thu Sep 14 06:59:13 IST 2017
Finished at Thu Sep 14 06:59:13 IST 2017. 1ms
Started at Thu Sep 14 07:29:13 IST 2017
Finished at Thu Sep 14 07:29:13 IST 2017. 2ms
Started at Thu Sep 14 07:59:13 IST 2017
Finished at Thu Sep 14 07:59:13 IST 2017. 1ms
Started at Thu Sep 14 08:29:13 IST 2017
Finished at Thu Sep 14 08:29:13 IST 2017. 1ms
Started at Thu Sep 14 08:59:13 IST 2017
Finished at Thu Sep 14 08:59:13 IST 2017. 2ms
Started at Thu Sep 14 09:29:13 IST 2017
Finished at Thu Sep 14 09:29:13 IST 2017. 1ms
