Started at Tue Sep 12 08:59:13 IST 2017
Finished at Tue Sep 12 08:59:16 IST 2017. 3155ms
Started at Tue Sep 12 09:29:13 IST 2017
Finished at Tue Sep 12 09:29:13 IST 2017. 3ms
Started at Tue Sep 12 09:59:13 IST 2017
Finished at Tue Sep 12 09:59:13 IST 2017. 1ms
Started at Tue Sep 12 10:29:13 IST 2017
Finished at Tue Sep 12 10:29:13 IST 2017. 1ms
Started at Tue Sep 12 10:59:13 IST 2017
Finished at Tue Sep 12 10:59:13 IST 2017. 1ms
Started at Tue Sep 12 11:29:13 IST 2017
Finished at Tue Sep 12 11:29:13 IST 2017. 1ms
Started at Tue Sep 12 11:59:13 IST 2017
Finished at Tue Sep 12 11:59:13 IST 2017. 1ms
Started at Tue Sep 12 12:29:13 IST 2017
Finished at Tue Sep 12 12:29:13 IST 2017. 2ms
Started at Tue Sep 12 12:59:13 IST 2017
Finished at Tue Sep 12 12:59:13 IST 2017. 2ms
Started at Tue Sep 12 13:29:13 IST 2017
Finished at Tue Sep 12 13:29:13 IST 2017. 1ms
Started at Tue Sep 12 13:59:13 IST 2017
Finished at Tue Sep 12 13:59:13 IST 2017. 2ms
Started at Tue Sep 12 14:29:13 IST 2017
Finished at Tue Sep 12 14:29:13 IST 2017. 1ms
Started at Tue Sep 12 14:59:13 IST 2017
Finished at Tue Sep 12 14:59:13 IST 2017. 2ms
Started at Tue Sep 12 15:29:13 IST 2017
Finished at Tue Sep 12 15:29:13 IST 2017. 2ms
Started at Tue Sep 12 15:59:13 IST 2017
Finished at Tue Sep 12 15:59:13 IST 2017. 1ms
Started at Tue Sep 12 16:29:13 IST 2017
Finished at Tue Sep 12 16:29:13 IST 2017. 1ms
Started at Tue Sep 12 16:59:13 IST 2017
Finished at Tue Sep 12 16:59:13 IST 2017. 1ms
Started at Tue Sep 12 17:29:13 IST 2017
Finished at Tue Sep 12 17:29:13 IST 2017. 1ms
Started at Tue Sep 12 17:59:13 IST 2017
Finished at Tue Sep 12 17:59:13 IST 2017. 2ms
Started at Tue Sep 12 18:29:13 IST 2017
Finished at Tue Sep 12 18:29:13 IST 2017. 1ms
Started at Tue Sep 12 18:59:13 IST 2017
Finished at Tue Sep 12 18:59:13 IST 2017. 2ms
Started at Tue Sep 12 19:29:13 IST 2017
Finished at Tue Sep 12 19:29:13 IST 2017. 1ms
Started at Tue Sep 12 19:59:13 IST 2017
Finished at Tue Sep 12 19:59:13 IST 2017. 1ms
Started at Tue Sep 12 20:29:13 IST 2017
Finished at Tue Sep 12 20:29:13 IST 2017. 2ms
Started at Tue Sep 12 20:59:13 IST 2017
Finished at Tue Sep 12 20:59:13 IST 2017. 1ms
Started at Tue Sep 12 21:29:13 IST 2017
Finished at Tue Sep 12 21:29:13 IST 2017. 1ms
Started at Tue Sep 12 21:59:13 IST 2017
Finished at Tue Sep 12 21:59:13 IST 2017. 1ms
Started at Tue Sep 12 22:29:13 IST 2017
Finished at Tue Sep 12 22:29:13 IST 2017. 2ms
Started at Tue Sep 12 22:59:13 IST 2017
Finished at Tue Sep 12 22:59:13 IST 2017. 1ms
Started at Tue Sep 12 23:29:13 IST 2017
Finished at Tue Sep 12 23:29:13 IST 2017. 1ms
Started at Tue Sep 12 23:59:13 IST 2017
Finished at Tue Sep 12 23:59:13 IST 2017. 1ms
Started at Wed Sep 13 00:29:13 IST 2017
Finished at Wed Sep 13 00:29:13 IST 2017. 1ms
Started at Wed Sep 13 00:59:13 IST 2017
Finished at Wed Sep 13 00:59:13 IST 2017. 1ms
Started at Wed Sep 13 01:29:13 IST 2017
Finished at Wed Sep 13 01:29:13 IST 2017. 2ms
Started at Wed Sep 13 01:59:13 IST 2017
Finished at Wed Sep 13 01:59:13 IST 2017. 1ms
Started at Wed Sep 13 02:29:13 IST 2017
Finished at Wed Sep 13 02:29:13 IST 2017. 1ms
Started at Wed Sep 13 02:59:13 IST 2017
Finished at Wed Sep 13 02:59:13 IST 2017. 1ms
Started at Wed Sep 13 03:29:13 IST 2017
Finished at Wed Sep 13 03:29:13 IST 2017. 2ms
Started at Wed Sep 13 03:59:13 IST 2017
Finished at Wed Sep 13 03:59:13 IST 2017. 1ms
Started at Wed Sep 13 04:29:13 IST 2017
Finished at Wed Sep 13 04:29:13 IST 2017. 1ms
Started at Wed Sep 13 04:59:13 IST 2017
Finished at Wed Sep 13 04:59:13 IST 2017. 1ms
Started at Wed Sep 13 05:29:13 IST 2017
Finished at Wed Sep 13 05:29:13 IST 2017. 2ms
Started at Wed Sep 13 05:59:13 IST 2017
Finished at Wed Sep 13 05:59:13 IST 2017. 1ms
Started at Wed Sep 13 06:29:13 IST 2017
Finished at Wed Sep 13 06:29:13 IST 2017. 1ms
Started at Wed Sep 13 06:59:13 IST 2017
Finished at Wed Sep 13 06:59:13 IST 2017. 1ms
Started at Wed Sep 13 07:29:13 IST 2017
Finished at Wed Sep 13 07:29:13 IST 2017. 1ms
Started at Wed Sep 13 07:59:13 IST 2017
Finished at Wed Sep 13 07:59:13 IST 2017. 2ms
Started at Wed Sep 13 08:29:13 IST 2017
Finished at Wed Sep 13 08:29:13 IST 2017. 1ms
Started at Wed Sep 13 08:59:13 IST 2017
Finished at Wed Sep 13 08:59:13 IST 2017. 1ms
