Started at Sat Sep 16 10:59:13 IST 2017
Finished at Sat Sep 16 10:59:13 IST 2017. 2ms
Started at Sat Sep 16 11:29:13 IST 2017
Finished at Sat Sep 16 11:29:13 IST 2017. 1ms
Started at Sat Sep 16 11:59:13 IST 2017
Finished at Sat Sep 16 11:59:13 IST 2017. 1ms
Started at Sat Sep 16 12:29:13 IST 2017
Finished at Sat Sep 16 12:29:13 IST 2017. 1ms
Started at Sat Sep 16 12:59:13 IST 2017
Finished at Sat Sep 16 12:59:13 IST 2017. 2ms
Started at Sat Sep 16 13:29:13 IST 2017
Finished at Sat Sep 16 13:29:13 IST 2017. 1ms
Started at Sat Sep 16 13:59:13 IST 2017
Finished at Sat Sep 16 13:59:13 IST 2017. 1ms
Started at Sat Sep 16 14:29:13 IST 2017
Finished at Sat Sep 16 14:29:13 IST 2017. 1ms
Started at Sat Sep 16 14:59:13 IST 2017
Finished at Sat Sep 16 14:59:13 IST 2017. 1ms
Started at Sat Sep 16 15:29:13 IST 2017
Finished at Sat Sep 16 15:29:13 IST 2017. 1ms
Started at Sat Sep 16 15:59:13 IST 2017
Finished at Sat Sep 16 15:59:13 IST 2017. 1ms
Started at Sat Sep 16 16:29:13 IST 2017
Finished at Sat Sep 16 16:29:13 IST 2017. 1ms
Started at Sat Sep 16 16:59:13 IST 2017
Finished at Sat Sep 16 16:59:13 IST 2017. 1ms
Started at Sat Sep 16 17:29:13 IST 2017
Finished at Sat Sep 16 17:29:13 IST 2017. 1ms
Started at Sat Sep 16 17:59:13 IST 2017
Finished at Sat Sep 16 17:59:13 IST 2017. 0ms
Started at Sat Sep 16 18:29:13 IST 2017
Finished at Sat Sep 16 18:29:13 IST 2017. 1ms
Started at Sat Sep 16 18:59:13 IST 2017
Finished at Sat Sep 16 18:59:13 IST 2017. 1ms
Started at Sat Sep 16 19:29:13 IST 2017
Finished at Sat Sep 16 19:29:13 IST 2017. 1ms
Started at Sat Sep 16 19:59:13 IST 2017
Finished at Sat Sep 16 19:59:13 IST 2017. 1ms
Started at Sat Sep 16 20:29:13 IST 2017
Finished at Sat Sep 16 20:29:13 IST 2017. 1ms
Started at Sat Sep 16 20:59:13 IST 2017
Finished at Sat Sep 16 20:59:13 IST 2017. 2ms
Started at Sat Sep 16 21:29:13 IST 2017
Finished at Sat Sep 16 21:29:13 IST 2017. 1ms
Started at Sat Sep 16 21:59:13 IST 2017
Finished at Sat Sep 16 21:59:13 IST 2017. 1ms
Started at Sat Sep 16 22:29:13 IST 2017
Finished at Sat Sep 16 22:29:13 IST 2017. 1ms
Started at Sat Sep 16 22:59:13 IST 2017
Finished at Sat Sep 16 22:59:13 IST 2017. 1ms
Started at Sat Sep 16 23:29:13 IST 2017
Finished at Sat Sep 16 23:29:13 IST 2017. 1ms
Started at Sat Sep 16 23:59:13 IST 2017
Finished at Sat Sep 16 23:59:13 IST 2017. 1ms
Started at Sun Sep 17 00:29:13 IST 2017
Finished at Sun Sep 17 00:29:13 IST 2017. 1ms
Started at Sun Sep 17 00:59:13 IST 2017
Finished at Sun Sep 17 00:59:13 IST 2017. 1ms
Started at Sun Sep 17 01:29:13 IST 2017
Finished at Sun Sep 17 01:29:13 IST 2017. 1ms
Started at Sun Sep 17 01:59:13 IST 2017
Finished at Sun Sep 17 01:59:13 IST 2017. 1ms
Started at Sun Sep 17 02:29:13 IST 2017
Finished at Sun Sep 17 02:29:13 IST 2017. 1ms
Started at Sun Sep 17 02:59:13 IST 2017
Finished at Sun Sep 17 02:59:13 IST 2017. 1ms
Started at Sun Sep 17 03:29:13 IST 2017
Finished at Sun Sep 17 03:29:13 IST 2017. 1ms
Started at Sun Sep 17 03:59:13 IST 2017
Finished at Sun Sep 17 03:59:13 IST 2017. 1ms
Started at Sun Sep 17 04:29:13 IST 2017
Finished at Sun Sep 17 04:29:13 IST 2017. 1ms
Started at Sun Sep 17 04:59:13 IST 2017
Finished at Sun Sep 17 04:59:13 IST 2017. 0ms
Started at Sun Sep 17 05:29:13 IST 2017
Finished at Sun Sep 17 05:29:13 IST 2017. 1ms
Started at Sun Sep 17 05:59:13 IST 2017
Finished at Sun Sep 17 05:59:13 IST 2017. 1ms
Started at Sun Sep 17 06:29:13 IST 2017
Finished at Sun Sep 17 06:29:13 IST 2017. 1ms
Started at Sun Sep 17 06:59:13 IST 2017
Finished at Sun Sep 17 06:59:13 IST 2017. 1ms
Started at Sun Sep 17 07:29:13 IST 2017
Finished at Sun Sep 17 07:29:13 IST 2017. 1ms
Started at Sun Sep 17 07:59:13 IST 2017
Finished at Sun Sep 17 07:59:13 IST 2017. 2ms
Started at Sun Sep 17 08:29:13 IST 2017
Finished at Sun Sep 17 08:29:13 IST 2017. 2ms
Started at Sun Sep 17 08:59:13 IST 2017
Finished at Sun Sep 17 08:59:13 IST 2017. 2ms
Started at Sun Sep 17 09:29:13 IST 2017
Finished at Sun Sep 17 09:29:13 IST 2017. 1ms
Started at Sun Sep 17 09:59:13 IST 2017
Finished at Sun Sep 17 09:59:13 IST 2017. 1ms
Started at Sun Sep 17 10:29:13 IST 2017
Finished at Sun Sep 17 10:29:13 IST 2017. 1ms
Started at Sun Sep 17 10:59:13 IST 2017
Finished at Sun Sep 17 10:59:13 IST 2017. 1ms
