Started at Fri Sep 15 10:29:13 IST 2017
Finished at Fri Sep 15 10:29:13 IST 2017. 3ms
Started at Fri Sep 15 10:59:13 IST 2017
Finished at Fri Sep 15 10:59:13 IST 2017. 2ms
Started at Fri Sep 15 11:29:13 IST 2017
Finished at Fri Sep 15 11:29:13 IST 2017. 1ms
Started at Fri Sep 15 11:59:13 IST 2017
Finished at Fri Sep 15 11:59:13 IST 2017. 1ms
Started at Fri Sep 15 12:29:13 IST 2017
Finished at Fri Sep 15 12:29:13 IST 2017. 2ms
Started at Fri Sep 15 12:59:13 IST 2017
Finished at Fri Sep 15 12:59:13 IST 2017. 2ms
Started at Fri Sep 15 13:29:13 IST 2017
Finished at Fri Sep 15 13:29:13 IST 2017. 1ms
Started at Fri Sep 15 13:59:13 IST 2017
Finished at Fri Sep 15 13:59:13 IST 2017. 2ms
Started at Fri Sep 15 14:29:13 IST 2017
Finished at Fri Sep 15 14:29:13 IST 2017. 1ms
Started at Fri Sep 15 14:59:13 IST 2017
Finished at Fri Sep 15 14:59:13 IST 2017. 1ms
Started at Fri Sep 15 15:29:13 IST 2017
Finished at Fri Sep 15 15:29:13 IST 2017. 1ms
Started at Fri Sep 15 15:59:13 IST 2017
Finished at Fri Sep 15 15:59:13 IST 2017. 1ms
Started at Fri Sep 15 16:29:13 IST 2017
Finished at Fri Sep 15 16:29:13 IST 2017. 2ms
Started at Fri Sep 15 16:59:13 IST 2017
Finished at Fri Sep 15 16:59:13 IST 2017. 1ms
Started at Fri Sep 15 17:29:13 IST 2017
Finished at Fri Sep 15 17:29:13 IST 2017. 2ms
Started at Fri Sep 15 17:59:13 IST 2017
Finished at Fri Sep 15 17:59:13 IST 2017. 1ms
Started at Fri Sep 15 18:29:13 IST 2017
Finished at Fri Sep 15 18:29:13 IST 2017. 1ms
Started at Fri Sep 15 18:59:13 IST 2017
Finished at Fri Sep 15 18:59:13 IST 2017. 1ms
Started at Fri Sep 15 19:29:13 IST 2017
Finished at Fri Sep 15 19:29:13 IST 2017. 2ms
Started at Fri Sep 15 19:59:13 IST 2017
Finished at Fri Sep 15 19:59:13 IST 2017. 19ms
Started at Fri Sep 15 20:29:13 IST 2017
Finished at Fri Sep 15 20:29:13 IST 2017. 1ms
Started at Fri Sep 15 20:59:13 IST 2017
Finished at Fri Sep 15 20:59:13 IST 2017. 1ms
Started at Fri Sep 15 21:29:13 IST 2017
Finished at Fri Sep 15 21:29:13 IST 2017. 1ms
Started at Fri Sep 15 21:59:13 IST 2017
Finished at Fri Sep 15 21:59:13 IST 2017. 1ms
Started at Fri Sep 15 22:29:13 IST 2017
Finished at Fri Sep 15 22:29:13 IST 2017. 1ms
Started at Fri Sep 15 22:59:13 IST 2017
Finished at Fri Sep 15 22:59:13 IST 2017. 1ms
Started at Fri Sep 15 23:29:13 IST 2017
Finished at Fri Sep 15 23:29:13 IST 2017. 1ms
Started at Fri Sep 15 23:59:13 IST 2017
Finished at Fri Sep 15 23:59:13 IST 2017. 1ms
Started at Sat Sep 16 00:29:13 IST 2017
Finished at Sat Sep 16 00:29:13 IST 2017. 1ms
Started at Sat Sep 16 00:59:13 IST 2017
Finished at Sat Sep 16 00:59:13 IST 2017. 1ms
Started at Sat Sep 16 01:29:13 IST 2017
Finished at Sat Sep 16 01:29:13 IST 2017. 1ms
Started at Sat Sep 16 01:59:13 IST 2017
Finished at Sat Sep 16 01:59:13 IST 2017. 1ms
Started at Sat Sep 16 02:29:13 IST 2017
Finished at Sat Sep 16 02:29:13 IST 2017. 1ms
Started at Sat Sep 16 02:59:13 IST 2017
Finished at Sat Sep 16 02:59:13 IST 2017. 1ms
Started at Sat Sep 16 03:29:13 IST 2017
Finished at Sat Sep 16 03:29:13 IST 2017. 1ms
Started at Sat Sep 16 03:59:13 IST 2017
Finished at Sat Sep 16 03:59:13 IST 2017. 1ms
Started at Sat Sep 16 04:29:13 IST 2017
Finished at Sat Sep 16 04:29:13 IST 2017. 1ms
Started at Sat Sep 16 04:59:13 IST 2017
Finished at Sat Sep 16 04:59:13 IST 2017. 0ms
Started at Sat Sep 16 05:29:13 IST 2017
Finished at Sat Sep 16 05:29:13 IST 2017. 1ms
Started at Sat Sep 16 05:59:13 IST 2017
Finished at Sat Sep 16 05:59:13 IST 2017. 1ms
Started at Sat Sep 16 06:29:13 IST 2017
Finished at Sat Sep 16 06:29:13 IST 2017. 1ms
Started at Sat Sep 16 06:59:13 IST 2017
Finished at Sat Sep 16 06:59:13 IST 2017. 1ms
Started at Sat Sep 16 07:29:13 IST 2017
Finished at Sat Sep 16 07:29:13 IST 2017. 1ms
Started at Sat Sep 16 07:59:13 IST 2017
Finished at Sat Sep 16 07:59:13 IST 2017. 2ms
Started at Sat Sep 16 08:29:13 IST 2017
Finished at Sat Sep 16 08:29:13 IST 2017. 1ms
Started at Sat Sep 16 08:59:13 IST 2017
Finished at Sat Sep 16 08:59:13 IST 2017. 1ms
Started at Sat Sep 16 09:29:13 IST 2017
Finished at Sat Sep 16 09:29:13 IST 2017. 2ms
Started at Sat Sep 16 09:59:13 IST 2017
Finished at Sat Sep 16 09:59:13 IST 2017. 1ms
Started at Sat Sep 16 10:29:13 IST 2017
Finished at Sat Sep 16 10:29:13 IST 2017. 1ms
