Started at Thu Sep 14 09:59:13 IST 2017
Finished at Thu Sep 14 09:59:13 IST 2017. 2ms
Started at Thu Sep 14 10:29:13 IST 2017
Finished at Thu Sep 14 10:29:13 IST 2017. 1ms
Started at Thu Sep 14 10:59:13 IST 2017
Finished at Thu Sep 14 10:59:13 IST 2017. 4ms
Started at Thu Sep 14 11:29:13 IST 2017
Finished at Thu Sep 14 11:29:13 IST 2017. 1ms
Started at Thu Sep 14 11:59:13 IST 2017
Finished at Thu Sep 14 11:59:13 IST 2017. 2ms
Started at Thu Sep 14 12:29:13 IST 2017
Finished at Thu Sep 14 12:29:13 IST 2017. 1ms
Started at Thu Sep 14 12:59:13 IST 2017
Finished at Thu Sep 14 12:59:13 IST 2017. 2ms
Started at Thu Sep 14 13:29:13 IST 2017
Finished at Thu Sep 14 13:29:13 IST 2017. 1ms
Started at Thu Sep 14 13:59:13 IST 2017
Finished at Thu Sep 14 13:59:13 IST 2017. 1ms
Started at Thu Sep 14 14:29:13 IST 2017
Finished at Thu Sep 14 14:29:13 IST 2017. 1ms
Started at Thu Sep 14 14:59:13 IST 2017
Finished at Thu Sep 14 14:59:13 IST 2017. 2ms
Started at Thu Sep 14 15:29:13 IST 2017
Finished at Thu Sep 14 15:29:13 IST 2017. 1ms
Started at Thu Sep 14 15:59:13 IST 2017
Finished at Thu Sep 14 15:59:13 IST 2017. 1ms
Started at Thu Sep 14 16:29:13 IST 2017
Finished at Thu Sep 14 16:29:13 IST 2017. 1ms
Started at Thu Sep 14 16:59:13 IST 2017
Finished at Thu Sep 14 16:59:13 IST 2017. 1ms
Started at Thu Sep 14 17:29:13 IST 2017
Finished at Thu Sep 14 17:29:13 IST 2017. 1ms
Started at Thu Sep 14 17:59:13 IST 2017
Finished at Thu Sep 14 17:59:13 IST 2017. 1ms
Started at Thu Sep 14 18:29:13 IST 2017
Finished at Thu Sep 14 18:29:13 IST 2017. 1ms
Started at Thu Sep 14 18:59:13 IST 2017
Finished at Thu Sep 14 18:59:13 IST 2017. 2ms
Started at Thu Sep 14 19:29:13 IST 2017
Finished at Thu Sep 14 19:29:13 IST 2017. 1ms
Started at Thu Sep 14 19:59:13 IST 2017
Finished at Thu Sep 14 19:59:13 IST 2017. 1ms
Started at Thu Sep 14 20:29:13 IST 2017
Finished at Thu Sep 14 20:29:13 IST 2017. 1ms
Started at Thu Sep 14 20:59:13 IST 2017
Finished at Thu Sep 14 20:59:13 IST 2017. 1ms
Started at Thu Sep 14 21:29:13 IST 2017
Finished at Thu Sep 14 21:29:13 IST 2017. 2ms
Started at Thu Sep 14 21:59:13 IST 2017
Finished at Thu Sep 14 21:59:13 IST 2017. 1ms
Started at Thu Sep 14 22:29:13 IST 2017
Finished at Thu Sep 14 22:29:13 IST 2017. 1ms
Started at Thu Sep 14 22:59:13 IST 2017
Finished at Thu Sep 14 22:59:13 IST 2017. 1ms
Started at Thu Sep 14 23:29:13 IST 2017
Finished at Thu Sep 14 23:29:13 IST 2017. 1ms
Started at Thu Sep 14 23:59:13 IST 2017
Finished at Thu Sep 14 23:59:13 IST 2017. 1ms
Started at Fri Sep 15 00:29:13 IST 2017
Finished at Fri Sep 15 00:29:13 IST 2017. 0ms
Started at Fri Sep 15 00:59:13 IST 2017
Finished at Fri Sep 15 00:59:13 IST 2017. 3ms
Started at Fri Sep 15 01:29:13 IST 2017
Finished at Fri Sep 15 01:29:13 IST 2017. 1ms
Started at Fri Sep 15 01:59:13 IST 2017
Finished at Fri Sep 15 01:59:13 IST 2017. 2ms
Started at Fri Sep 15 02:29:13 IST 2017
Finished at Fri Sep 15 02:29:13 IST 2017. 1ms
Started at Fri Sep 15 02:59:13 IST 2017
Finished at Fri Sep 15 02:59:13 IST 2017. 1ms
Started at Fri Sep 15 03:29:13 IST 2017
Finished at Fri Sep 15 03:29:13 IST 2017. 1ms
Started at Fri Sep 15 03:59:13 IST 2017
Finished at Fri Sep 15 03:59:13 IST 2017. 1ms
Started at Fri Sep 15 04:29:13 IST 2017
Finished at Fri Sep 15 04:29:13 IST 2017. 1ms
Started at Fri Sep 15 04:59:13 IST 2017
Finished at Fri Sep 15 04:59:13 IST 2017. 2ms
Started at Fri Sep 15 05:29:13 IST 2017
Finished at Fri Sep 15 05:29:13 IST 2017. 1ms
Started at Fri Sep 15 05:59:13 IST 2017
Finished at Fri Sep 15 05:59:13 IST 2017. 1ms
Started at Fri Sep 15 06:29:13 IST 2017
Finished at Fri Sep 15 06:29:13 IST 2017. 1ms
Started at Fri Sep 15 06:59:13 IST 2017
Finished at Fri Sep 15 06:59:13 IST 2017. 1ms
Started at Fri Sep 15 07:29:13 IST 2017
Finished at Fri Sep 15 07:29:13 IST 2017. 1ms
Started at Fri Sep 15 07:59:13 IST 2017
Finished at Fri Sep 15 07:59:13 IST 2017. 1ms
Started at Fri Sep 15 08:29:13 IST 2017
Finished at Fri Sep 15 08:29:13 IST 2017. 2ms
Started at Fri Sep 15 08:59:13 IST 2017
Finished at Fri Sep 15 08:59:13 IST 2017. 2ms
Started at Fri Sep 15 09:29:13 IST 2017
Finished at Fri Sep 15 09:29:13 IST 2017. 2ms
Started at Fri Sep 15 09:59:13 IST 2017
Finished at Fri Sep 15 09:59:13 IST 2017. 1ms
