Started at Sun Sep 17 09:21:19 IST 2017
Finished at Sun Sep 17 09:21:19 IST 2017. 1ms
Started at Sun Sep 17 09:26:19 IST 2017
Finished at Sun Sep 17 09:26:19 IST 2017. 0ms
Started at Sun Sep 17 09:31:19 IST 2017
Finished at Sun Sep 17 09:31:19 IST 2017. 0ms
Started at Sun Sep 17 09:36:19 IST 2017
Finished at Sun Sep 17 09:36:19 IST 2017. 0ms
Started at Sun Sep 17 09:41:19 IST 2017
Finished at Sun Sep 17 09:41:19 IST 2017. 1ms
Started at Sun Sep 17 09:46:19 IST 2017
Finished at Sun Sep 17 09:46:19 IST 2017. 1ms
Started at Sun Sep 17 09:51:19 IST 2017
Finished at Sun Sep 17 09:51:19 IST 2017. 1ms
Started at Sun Sep 17 09:56:19 IST 2017
Finished at Sun Sep 17 09:56:19 IST 2017. 1ms
Started at Sun Sep 17 10:01:19 IST 2017
Finished at Sun Sep 17 10:01:19 IST 2017. 0ms
Started at Sun Sep 17 10:06:19 IST 2017
Finished at Sun Sep 17 10:06:19 IST 2017. 0ms
Started at Sun Sep 17 10:11:19 IST 2017
Finished at Sun Sep 17 10:11:19 IST 2017. 0ms
Started at Sun Sep 17 10:16:19 IST 2017
Finished at Sun Sep 17 10:16:19 IST 2017. 0ms
Started at Sun Sep 17 10:21:19 IST 2017
Finished at Sun Sep 17 10:21:19 IST 2017. 0ms
Started at Sun Sep 17 10:26:19 IST 2017
Finished at Sun Sep 17 10:26:19 IST 2017. 1ms
Started at Sun Sep 17 10:31:19 IST 2017
Finished at Sun Sep 17 10:31:19 IST 2017. 0ms
Started at Sun Sep 17 10:36:19 IST 2017
Finished at Sun Sep 17 10:36:19 IST 2017. 1ms
Started at Sun Sep 17 10:41:19 IST 2017
Finished at Sun Sep 17 10:41:19 IST 2017. 0ms
Started at Sun Sep 17 10:46:19 IST 2017
Finished at Sun Sep 17 10:46:19 IST 2017. 1ms
Started at Sun Sep 17 10:51:19 IST 2017
Finished at Sun Sep 17 10:51:19 IST 2017. 0ms
Started at Sun Sep 17 10:56:19 IST 2017
Finished at Sun Sep 17 10:56:19 IST 2017. 1ms
Started at Sun Sep 17 11:01:19 IST 2017
Finished at Sun Sep 17 11:01:19 IST 2017. 0ms
Started at Sun Sep 17 11:06:19 IST 2017
Finished at Sun Sep 17 11:06:19 IST 2017. 1ms
Started at Sun Sep 17 11:11:19 IST 2017
Finished at Sun Sep 17 11:11:19 IST 2017. 1ms
Started at Sun Sep 17 11:16:19 IST 2017
Finished at Sun Sep 17 11:16:19 IST 2017. 1ms
Started at Sun Sep 17 11:21:19 IST 2017
Finished at Sun Sep 17 11:21:19 IST 2017. 1ms
Started at Sun Sep 17 11:26:19 IST 2017
Finished at Sun Sep 17 11:26:19 IST 2017. 0ms
Started at Sun Sep 17 11:31:19 IST 2017
Finished at Sun Sep 17 11:31:19 IST 2017. 1ms
Started at Sun Sep 17 11:36:19 IST 2017
Finished at Sun Sep 17 11:36:19 IST 2017. 1ms
Started at Sun Sep 17 11:41:19 IST 2017
Finished at Sun Sep 17 11:41:19 IST 2017. 1ms
Started at Sun Sep 17 11:46:19 IST 2017
Finished at Sun Sep 17 11:46:19 IST 2017. 1ms
Started at Sun Sep 17 11:51:19 IST 2017
Finished at Sun Sep 17 11:51:19 IST 2017. 0ms
Started at Sun Sep 17 11:56:19 IST 2017
Finished at Sun Sep 17 11:56:19 IST 2017. 0ms
Started at Sun Sep 17 12:01:19 IST 2017
Finished at Sun Sep 17 12:01:19 IST 2017. 0ms
Started at Sun Sep 17 12:06:19 IST 2017
Finished at Sun Sep 17 12:06:19 IST 2017. 0ms
Started at Sun Sep 17 12:11:19 IST 2017
Finished at Sun Sep 17 12:11:19 IST 2017. 1ms
Started at Sun Sep 17 12:16:19 IST 2017
Finished at Sun Sep 17 12:16:19 IST 2017. 0ms
Started at Sun Sep 17 12:21:19 IST 2017
Finished at Sun Sep 17 12:21:19 IST 2017. 0ms
Started at Sun Sep 17 12:26:19 IST 2017
Finished at Sun Sep 17 12:26:19 IST 2017. 1ms
Started at Sun Sep 17 12:31:19 IST 2017
Finished at Sun Sep 17 12:31:19 IST 2017. 0ms
Started at Sun Sep 17 12:36:19 IST 2017
Finished at Sun Sep 17 12:36:19 IST 2017. 1ms
Started at Sun Sep 17 12:41:19 IST 2017
Finished at Sun Sep 17 12:41:19 IST 2017. 1ms
Started at Sun Sep 17 12:46:19 IST 2017
Finished at Sun Sep 17 12:46:19 IST 2017. 1ms
Started at Sun Sep 17 12:51:19 IST 2017
Finished at Sun Sep 17 12:51:19 IST 2017. 1ms
Started at Sun Sep 17 12:56:19 IST 2017
Finished at Sun Sep 17 12:56:19 IST 2017. 1ms
Started at Sun Sep 17 13:01:19 IST 2017
Finished at Sun Sep 17 13:01:19 IST 2017. 1ms
Started at Sun Sep 17 13:06:19 IST 2017
Finished at Sun Sep 17 13:06:19 IST 2017. 0ms
Started at Sun Sep 17 13:11:19 IST 2017
Finished at Sun Sep 17 13:11:19 IST 2017. 1ms
Started at Sun Sep 17 13:16:19 IST 2017
Finished at Sun Sep 17 13:16:19 IST 2017. 1ms
Started at Sun Sep 17 13:21:19 IST 2017
Finished at Sun Sep 17 13:21:19 IST 2017. 1ms
Started at Sun Sep 17 13:26:19 IST 2017
Finished at Sun Sep 17 13:26:19 IST 2017. 0ms
Started at Sun Sep 17 13:31:19 IST 2017
Finished at Sun Sep 17 13:31:19 IST 2017. 0ms
Started at Sun Sep 17 13:36:19 IST 2017
Finished at Sun Sep 17 13:36:19 IST 2017. 1ms
Started at Sun Sep 17 13:41:19 IST 2017
Finished at Sun Sep 17 13:41:19 IST 2017. 0ms
Started at Sun Sep 17 13:46:19 IST 2017
Finished at Sun Sep 17 13:46:19 IST 2017. 0ms
Started at Sun Sep 17 13:51:19 IST 2017
Finished at Sun Sep 17 13:51:19 IST 2017. 0ms
Started at Sun Sep 17 13:56:19 IST 2017
Finished at Sun Sep 17 13:56:19 IST 2017. 1ms
Started at Sun Sep 17 14:01:19 IST 2017
Finished at Sun Sep 17 14:01:19 IST 2017. 0ms
Started at Sun Sep 17 14:06:19 IST 2017
Finished at Sun Sep 17 14:06:19 IST 2017. 1ms
Started at Sun Sep 17 14:11:19 IST 2017
Finished at Sun Sep 17 14:11:19 IST 2017. 0ms
Started at Sun Sep 17 14:16:19 IST 2017
Finished at Sun Sep 17 14:16:19 IST 2017. 0ms
Started at Sun Sep 17 14:21:19 IST 2017
Finished at Sun Sep 17 14:21:19 IST 2017. 1ms
Started at Sun Sep 17 14:26:19 IST 2017
Finished at Sun Sep 17 14:26:19 IST 2017. 1ms
Started at Sun Sep 17 14:31:19 IST 2017
Finished at Sun Sep 17 14:31:19 IST 2017. 1ms
Started at Sun Sep 17 14:36:19 IST 2017
Finished at Sun Sep 17 14:36:19 IST 2017. 1ms
Started at Sun Sep 17 14:41:19 IST 2017
Finished at Sun Sep 17 14:41:19 IST 2017. 0ms
Started at Sun Sep 17 14:46:19 IST 2017
Finished at Sun Sep 17 14:46:19 IST 2017. 0ms
Started at Sun Sep 17 14:51:19 IST 2017
Finished at Sun Sep 17 14:51:19 IST 2017. 1ms
Started at Sun Sep 17 14:56:19 IST 2017
Finished at Sun Sep 17 14:56:19 IST 2017. 0ms
Started at Sun Sep 17 15:01:19 IST 2017
Finished at Sun Sep 17 15:01:19 IST 2017. 1ms
Started at Sun Sep 17 15:06:19 IST 2017
Finished at Sun Sep 17 15:06:19 IST 2017. 1ms
Started at Sun Sep 17 15:11:19 IST 2017
Finished at Sun Sep 17 15:11:19 IST 2017. 1ms
Started at Sun Sep 17 15:16:19 IST 2017
Finished at Sun Sep 17 15:16:19 IST 2017. 0ms
Started at Sun Sep 17 15:21:19 IST 2017
Finished at Sun Sep 17 15:21:19 IST 2017. 0ms
Started at Sun Sep 17 15:26:19 IST 2017
Finished at Sun Sep 17 15:26:19 IST 2017. 1ms
Started at Sun Sep 17 15:31:19 IST 2017
Finished at Sun Sep 17 15:31:19 IST 2017. 1ms
Started at Sun Sep 17 15:36:19 IST 2017
Finished at Sun Sep 17 15:36:19 IST 2017. 0ms
Started at Sun Sep 17 15:41:19 IST 2017
Finished at Sun Sep 17 15:41:19 IST 2017. 0ms
Started at Sun Sep 17 15:46:19 IST 2017
Finished at Sun Sep 17 15:46:19 IST 2017. 0ms
Started at Sun Sep 17 15:51:19 IST 2017
Finished at Sun Sep 17 15:51:19 IST 2017. 1ms
Started at Sun Sep 17 15:56:19 IST 2017
Finished at Sun Sep 17 15:56:19 IST 2017. 1ms
Started at Sun Sep 17 16:01:19 IST 2017
Finished at Sun Sep 17 16:01:19 IST 2017. 0ms
Started at Sun Sep 17 16:06:19 IST 2017
Finished at Sun Sep 17 16:06:19 IST 2017. 1ms
Started at Sun Sep 17 16:11:19 IST 2017
Finished at Sun Sep 17 16:11:19 IST 2017. 1ms
Started at Sun Sep 17 16:16:19 IST 2017
Finished at Sun Sep 17 16:16:19 IST 2017. 0ms
Started at Sun Sep 17 16:21:19 IST 2017
Finished at Sun Sep 17 16:21:19 IST 2017. 0ms
Started at Sun Sep 17 16:26:19 IST 2017
Finished at Sun Sep 17 16:26:19 IST 2017. 0ms
Started at Sun Sep 17 16:31:19 IST 2017
Finished at Sun Sep 17 16:31:19 IST 2017. 1ms
Started at Sun Sep 17 16:36:19 IST 2017
Finished at Sun Sep 17 16:36:19 IST 2017. 0ms
Started at Sun Sep 17 16:41:19 IST 2017
Finished at Sun Sep 17 16:41:19 IST 2017. 1ms
Started at Sun Sep 17 16:46:19 IST 2017
Finished at Sun Sep 17 16:46:19 IST 2017. 1ms
Started at Sun Sep 17 16:51:19 IST 2017
Finished at Sun Sep 17 16:51:19 IST 2017. 1ms
Started at Sun Sep 17 16:56:19 IST 2017
Finished at Sun Sep 17 16:56:19 IST 2017. 0ms
Started at Sun Sep 17 17:01:19 IST 2017
Finished at Sun Sep 17 17:01:19 IST 2017. 1ms
Started at Sun Sep 17 17:06:19 IST 2017
Finished at Sun Sep 17 17:06:19 IST 2017. 0ms
Started at Sun Sep 17 17:11:19 IST 2017
Finished at Sun Sep 17 17:11:19 IST 2017. 0ms
Started at Sun Sep 17 17:16:19 IST 2017
Finished at Sun Sep 17 17:16:19 IST 2017. 1ms
Started at Sun Sep 17 17:21:19 IST 2017
Finished at Sun Sep 17 17:21:19 IST 2017. 1ms
Started at Sun Sep 17 17:26:19 IST 2017
Finished at Sun Sep 17 17:26:19 IST 2017. 0ms
Started at Sun Sep 17 17:31:19 IST 2017
Finished at Sun Sep 17 17:31:19 IST 2017. 1ms
Started at Sun Sep 17 17:36:19 IST 2017
Finished at Sun Sep 17 17:36:19 IST 2017. 1ms
Started at Sun Sep 17 17:41:19 IST 2017
Finished at Sun Sep 17 17:41:19 IST 2017. 0ms
Started at Sun Sep 17 17:46:19 IST 2017
Finished at Sun Sep 17 17:46:19 IST 2017. 1ms
Started at Sun Sep 17 17:51:19 IST 2017
Finished at Sun Sep 17 17:51:19 IST 2017. 0ms
Started at Sun Sep 17 17:56:19 IST 2017
Finished at Sun Sep 17 17:56:19 IST 2017. 0ms
Started at Sun Sep 17 18:01:19 IST 2017
Finished at Sun Sep 17 18:01:19 IST 2017. 1ms
Started at Sun Sep 17 18:06:19 IST 2017
Finished at Sun Sep 17 18:06:19 IST 2017. 0ms
Started at Sun Sep 17 18:11:19 IST 2017
Finished at Sun Sep 17 18:11:19 IST 2017. 0ms
Started at Sun Sep 17 18:16:19 IST 2017
Finished at Sun Sep 17 18:16:19 IST 2017. 1ms
Started at Sun Sep 17 18:21:19 IST 2017
Finished at Sun Sep 17 18:21:19 IST 2017. 0ms
Started at Sun Sep 17 18:26:19 IST 2017
Finished at Sun Sep 17 18:26:19 IST 2017. 1ms
Started at Sun Sep 17 18:31:19 IST 2017
Finished at Sun Sep 17 18:31:19 IST 2017. 0ms
Started at Sun Sep 17 18:36:19 IST 2017
Finished at Sun Sep 17 18:36:19 IST 2017. 0ms
Started at Sun Sep 17 18:41:19 IST 2017
Finished at Sun Sep 17 18:41:19 IST 2017. 0ms
Started at Sun Sep 17 18:46:19 IST 2017
Finished at Sun Sep 17 18:46:19 IST 2017. 1ms
Started at Sun Sep 17 18:51:19 IST 2017
Finished at Sun Sep 17 18:51:19 IST 2017. 0ms
Started at Sun Sep 17 18:56:19 IST 2017
Finished at Sun Sep 17 18:56:19 IST 2017. 0ms
Started at Sun Sep 17 19:01:19 IST 2017
Finished at Sun Sep 17 19:01:19 IST 2017. 1ms
Started at Sun Sep 17 19:06:19 IST 2017
Finished at Sun Sep 17 19:06:19 IST 2017. 1ms
Started at Sun Sep 17 19:11:19 IST 2017
Finished at Sun Sep 17 19:11:19 IST 2017. 0ms
Started at Sun Sep 17 19:16:19 IST 2017
Finished at Sun Sep 17 19:16:19 IST 2017. 1ms
Started at Sun Sep 17 19:21:19 IST 2017
Finished at Sun Sep 17 19:21:19 IST 2017. 1ms
Started at Sun Sep 17 19:26:19 IST 2017
Finished at Sun Sep 17 19:26:19 IST 2017. 1ms
Started at Sun Sep 17 19:31:19 IST 2017
Finished at Sun Sep 17 19:31:19 IST 2017. 1ms
Started at Sun Sep 17 19:36:19 IST 2017
Finished at Sun Sep 17 19:36:19 IST 2017. 1ms
Started at Sun Sep 17 19:41:19 IST 2017
Finished at Sun Sep 17 19:41:19 IST 2017. 1ms
Started at Sun Sep 17 19:46:19 IST 2017
Finished at Sun Sep 17 19:46:19 IST 2017. 1ms
Started at Sun Sep 17 19:51:19 IST 2017
Finished at Sun Sep 17 19:51:19 IST 2017. 1ms
Started at Sun Sep 17 19:56:19 IST 2017
Finished at Sun Sep 17 19:56:19 IST 2017. 1ms
Started at Sun Sep 17 20:01:19 IST 2017
Finished at Sun Sep 17 20:01:19 IST 2017. 0ms
Started at Sun Sep 17 20:06:19 IST 2017
Finished at Sun Sep 17 20:06:19 IST 2017. 0ms
Started at Sun Sep 17 20:11:19 IST 2017
Finished at Sun Sep 17 20:11:19 IST 2017. 1ms
Started at Sun Sep 17 20:16:19 IST 2017
Finished at Sun Sep 17 20:16:19 IST 2017. 1ms
Started at Sun Sep 17 20:21:19 IST 2017
Finished at Sun Sep 17 20:21:19 IST 2017. 1ms
Started at Sun Sep 17 20:26:19 IST 2017
Finished at Sun Sep 17 20:26:19 IST 2017. 1ms
Started at Sun Sep 17 20:31:19 IST 2017
Finished at Sun Sep 17 20:31:19 IST 2017. 0ms
Started at Sun Sep 17 20:36:19 IST 2017
Finished at Sun Sep 17 20:36:19 IST 2017. 1ms
Started at Sun Sep 17 20:41:19 IST 2017
Finished at Sun Sep 17 20:41:19 IST 2017. 0ms
Started at Sun Sep 17 20:46:19 IST 2017
Finished at Sun Sep 17 20:46:19 IST 2017. 1ms
Started at Sun Sep 17 20:51:19 IST 2017
Finished at Sun Sep 17 20:51:19 IST 2017. 1ms
Started at Sun Sep 17 20:56:19 IST 2017
Finished at Sun Sep 17 20:56:19 IST 2017. 0ms
Started at Sun Sep 17 21:01:19 IST 2017
Finished at Sun Sep 17 21:01:19 IST 2017. 1ms
Started at Sun Sep 17 21:06:19 IST 2017
Finished at Sun Sep 17 21:06:19 IST 2017. 0ms
Started at Sun Sep 17 21:11:19 IST 2017
Finished at Sun Sep 17 21:11:19 IST 2017. 0ms
Started at Sun Sep 17 21:16:19 IST 2017
Finished at Sun Sep 17 21:16:19 IST 2017. 1ms
Started at Sun Sep 17 21:21:19 IST 2017
Finished at Sun Sep 17 21:21:19 IST 2017. 1ms
Started at Sun Sep 17 21:26:19 IST 2017
Finished at Sun Sep 17 21:26:19 IST 2017. 1ms
Started at Sun Sep 17 21:31:19 IST 2017
Finished at Sun Sep 17 21:31:19 IST 2017. 0ms
Started at Sun Sep 17 21:36:19 IST 2017
Finished at Sun Sep 17 21:36:19 IST 2017. 1ms
Started at Sun Sep 17 21:41:19 IST 2017
Finished at Sun Sep 17 21:41:19 IST 2017. 1ms
Started at Sun Sep 17 21:46:19 IST 2017
Finished at Sun Sep 17 21:46:19 IST 2017. 1ms
Started at Sun Sep 17 21:51:19 IST 2017
Finished at Sun Sep 17 21:51:19 IST 2017. 1ms
Started at Sun Sep 17 21:56:19 IST 2017
Finished at Sun Sep 17 21:56:19 IST 2017. 1ms
Started at Sun Sep 17 22:01:19 IST 2017
Finished at Sun Sep 17 22:01:19 IST 2017. 0ms
Started at Sun Sep 17 22:06:19 IST 2017
Finished at Sun Sep 17 22:06:19 IST 2017. 1ms
Started at Sun Sep 17 22:11:19 IST 2017
Finished at Sun Sep 17 22:11:19 IST 2017. 0ms
Started at Sun Sep 17 22:16:19 IST 2017
Finished at Sun Sep 17 22:16:19 IST 2017. 1ms
Started at Sun Sep 17 22:21:19 IST 2017
Finished at Sun Sep 17 22:21:19 IST 2017. 0ms
Started at Sun Sep 17 22:26:19 IST 2017
Finished at Sun Sep 17 22:26:19 IST 2017. 1ms
Started at Sun Sep 17 22:31:19 IST 2017
Finished at Sun Sep 17 22:31:19 IST 2017. 0ms
Started at Sun Sep 17 22:36:19 IST 2017
Finished at Sun Sep 17 22:36:19 IST 2017. 1ms
Started at Sun Sep 17 22:41:19 IST 2017
Finished at Sun Sep 17 22:41:19 IST 2017. 1ms
Started at Sun Sep 17 22:46:19 IST 2017
Finished at Sun Sep 17 22:46:19 IST 2017. 1ms
Started at Sun Sep 17 22:51:19 IST 2017
Finished at Sun Sep 17 22:51:19 IST 2017. 1ms
Started at Sun Sep 17 22:56:19 IST 2017
Finished at Sun Sep 17 22:56:19 IST 2017. 1ms
Started at Sun Sep 17 23:01:19 IST 2017
Finished at Sun Sep 17 23:01:19 IST 2017. 1ms
Started at Sun Sep 17 23:06:19 IST 2017
Finished at Sun Sep 17 23:06:19 IST 2017. 0ms
Started at Sun Sep 17 23:11:19 IST 2017
Finished at Sun Sep 17 23:11:19 IST 2017. 0ms
Started at Sun Sep 17 23:16:19 IST 2017
Finished at Sun Sep 17 23:16:19 IST 2017. 0ms
Started at Sun Sep 17 23:21:19 IST 2017
Finished at Sun Sep 17 23:21:19 IST 2017. 1ms
Started at Sun Sep 17 23:26:19 IST 2017
Finished at Sun Sep 17 23:26:19 IST 2017. 1ms
Started at Sun Sep 17 23:31:19 IST 2017
Finished at Sun Sep 17 23:31:19 IST 2017. 0ms
Started at Sun Sep 17 23:36:19 IST 2017
Finished at Sun Sep 17 23:36:19 IST 2017. 0ms
Started at Sun Sep 17 23:41:19 IST 2017
Finished at Sun Sep 17 23:41:19 IST 2017. 1ms
Started at Sun Sep 17 23:46:19 IST 2017
Finished at Sun Sep 17 23:46:19 IST 2017. 1ms
Started at Sun Sep 17 23:51:19 IST 2017
Finished at Sun Sep 17 23:51:19 IST 2017. 0ms
Started at Sun Sep 17 23:56:19 IST 2017
Finished at Sun Sep 17 23:56:19 IST 2017. 1ms
Started at Mon Sep 18 00:01:19 IST 2017
Finished at Mon Sep 18 00:01:19 IST 2017. 1ms
Started at Mon Sep 18 00:06:19 IST 2017
Finished at Mon Sep 18 00:06:19 IST 2017. 1ms
Started at Mon Sep 18 00:11:19 IST 2017
Finished at Mon Sep 18 00:11:19 IST 2017. 1ms
Started at Mon Sep 18 00:16:19 IST 2017
Finished at Mon Sep 18 00:16:19 IST 2017. 1ms
Started at Mon Sep 18 00:21:19 IST 2017
Finished at Mon Sep 18 00:21:19 IST 2017. 0ms
Started at Mon Sep 18 00:26:19 IST 2017
Finished at Mon Sep 18 00:26:19 IST 2017. 0ms
Started at Mon Sep 18 00:31:19 IST 2017
Finished at Mon Sep 18 00:31:19 IST 2017. 1ms
Started at Mon Sep 18 00:36:19 IST 2017
Finished at Mon Sep 18 00:36:19 IST 2017. 1ms
Started at Mon Sep 18 00:41:19 IST 2017
Finished at Mon Sep 18 00:41:19 IST 2017. 1ms
Started at Mon Sep 18 00:46:19 IST 2017
Finished at Mon Sep 18 00:46:19 IST 2017. 1ms
Started at Mon Sep 18 00:51:19 IST 2017
Finished at Mon Sep 18 00:51:19 IST 2017. 1ms
Started at Mon Sep 18 00:56:19 IST 2017
Finished at Mon Sep 18 00:56:19 IST 2017. 1ms
Started at Mon Sep 18 01:01:19 IST 2017
Finished at Mon Sep 18 01:01:19 IST 2017. 1ms
Started at Mon Sep 18 01:06:19 IST 2017
Finished at Mon Sep 18 01:06:19 IST 2017. 0ms
Started at Mon Sep 18 01:11:19 IST 2017
Finished at Mon Sep 18 01:11:19 IST 2017. 1ms
Started at Mon Sep 18 01:16:19 IST 2017
Finished at Mon Sep 18 01:16:19 IST 2017. 1ms
Started at Mon Sep 18 01:21:19 IST 2017
Finished at Mon Sep 18 01:21:19 IST 2017. 1ms
Started at Mon Sep 18 01:26:19 IST 2017
Finished at Mon Sep 18 01:26:19 IST 2017. 1ms
Started at Mon Sep 18 01:31:19 IST 2017
Finished at Mon Sep 18 01:31:19 IST 2017. 1ms
Started at Mon Sep 18 01:36:19 IST 2017
Finished at Mon Sep 18 01:36:19 IST 2017. 0ms
Started at Mon Sep 18 01:41:19 IST 2017
Finished at Mon Sep 18 01:41:19 IST 2017. 0ms
Started at Mon Sep 18 01:46:19 IST 2017
Finished at Mon Sep 18 01:46:19 IST 2017. 1ms
Started at Mon Sep 18 01:51:19 IST 2017
Finished at Mon Sep 18 01:51:19 IST 2017. 1ms
Started at Mon Sep 18 01:56:19 IST 2017
Finished at Mon Sep 18 01:56:19 IST 2017. 1ms
Started at Mon Sep 18 02:01:19 IST 2017
Finished at Mon Sep 18 02:01:19 IST 2017. 0ms
Started at Mon Sep 18 02:06:19 IST 2017
Finished at Mon Sep 18 02:06:19 IST 2017. 1ms
Started at Mon Sep 18 02:11:19 IST 2017
Finished at Mon Sep 18 02:11:19 IST 2017. 0ms
Started at Mon Sep 18 02:16:19 IST 2017
Finished at Mon Sep 18 02:16:19 IST 2017. 1ms
Started at Mon Sep 18 02:21:19 IST 2017
Finished at Mon Sep 18 02:21:19 IST 2017. 1ms
Started at Mon Sep 18 02:26:19 IST 2017
Finished at Mon Sep 18 02:26:19 IST 2017. 1ms
Started at Mon Sep 18 02:31:19 IST 2017
Finished at Mon Sep 18 02:31:19 IST 2017. 1ms
Started at Mon Sep 18 02:36:19 IST 2017
Finished at Mon Sep 18 02:36:19 IST 2017. 0ms
Started at Mon Sep 18 02:41:19 IST 2017
Finished at Mon Sep 18 02:41:19 IST 2017. 0ms
Started at Mon Sep 18 02:46:19 IST 2017
Finished at Mon Sep 18 02:46:19 IST 2017. 1ms
Started at Mon Sep 18 02:51:19 IST 2017
Finished at Mon Sep 18 02:51:19 IST 2017. 0ms
Started at Mon Sep 18 02:56:19 IST 2017
Finished at Mon Sep 18 02:56:19 IST 2017. 1ms
Started at Mon Sep 18 03:01:19 IST 2017
Finished at Mon Sep 18 03:01:19 IST 2017. 1ms
Started at Mon Sep 18 03:06:19 IST 2017
Finished at Mon Sep 18 03:06:19 IST 2017. 0ms
Started at Mon Sep 18 03:11:19 IST 2017
Finished at Mon Sep 18 03:11:19 IST 2017. 0ms
Started at Mon Sep 18 03:16:19 IST 2017
Finished at Mon Sep 18 03:16:19 IST 2017. 0ms
Started at Mon Sep 18 03:21:19 IST 2017
Finished at Mon Sep 18 03:21:19 IST 2017. 0ms
Started at Mon Sep 18 03:26:19 IST 2017
Finished at Mon Sep 18 03:26:19 IST 2017. 0ms
Started at Mon Sep 18 03:31:19 IST 2017
Finished at Mon Sep 18 03:31:19 IST 2017. 1ms
Started at Mon Sep 18 03:36:19 IST 2017
Finished at Mon Sep 18 03:36:19 IST 2017. 1ms
Started at Mon Sep 18 03:41:19 IST 2017
Finished at Mon Sep 18 03:41:19 IST 2017. 1ms
Started at Mon Sep 18 03:46:19 IST 2017
Finished at Mon Sep 18 03:46:19 IST 2017. 0ms
Started at Mon Sep 18 03:51:19 IST 2017
Finished at Mon Sep 18 03:51:19 IST 2017. 0ms
Started at Mon Sep 18 03:56:19 IST 2017
Finished at Mon Sep 18 03:56:19 IST 2017. 0ms
Started at Mon Sep 18 04:01:19 IST 2017
Finished at Mon Sep 18 04:01:19 IST 2017. 0ms
Started at Mon Sep 18 04:06:19 IST 2017
Finished at Mon Sep 18 04:06:19 IST 2017. 0ms
Started at Mon Sep 18 04:11:19 IST 2017
Finished at Mon Sep 18 04:11:19 IST 2017. 0ms
Started at Mon Sep 18 04:16:19 IST 2017
Finished at Mon Sep 18 04:16:19 IST 2017. 0ms
Started at Mon Sep 18 04:21:19 IST 2017
Finished at Mon Sep 18 04:21:19 IST 2017. 1ms
Started at Mon Sep 18 04:26:19 IST 2017
Finished at Mon Sep 18 04:26:19 IST 2017. 1ms
Started at Mon Sep 18 04:31:19 IST 2017
Finished at Mon Sep 18 04:31:19 IST 2017. 0ms
Started at Mon Sep 18 04:36:19 IST 2017
Finished at Mon Sep 18 04:36:19 IST 2017. 1ms
Started at Mon Sep 18 04:41:19 IST 2017
Finished at Mon Sep 18 04:41:19 IST 2017. 0ms
Started at Mon Sep 18 04:46:19 IST 2017
Finished at Mon Sep 18 04:46:19 IST 2017. 1ms
Started at Mon Sep 18 04:51:19 IST 2017
Finished at Mon Sep 18 04:51:19 IST 2017. 1ms
Started at Mon Sep 18 04:56:19 IST 2017
Finished at Mon Sep 18 04:56:19 IST 2017. 1ms
Started at Mon Sep 18 05:01:19 IST 2017
Finished at Mon Sep 18 05:01:19 IST 2017. 0ms
Started at Mon Sep 18 05:06:19 IST 2017
Finished at Mon Sep 18 05:06:19 IST 2017. 0ms
Started at Mon Sep 18 05:11:19 IST 2017
Finished at Mon Sep 18 05:11:19 IST 2017. 1ms
Started at Mon Sep 18 05:16:19 IST 2017
Finished at Mon Sep 18 05:16:19 IST 2017. 0ms
Started at Mon Sep 18 05:21:19 IST 2017
Finished at Mon Sep 18 05:21:19 IST 2017. 0ms
Started at Mon Sep 18 05:26:19 IST 2017
Finished at Mon Sep 18 05:26:19 IST 2017. 0ms
Started at Mon Sep 18 05:31:19 IST 2017
Finished at Mon Sep 18 05:31:19 IST 2017. 1ms
Started at Mon Sep 18 05:36:19 IST 2017
Finished at Mon Sep 18 05:36:19 IST 2017. 1ms
Started at Mon Sep 18 05:41:19 IST 2017
Finished at Mon Sep 18 05:41:19 IST 2017. 1ms
Started at Mon Sep 18 05:46:19 IST 2017
Finished at Mon Sep 18 05:46:19 IST 2017. 0ms
Started at Mon Sep 18 05:51:19 IST 2017
Finished at Mon Sep 18 05:51:19 IST 2017. 1ms
Started at Mon Sep 18 05:56:19 IST 2017
Finished at Mon Sep 18 05:56:19 IST 2017. 1ms
Started at Mon Sep 18 06:01:19 IST 2017
Finished at Mon Sep 18 06:01:19 IST 2017. 1ms
Started at Mon Sep 18 06:06:19 IST 2017
Finished at Mon Sep 18 06:06:19 IST 2017. 1ms
Started at Mon Sep 18 06:11:19 IST 2017
Finished at Mon Sep 18 06:11:19 IST 2017. 0ms
Started at Mon Sep 18 06:16:19 IST 2017
Finished at Mon Sep 18 06:16:19 IST 2017. 0ms
Started at Mon Sep 18 06:21:19 IST 2017
Finished at Mon Sep 18 06:21:19 IST 2017. 1ms
Started at Mon Sep 18 06:26:19 IST 2017
Finished at Mon Sep 18 06:26:19 IST 2017. 1ms
Started at Mon Sep 18 06:31:19 IST 2017
Finished at Mon Sep 18 06:31:19 IST 2017. 1ms
Started at Mon Sep 18 06:36:19 IST 2017
Finished at Mon Sep 18 06:36:19 IST 2017. 1ms
Started at Mon Sep 18 06:41:19 IST 2017
Finished at Mon Sep 18 06:41:19 IST 2017. 1ms
Started at Mon Sep 18 06:46:19 IST 2017
Finished at Mon Sep 18 06:46:19 IST 2017. 1ms
Started at Mon Sep 18 06:51:19 IST 2017
Finished at Mon Sep 18 06:51:19 IST 2017. 1ms
Started at Mon Sep 18 06:56:19 IST 2017
Finished at Mon Sep 18 06:56:19 IST 2017. 0ms
Started at Mon Sep 18 07:01:19 IST 2017
Finished at Mon Sep 18 07:01:19 IST 2017. 0ms
Started at Mon Sep 18 07:06:19 IST 2017
Finished at Mon Sep 18 07:06:19 IST 2017. 0ms
Started at Mon Sep 18 07:11:19 IST 2017
Finished at Mon Sep 18 07:11:19 IST 2017. 0ms
Started at Mon Sep 18 07:16:19 IST 2017
Finished at Mon Sep 18 07:16:19 IST 2017. 1ms
Started at Mon Sep 18 07:21:19 IST 2017
Finished at Mon Sep 18 07:21:19 IST 2017. 0ms
Started at Mon Sep 18 07:26:19 IST 2017
Finished at Mon Sep 18 07:26:19 IST 2017. 1ms
Started at Mon Sep 18 07:31:19 IST 2017
Finished at Mon Sep 18 07:31:19 IST 2017. 1ms
Started at Mon Sep 18 07:36:19 IST 2017
Finished at Mon Sep 18 07:36:19 IST 2017. 0ms
Started at Mon Sep 18 07:41:19 IST 2017
Finished at Mon Sep 18 07:41:19 IST 2017. 1ms
Started at Mon Sep 18 07:46:19 IST 2017
Finished at Mon Sep 18 07:46:19 IST 2017. 1ms
Started at Mon Sep 18 07:51:19 IST 2017
Finished at Mon Sep 18 07:51:19 IST 2017. 1ms
Started at Mon Sep 18 07:56:19 IST 2017
Finished at Mon Sep 18 07:56:19 IST 2017. 1ms
Started at Mon Sep 18 08:01:19 IST 2017
Finished at Mon Sep 18 08:01:19 IST 2017. 1ms
Started at Mon Sep 18 08:06:19 IST 2017
Finished at Mon Sep 18 08:06:19 IST 2017. 1ms
Started at Mon Sep 18 08:11:19 IST 2017
Finished at Mon Sep 18 08:11:19 IST 2017. 1ms
Started at Mon Sep 18 08:16:19 IST 2017
Finished at Mon Sep 18 08:16:19 IST 2017. 0ms
Started at Mon Sep 18 08:21:19 IST 2017
Finished at Mon Sep 18 08:21:19 IST 2017. 1ms
Started at Mon Sep 18 08:26:19 IST 2017
Finished at Mon Sep 18 08:26:19 IST 2017. 1ms
Started at Mon Sep 18 08:31:19 IST 2017
Finished at Mon Sep 18 08:31:19 IST 2017. 1ms
Started at Mon Sep 18 08:36:19 IST 2017
Finished at Mon Sep 18 08:36:19 IST 2017. 1ms
Started at Mon Sep 18 08:41:19 IST 2017
Finished at Mon Sep 18 08:41:19 IST 2017. 1ms
Started at Mon Sep 18 08:46:19 IST 2017
Finished at Mon Sep 18 08:46:19 IST 2017. 1ms
Started at Mon Sep 18 08:51:19 IST 2017
Finished at Mon Sep 18 08:51:19 IST 2017. 1ms
Started at Mon Sep 18 08:56:19 IST 2017
Finished at Mon Sep 18 08:56:19 IST 2017. 1ms
Started at Mon Sep 18 09:01:19 IST 2017
Finished at Mon Sep 18 09:01:19 IST 2017. 1ms
Started at Mon Sep 18 09:06:19 IST 2017
Finished at Mon Sep 18 09:06:19 IST 2017. 1ms
Started at Mon Sep 18 09:11:19 IST 2017
Finished at Mon Sep 18 09:11:19 IST 2017. 1ms
Started at Mon Sep 18 09:16:19 IST 2017
Finished at Mon Sep 18 09:16:19 IST 2017. 1ms
Started at Mon Sep 18 09:21:19 IST 2017
Finished at Mon Sep 18 09:21:19 IST 2017. 1ms
