Started at Thu Sep 14 09:11:19 IST 2017
Finished at Thu Sep 14 09:11:19 IST 2017. 1ms
Started at Thu Sep 14 09:16:19 IST 2017
Finished at Thu Sep 14 09:16:19 IST 2017. 0ms
Started at Thu Sep 14 09:21:19 IST 2017
Finished at Thu Sep 14 09:21:19 IST 2017. 1ms
Started at Thu Sep 14 09:26:19 IST 2017
Finished at Thu Sep 14 09:26:19 IST 2017. 1ms
Started at Thu Sep 14 09:31:19 IST 2017
Finished at Thu Sep 14 09:31:19 IST 2017. 1ms
Started at Thu Sep 14 09:36:19 IST 2017
Finished at Thu Sep 14 09:36:19 IST 2017. 1ms
Started at Thu Sep 14 09:41:19 IST 2017
Finished at Thu Sep 14 09:41:19 IST 2017. 1ms
Started at Thu Sep 14 09:46:19 IST 2017
Finished at Thu Sep 14 09:46:19 IST 2017. 1ms
Started at Thu Sep 14 09:51:19 IST 2017
Finished at Thu Sep 14 09:51:19 IST 2017. 1ms
Started at Thu Sep 14 09:56:19 IST 2017
Finished at Thu Sep 14 09:56:19 IST 2017. 1ms
Started at Thu Sep 14 10:01:19 IST 2017
Finished at Thu Sep 14 10:01:19 IST 2017. 1ms
Started at Thu Sep 14 10:06:19 IST 2017
Finished at Thu Sep 14 10:06:19 IST 2017. 0ms
Started at Thu Sep 14 10:11:19 IST 2017
Finished at Thu Sep 14 10:11:19 IST 2017. 1ms
Started at Thu Sep 14 10:16:19 IST 2017
Finished at Thu Sep 14 10:16:19 IST 2017. 1ms
Started at Thu Sep 14 10:21:19 IST 2017
Finished at Thu Sep 14 10:21:19 IST 2017. 1ms
Started at Thu Sep 14 10:26:19 IST 2017
Finished at Thu Sep 14 10:26:19 IST 2017. 1ms
Started at Thu Sep 14 10:31:19 IST 2017
Finished at Thu Sep 14 10:31:19 IST 2017. 1ms
Started at Thu Sep 14 10:36:19 IST 2017
Finished at Thu Sep 14 10:36:19 IST 2017. 1ms
Started at Thu Sep 14 10:41:19 IST 2017
Finished at Thu Sep 14 10:41:19 IST 2017. 1ms
Started at Thu Sep 14 10:46:19 IST 2017
Finished at Thu Sep 14 10:46:19 IST 2017. 1ms
Started at Thu Sep 14 10:51:19 IST 2017
Finished at Thu Sep 14 10:51:19 IST 2017. 1ms
Started at Thu Sep 14 10:56:19 IST 2017
Finished at Thu Sep 14 10:56:19 IST 2017. 1ms
Started at Thu Sep 14 11:01:19 IST 2017
Finished at Thu Sep 14 11:01:19 IST 2017. 4ms
Started at Thu Sep 14 11:06:19 IST 2017
Finished at Thu Sep 14 11:06:19 IST 2017. 3ms
Started at Thu Sep 14 11:11:19 IST 2017
Finished at Thu Sep 14 11:11:19 IST 2017. 1ms
Started at Thu Sep 14 11:16:19 IST 2017
Finished at Thu Sep 14 11:16:19 IST 2017. 1ms
Started at Thu Sep 14 11:21:19 IST 2017
Finished at Thu Sep 14 11:21:19 IST 2017. 1ms
Started at Thu Sep 14 11:26:19 IST 2017
Finished at Thu Sep 14 11:26:19 IST 2017. 1ms
Started at Thu Sep 14 11:31:19 IST 2017
Finished at Thu Sep 14 11:31:19 IST 2017. 1ms
Started at Thu Sep 14 11:36:19 IST 2017
Finished at Thu Sep 14 11:36:19 IST 2017. 1ms
Started at Thu Sep 14 11:41:19 IST 2017
Finished at Thu Sep 14 11:41:19 IST 2017. 1ms
Started at Thu Sep 14 11:46:19 IST 2017
Finished at Thu Sep 14 11:46:19 IST 2017. 1ms
Started at Thu Sep 14 11:51:19 IST 2017
Finished at Thu Sep 14 11:51:19 IST 2017. 1ms
Started at Thu Sep 14 11:56:19 IST 2017
Finished at Thu Sep 14 11:56:19 IST 2017. 1ms
Started at Thu Sep 14 12:01:19 IST 2017
Finished at Thu Sep 14 12:01:19 IST 2017. 1ms
Started at Thu Sep 14 12:06:19 IST 2017
Finished at Thu Sep 14 12:06:19 IST 2017. 1ms
Started at Thu Sep 14 12:11:19 IST 2017
Finished at Thu Sep 14 12:11:19 IST 2017. 1ms
Started at Thu Sep 14 12:16:19 IST 2017
Finished at Thu Sep 14 12:16:19 IST 2017. 1ms
Started at Thu Sep 14 12:21:19 IST 2017
Finished at Thu Sep 14 12:21:19 IST 2017. 0ms
Started at Thu Sep 14 12:26:19 IST 2017
Finished at Thu Sep 14 12:26:19 IST 2017. 0ms
Started at Thu Sep 14 12:31:19 IST 2017
Finished at Thu Sep 14 12:31:19 IST 2017. 0ms
Started at Thu Sep 14 12:36:19 IST 2017
Finished at Thu Sep 14 12:36:19 IST 2017. 1ms
Started at Thu Sep 14 12:41:19 IST 2017
Finished at Thu Sep 14 12:41:19 IST 2017. 0ms
Started at Thu Sep 14 12:46:19 IST 2017
Finished at Thu Sep 14 12:46:19 IST 2017. 1ms
Started at Thu Sep 14 12:51:19 IST 2017
Finished at Thu Sep 14 12:51:19 IST 2017. 1ms
Started at Thu Sep 14 12:56:19 IST 2017
Finished at Thu Sep 14 12:56:19 IST 2017. 1ms
Started at Thu Sep 14 13:01:19 IST 2017
Finished at Thu Sep 14 13:01:19 IST 2017. 1ms
Started at Thu Sep 14 13:06:19 IST 2017
Finished at Thu Sep 14 13:06:19 IST 2017. 1ms
Started at Thu Sep 14 13:11:19 IST 2017
Finished at Thu Sep 14 13:11:19 IST 2017. 1ms
Started at Thu Sep 14 13:16:19 IST 2017
Finished at Thu Sep 14 13:16:19 IST 2017. 1ms
Started at Thu Sep 14 13:21:19 IST 2017
Finished at Thu Sep 14 13:21:19 IST 2017. 1ms
Started at Thu Sep 14 13:26:19 IST 2017
Finished at Thu Sep 14 13:26:19 IST 2017. 1ms
Started at Thu Sep 14 13:31:19 IST 2017
Finished at Thu Sep 14 13:31:19 IST 2017. 1ms
Started at Thu Sep 14 13:36:19 IST 2017
Finished at Thu Sep 14 13:36:19 IST 2017. 1ms
Started at Thu Sep 14 13:41:19 IST 2017
Finished at Thu Sep 14 13:41:19 IST 2017. 1ms
Started at Thu Sep 14 13:46:19 IST 2017
Finished at Thu Sep 14 13:46:19 IST 2017. 1ms
Started at Thu Sep 14 13:51:19 IST 2017
Finished at Thu Sep 14 13:51:19 IST 2017. 1ms
Started at Thu Sep 14 13:56:19 IST 2017
Finished at Thu Sep 14 13:56:19 IST 2017. 2ms
Started at Thu Sep 14 14:01:19 IST 2017
Finished at Thu Sep 14 14:01:19 IST 2017. 0ms
Started at Thu Sep 14 14:06:19 IST 2017
Finished at Thu Sep 14 14:06:19 IST 2017. 1ms
Started at Thu Sep 14 14:11:19 IST 2017
Finished at Thu Sep 14 14:11:19 IST 2017. 1ms
Started at Thu Sep 14 14:16:19 IST 2017
Finished at Thu Sep 14 14:16:19 IST 2017. 1ms
Started at Thu Sep 14 14:21:19 IST 2017
Finished at Thu Sep 14 14:21:19 IST 2017. 1ms
Started at Thu Sep 14 14:26:19 IST 2017
Finished at Thu Sep 14 14:26:19 IST 2017. 1ms
Started at Thu Sep 14 14:31:19 IST 2017
Finished at Thu Sep 14 14:31:19 IST 2017. 1ms
Started at Thu Sep 14 14:36:19 IST 2017
Finished at Thu Sep 14 14:36:19 IST 2017. 2ms
Started at Thu Sep 14 14:41:19 IST 2017
Finished at Thu Sep 14 14:41:19 IST 2017. 1ms
Started at Thu Sep 14 14:46:19 IST 2017
Finished at Thu Sep 14 14:46:19 IST 2017. 1ms
Started at Thu Sep 14 14:51:19 IST 2017
Finished at Thu Sep 14 14:51:19 IST 2017. 1ms
Started at Thu Sep 14 14:56:19 IST 2017
Finished at Thu Sep 14 14:56:19 IST 2017. 1ms
Started at Thu Sep 14 15:01:19 IST 2017
Finished at Thu Sep 14 15:01:19 IST 2017. 1ms
Started at Thu Sep 14 15:06:19 IST 2017
Finished at Thu Sep 14 15:06:19 IST 2017. 1ms
Started at Thu Sep 14 15:11:19 IST 2017
Finished at Thu Sep 14 15:11:19 IST 2017. 1ms
Started at Thu Sep 14 15:16:19 IST 2017
Finished at Thu Sep 14 15:16:19 IST 2017. 1ms
Started at Thu Sep 14 15:21:19 IST 2017
Finished at Thu Sep 14 15:21:19 IST 2017. 1ms
Started at Thu Sep 14 15:26:19 IST 2017
Finished at Thu Sep 14 15:26:19 IST 2017. 1ms
Started at Thu Sep 14 15:31:19 IST 2017
Finished at Thu Sep 14 15:31:19 IST 2017. 1ms
Started at Thu Sep 14 15:36:19 IST 2017
Finished at Thu Sep 14 15:36:19 IST 2017. 1ms
Started at Thu Sep 14 15:41:19 IST 2017
Finished at Thu Sep 14 15:41:19 IST 2017. 2ms
Started at Thu Sep 14 15:46:19 IST 2017
Finished at Thu Sep 14 15:46:19 IST 2017. 1ms
Started at Thu Sep 14 15:51:19 IST 2017
Finished at Thu Sep 14 15:51:19 IST 2017. 1ms
Started at Thu Sep 14 15:56:19 IST 2017
Finished at Thu Sep 14 15:56:19 IST 2017. 1ms
Started at Thu Sep 14 16:01:19 IST 2017
Finished at Thu Sep 14 16:01:19 IST 2017. 1ms
Started at Thu Sep 14 16:06:19 IST 2017
Finished at Thu Sep 14 16:06:19 IST 2017. 0ms
Started at Thu Sep 14 16:11:19 IST 2017
Finished at Thu Sep 14 16:11:19 IST 2017. 0ms
Started at Thu Sep 14 16:16:19 IST 2017
Finished at Thu Sep 14 16:16:19 IST 2017. 1ms
Started at Thu Sep 14 16:21:19 IST 2017
Finished at Thu Sep 14 16:21:19 IST 2017. 0ms
Started at Thu Sep 14 16:26:19 IST 2017
Finished at Thu Sep 14 16:26:19 IST 2017. 1ms
Started at Thu Sep 14 16:31:19 IST 2017
Finished at Thu Sep 14 16:31:19 IST 2017. 0ms
Started at Thu Sep 14 16:36:19 IST 2017
Finished at Thu Sep 14 16:36:19 IST 2017. 0ms
Started at Thu Sep 14 16:41:19 IST 2017
Finished at Thu Sep 14 16:41:19 IST 2017. 1ms
Started at Thu Sep 14 16:46:19 IST 2017
Finished at Thu Sep 14 16:46:19 IST 2017. 0ms
Started at Thu Sep 14 16:51:19 IST 2017
Finished at Thu Sep 14 16:51:19 IST 2017. 1ms
Started at Thu Sep 14 16:56:19 IST 2017
Finished at Thu Sep 14 16:56:19 IST 2017. 0ms
Started at Thu Sep 14 17:01:19 IST 2017
Finished at Thu Sep 14 17:01:19 IST 2017. 1ms
Started at Thu Sep 14 17:06:19 IST 2017
Finished at Thu Sep 14 17:06:19 IST 2017. 0ms
Started at Thu Sep 14 17:11:19 IST 2017
Finished at Thu Sep 14 17:11:19 IST 2017. 0ms
Started at Thu Sep 14 17:16:19 IST 2017
Finished at Thu Sep 14 17:16:19 IST 2017. 1ms
Started at Thu Sep 14 17:21:19 IST 2017
Finished at Thu Sep 14 17:21:19 IST 2017. 0ms
Started at Thu Sep 14 17:26:19 IST 2017
Finished at Thu Sep 14 17:26:19 IST 2017. 0ms
Started at Thu Sep 14 17:31:19 IST 2017
Finished at Thu Sep 14 17:31:19 IST 2017. 1ms
Started at Thu Sep 14 17:36:19 IST 2017
Finished at Thu Sep 14 17:36:19 IST 2017. 0ms
Started at Thu Sep 14 17:41:19 IST 2017
Finished at Thu Sep 14 17:41:19 IST 2017. 1ms
Started at Thu Sep 14 17:46:19 IST 2017
Finished at Thu Sep 14 17:46:19 IST 2017. 1ms
Started at Thu Sep 14 17:51:19 IST 2017
Finished at Thu Sep 14 17:51:19 IST 2017. 1ms
Started at Thu Sep 14 17:56:19 IST 2017
Finished at Thu Sep 14 17:56:19 IST 2017. 1ms
Started at Thu Sep 14 18:01:19 IST 2017
Finished at Thu Sep 14 18:01:19 IST 2017. 1ms
Started at Thu Sep 14 18:06:19 IST 2017
Finished at Thu Sep 14 18:06:19 IST 2017. 1ms
Started at Thu Sep 14 18:11:19 IST 2017
Finished at Thu Sep 14 18:11:19 IST 2017. 1ms
Started at Thu Sep 14 18:16:19 IST 2017
Finished at Thu Sep 14 18:16:19 IST 2017. 1ms
Started at Thu Sep 14 18:21:19 IST 2017
Finished at Thu Sep 14 18:21:19 IST 2017. 0ms
Started at Thu Sep 14 18:26:19 IST 2017
Finished at Thu Sep 14 18:26:19 IST 2017. 1ms
Started at Thu Sep 14 18:31:19 IST 2017
Finished at Thu Sep 14 18:31:19 IST 2017. 1ms
Started at Thu Sep 14 18:36:19 IST 2017
Finished at Thu Sep 14 18:36:19 IST 2017. 0ms
Started at Thu Sep 14 18:41:19 IST 2017
Finished at Thu Sep 14 18:41:19 IST 2017. 1ms
Started at Thu Sep 14 18:46:19 IST 2017
Finished at Thu Sep 14 18:46:19 IST 2017. 1ms
Started at Thu Sep 14 18:51:19 IST 2017
Finished at Thu Sep 14 18:51:19 IST 2017. 1ms
Started at Thu Sep 14 18:56:19 IST 2017
Finished at Thu Sep 14 18:56:19 IST 2017. 1ms
Started at Thu Sep 14 19:01:19 IST 2017
Finished at Thu Sep 14 19:01:19 IST 2017. 0ms
Started at Thu Sep 14 19:06:19 IST 2017
Finished at Thu Sep 14 19:06:19 IST 2017. 1ms
Started at Thu Sep 14 19:11:19 IST 2017
Finished at Thu Sep 14 19:11:19 IST 2017. 1ms
Started at Thu Sep 14 19:16:19 IST 2017
Finished at Thu Sep 14 19:16:19 IST 2017. 0ms
Started at Thu Sep 14 19:21:19 IST 2017
Finished at Thu Sep 14 19:21:19 IST 2017. 1ms
Started at Thu Sep 14 19:26:19 IST 2017
Finished at Thu Sep 14 19:26:19 IST 2017. 1ms
Started at Thu Sep 14 19:31:19 IST 2017
Finished at Thu Sep 14 19:31:19 IST 2017. 1ms
Started at Thu Sep 14 19:36:19 IST 2017
Finished at Thu Sep 14 19:36:19 IST 2017. 1ms
Started at Thu Sep 14 19:41:19 IST 2017
Finished at Thu Sep 14 19:41:19 IST 2017. 0ms
Started at Thu Sep 14 19:46:19 IST 2017
Finished at Thu Sep 14 19:46:19 IST 2017. 1ms
Started at Thu Sep 14 19:51:19 IST 2017
Finished at Thu Sep 14 19:51:19 IST 2017. 1ms
Started at Thu Sep 14 19:56:19 IST 2017
Finished at Thu Sep 14 19:56:19 IST 2017. 1ms
Started at Thu Sep 14 20:01:19 IST 2017
Finished at Thu Sep 14 20:01:19 IST 2017. 1ms
Started at Thu Sep 14 20:06:19 IST 2017
Finished at Thu Sep 14 20:06:19 IST 2017. 1ms
Started at Thu Sep 14 20:11:19 IST 2017
Finished at Thu Sep 14 20:11:19 IST 2017. 0ms
Started at Thu Sep 14 20:16:19 IST 2017
Finished at Thu Sep 14 20:16:19 IST 2017. 1ms
Started at Thu Sep 14 20:21:19 IST 2017
Finished at Thu Sep 14 20:21:19 IST 2017. 1ms
Started at Thu Sep 14 20:26:19 IST 2017
Finished at Thu Sep 14 20:26:19 IST 2017. 1ms
Started at Thu Sep 14 20:31:19 IST 2017
Finished at Thu Sep 14 20:31:19 IST 2017. 1ms
Started at Thu Sep 14 20:36:19 IST 2017
Finished at Thu Sep 14 20:36:19 IST 2017. 1ms
Started at Thu Sep 14 20:41:19 IST 2017
Finished at Thu Sep 14 20:41:19 IST 2017. 1ms
Started at Thu Sep 14 20:46:19 IST 2017
Finished at Thu Sep 14 20:46:19 IST 2017. 1ms
Started at Thu Sep 14 20:51:19 IST 2017
Finished at Thu Sep 14 20:51:19 IST 2017. 1ms
Started at Thu Sep 14 20:56:19 IST 2017
Finished at Thu Sep 14 20:56:19 IST 2017. 1ms
Started at Thu Sep 14 21:01:19 IST 2017
Finished at Thu Sep 14 21:01:19 IST 2017. 1ms
Started at Thu Sep 14 21:06:19 IST 2017
Finished at Thu Sep 14 21:06:19 IST 2017. 1ms
Started at Thu Sep 14 21:11:19 IST 2017
Finished at Thu Sep 14 21:11:19 IST 2017. 1ms
Started at Thu Sep 14 21:16:19 IST 2017
Finished at Thu Sep 14 21:16:19 IST 2017. 1ms
Started at Thu Sep 14 21:21:19 IST 2017
Finished at Thu Sep 14 21:21:19 IST 2017. 1ms
Started at Thu Sep 14 21:26:19 IST 2017
Finished at Thu Sep 14 21:26:19 IST 2017. 0ms
Started at Thu Sep 14 21:31:19 IST 2017
Finished at Thu Sep 14 21:31:19 IST 2017. 1ms
Started at Thu Sep 14 21:36:19 IST 2017
Finished at Thu Sep 14 21:36:19 IST 2017. 1ms
Started at Thu Sep 14 21:41:19 IST 2017
Finished at Thu Sep 14 21:41:19 IST 2017. 1ms
Started at Thu Sep 14 21:46:19 IST 2017
Finished at Thu Sep 14 21:46:19 IST 2017. 1ms
Started at Thu Sep 14 21:51:19 IST 2017
Finished at Thu Sep 14 21:51:19 IST 2017. 1ms
Started at Thu Sep 14 21:56:19 IST 2017
Finished at Thu Sep 14 21:56:19 IST 2017. 1ms
Started at Thu Sep 14 22:01:19 IST 2017
Finished at Thu Sep 14 22:01:19 IST 2017. 1ms
Started at Thu Sep 14 22:06:19 IST 2017
Finished at Thu Sep 14 22:06:19 IST 2017. 1ms
Started at Thu Sep 14 22:11:19 IST 2017
Finished at Thu Sep 14 22:11:19 IST 2017. 1ms
Started at Thu Sep 14 22:16:19 IST 2017
Finished at Thu Sep 14 22:16:19 IST 2017. 1ms
Started at Thu Sep 14 22:21:19 IST 2017
Finished at Thu Sep 14 22:21:19 IST 2017. 1ms
Started at Thu Sep 14 22:26:19 IST 2017
Finished at Thu Sep 14 22:26:19 IST 2017. 1ms
Started at Thu Sep 14 22:31:19 IST 2017
Finished at Thu Sep 14 22:31:19 IST 2017. 1ms
Started at Thu Sep 14 22:36:19 IST 2017
Finished at Thu Sep 14 22:36:19 IST 2017. 0ms
Started at Thu Sep 14 22:41:19 IST 2017
Finished at Thu Sep 14 22:41:19 IST 2017. 1ms
Started at Thu Sep 14 22:46:19 IST 2017
Finished at Thu Sep 14 22:46:19 IST 2017. 1ms
Started at Thu Sep 14 22:51:19 IST 2017
Finished at Thu Sep 14 22:51:19 IST 2017. 0ms
Started at Thu Sep 14 22:56:19 IST 2017
Finished at Thu Sep 14 22:56:19 IST 2017. 1ms
Started at Thu Sep 14 23:01:19 IST 2017
Finished at Thu Sep 14 23:01:19 IST 2017. 1ms
Started at Thu Sep 14 23:06:19 IST 2017
Finished at Thu Sep 14 23:06:19 IST 2017. 1ms
Started at Thu Sep 14 23:11:19 IST 2017
Finished at Thu Sep 14 23:11:19 IST 2017. 1ms
Started at Thu Sep 14 23:16:19 IST 2017
Finished at Thu Sep 14 23:16:19 IST 2017. 1ms
Started at Thu Sep 14 23:21:19 IST 2017
Finished at Thu Sep 14 23:21:19 IST 2017. 1ms
Started at Thu Sep 14 23:26:19 IST 2017
Finished at Thu Sep 14 23:26:19 IST 2017. 1ms
Started at Thu Sep 14 23:31:19 IST 2017
Finished at Thu Sep 14 23:31:19 IST 2017. 1ms
Started at Thu Sep 14 23:36:19 IST 2017
Finished at Thu Sep 14 23:36:19 IST 2017. 1ms
Started at Thu Sep 14 23:41:19 IST 2017
Finished at Thu Sep 14 23:41:19 IST 2017. 1ms
Started at Thu Sep 14 23:46:19 IST 2017
Finished at Thu Sep 14 23:46:19 IST 2017. 1ms
Started at Thu Sep 14 23:51:19 IST 2017
Finished at Thu Sep 14 23:51:19 IST 2017. 1ms
Started at Thu Sep 14 23:56:19 IST 2017
Finished at Thu Sep 14 23:56:19 IST 2017. 1ms
Started at Fri Sep 15 00:01:19 IST 2017
Finished at Fri Sep 15 00:01:19 IST 2017. 1ms
Started at Fri Sep 15 00:06:19 IST 2017
Finished at Fri Sep 15 00:06:19 IST 2017. 1ms
Started at Fri Sep 15 00:11:19 IST 2017
Finished at Fri Sep 15 00:11:19 IST 2017. 1ms
Started at Fri Sep 15 00:16:19 IST 2017
Finished at Fri Sep 15 00:16:19 IST 2017. 0ms
Started at Fri Sep 15 00:21:19 IST 2017
Finished at Fri Sep 15 00:21:19 IST 2017. 1ms
Started at Fri Sep 15 00:26:19 IST 2017
Finished at Fri Sep 15 00:26:19 IST 2017. 1ms
Started at Fri Sep 15 00:31:19 IST 2017
Finished at Fri Sep 15 00:31:19 IST 2017. 1ms
Started at Fri Sep 15 00:36:19 IST 2017
Finished at Fri Sep 15 00:36:19 IST 2017. 1ms
Started at Fri Sep 15 00:41:19 IST 2017
Finished at Fri Sep 15 00:41:19 IST 2017. 1ms
Started at Fri Sep 15 00:46:19 IST 2017
Finished at Fri Sep 15 00:46:19 IST 2017. 1ms
Started at Fri Sep 15 00:51:19 IST 2017
Finished at Fri Sep 15 00:51:19 IST 2017. 1ms
Started at Fri Sep 15 00:56:19 IST 2017
Finished at Fri Sep 15 00:56:19 IST 2017. 1ms
Started at Fri Sep 15 01:01:19 IST 2017
Finished at Fri Sep 15 01:01:19 IST 2017. 1ms
Started at Fri Sep 15 01:06:19 IST 2017
Finished at Fri Sep 15 01:06:19 IST 2017. 1ms
Started at Fri Sep 15 01:11:19 IST 2017
Finished at Fri Sep 15 01:11:19 IST 2017. 1ms
Started at Fri Sep 15 01:16:19 IST 2017
Finished at Fri Sep 15 01:16:19 IST 2017. 1ms
Started at Fri Sep 15 01:21:19 IST 2017
Finished at Fri Sep 15 01:21:19 IST 2017. 1ms
Started at Fri Sep 15 01:26:19 IST 2017
Finished at Fri Sep 15 01:26:19 IST 2017. 1ms
Started at Fri Sep 15 01:31:19 IST 2017
Finished at Fri Sep 15 01:31:19 IST 2017. 1ms
Started at Fri Sep 15 01:36:19 IST 2017
Finished at Fri Sep 15 01:36:19 IST 2017. 1ms
Started at Fri Sep 15 01:41:19 IST 2017
Finished at Fri Sep 15 01:41:19 IST 2017. 1ms
Started at Fri Sep 15 01:46:19 IST 2017
Finished at Fri Sep 15 01:46:19 IST 2017. 1ms
Started at Fri Sep 15 01:51:19 IST 2017
Finished at Fri Sep 15 01:51:19 IST 2017. 1ms
Started at Fri Sep 15 01:56:19 IST 2017
Finished at Fri Sep 15 01:56:19 IST 2017. 0ms
Started at Fri Sep 15 02:01:19 IST 2017
Finished at Fri Sep 15 02:01:19 IST 2017. 1ms
Started at Fri Sep 15 02:06:19 IST 2017
Finished at Fri Sep 15 02:06:19 IST 2017. 1ms
Started at Fri Sep 15 02:11:19 IST 2017
Finished at Fri Sep 15 02:11:19 IST 2017. 1ms
Started at Fri Sep 15 02:16:19 IST 2017
Finished at Fri Sep 15 02:16:19 IST 2017. 1ms
Started at Fri Sep 15 02:21:19 IST 2017
Finished at Fri Sep 15 02:21:19 IST 2017. 1ms
Started at Fri Sep 15 02:26:19 IST 2017
Finished at Fri Sep 15 02:26:19 IST 2017. 0ms
Started at Fri Sep 15 02:31:19 IST 2017
Finished at Fri Sep 15 02:31:19 IST 2017. 0ms
Started at Fri Sep 15 02:36:19 IST 2017
Finished at Fri Sep 15 02:36:19 IST 2017. 1ms
Started at Fri Sep 15 02:41:19 IST 2017
Finished at Fri Sep 15 02:41:19 IST 2017. 1ms
Started at Fri Sep 15 02:46:19 IST 2017
Finished at Fri Sep 15 02:46:19 IST 2017. 1ms
Started at Fri Sep 15 02:51:19 IST 2017
Finished at Fri Sep 15 02:51:19 IST 2017. 1ms
Started at Fri Sep 15 02:56:19 IST 2017
Finished at Fri Sep 15 02:56:19 IST 2017. 1ms
Started at Fri Sep 15 03:01:19 IST 2017
Finished at Fri Sep 15 03:01:19 IST 2017. 1ms
Started at Fri Sep 15 03:06:19 IST 2017
Finished at Fri Sep 15 03:06:19 IST 2017. 0ms
Started at Fri Sep 15 03:11:19 IST 2017
Finished at Fri Sep 15 03:11:19 IST 2017. 1ms
Started at Fri Sep 15 03:16:19 IST 2017
Finished at Fri Sep 15 03:16:19 IST 2017. 1ms
Started at Fri Sep 15 03:21:19 IST 2017
Finished at Fri Sep 15 03:21:19 IST 2017. 1ms
Started at Fri Sep 15 03:26:19 IST 2017
Finished at Fri Sep 15 03:26:19 IST 2017. 1ms
Started at Fri Sep 15 03:31:19 IST 2017
Finished at Fri Sep 15 03:31:19 IST 2017. 1ms
Started at Fri Sep 15 03:36:19 IST 2017
Finished at Fri Sep 15 03:36:19 IST 2017. 1ms
Started at Fri Sep 15 03:41:19 IST 2017
Finished at Fri Sep 15 03:41:19 IST 2017. 1ms
Started at Fri Sep 15 03:46:19 IST 2017
Finished at Fri Sep 15 03:46:19 IST 2017. 0ms
Started at Fri Sep 15 03:51:19 IST 2017
Finished at Fri Sep 15 03:51:19 IST 2017. 1ms
Started at Fri Sep 15 03:56:19 IST 2017
Finished at Fri Sep 15 03:56:19 IST 2017. 0ms
Started at Fri Sep 15 04:01:19 IST 2017
Finished at Fri Sep 15 04:01:19 IST 2017. 1ms
Started at Fri Sep 15 04:06:19 IST 2017
Finished at Fri Sep 15 04:06:19 IST 2017. 1ms
Started at Fri Sep 15 04:11:19 IST 2017
Finished at Fri Sep 15 04:11:19 IST 2017. 1ms
Started at Fri Sep 15 04:16:19 IST 2017
Finished at Fri Sep 15 04:16:19 IST 2017. 1ms
Started at Fri Sep 15 04:21:19 IST 2017
Finished at Fri Sep 15 04:21:19 IST 2017. 1ms
Started at Fri Sep 15 04:26:19 IST 2017
Finished at Fri Sep 15 04:26:19 IST 2017. 1ms
Started at Fri Sep 15 04:31:19 IST 2017
Finished at Fri Sep 15 04:31:19 IST 2017. 1ms
Started at Fri Sep 15 04:36:19 IST 2017
Finished at Fri Sep 15 04:36:19 IST 2017. 1ms
Started at Fri Sep 15 04:41:19 IST 2017
Finished at Fri Sep 15 04:41:19 IST 2017. 1ms
Started at Fri Sep 15 04:46:19 IST 2017
Finished at Fri Sep 15 04:46:19 IST 2017. 0ms
Started at Fri Sep 15 04:51:19 IST 2017
Finished at Fri Sep 15 04:51:19 IST 2017. 0ms
Started at Fri Sep 15 04:56:19 IST 2017
Finished at Fri Sep 15 04:56:19 IST 2017. 0ms
Started at Fri Sep 15 05:01:19 IST 2017
Finished at Fri Sep 15 05:01:19 IST 2017. 1ms
Started at Fri Sep 15 05:06:19 IST 2017
Finished at Fri Sep 15 05:06:19 IST 2017. 1ms
Started at Fri Sep 15 05:11:19 IST 2017
Finished at Fri Sep 15 05:11:19 IST 2017. 0ms
Started at Fri Sep 15 05:16:19 IST 2017
Finished at Fri Sep 15 05:16:19 IST 2017. 1ms
Started at Fri Sep 15 05:21:19 IST 2017
Finished at Fri Sep 15 05:21:19 IST 2017. 0ms
Started at Fri Sep 15 05:26:19 IST 2017
Finished at Fri Sep 15 05:26:19 IST 2017. 1ms
Started at Fri Sep 15 05:31:19 IST 2017
Finished at Fri Sep 15 05:31:19 IST 2017. 1ms
Started at Fri Sep 15 05:36:19 IST 2017
Finished at Fri Sep 15 05:36:19 IST 2017. 1ms
Started at Fri Sep 15 05:41:19 IST 2017
Finished at Fri Sep 15 05:41:19 IST 2017. 1ms
Started at Fri Sep 15 05:46:19 IST 2017
Finished at Fri Sep 15 05:46:19 IST 2017. 0ms
Started at Fri Sep 15 05:51:19 IST 2017
Finished at Fri Sep 15 05:51:19 IST 2017. 0ms
Started at Fri Sep 15 05:56:19 IST 2017
Finished at Fri Sep 15 05:56:19 IST 2017. 1ms
Started at Fri Sep 15 06:01:19 IST 2017
Finished at Fri Sep 15 06:01:19 IST 2017. 1ms
Started at Fri Sep 15 06:06:19 IST 2017
Finished at Fri Sep 15 06:06:19 IST 2017. 1ms
Started at Fri Sep 15 06:11:19 IST 2017
Finished at Fri Sep 15 06:11:19 IST 2017. 1ms
Started at Fri Sep 15 06:16:19 IST 2017
Finished at Fri Sep 15 06:16:19 IST 2017. 1ms
Started at Fri Sep 15 06:21:19 IST 2017
Finished at Fri Sep 15 06:21:19 IST 2017. 1ms
Started at Fri Sep 15 06:26:19 IST 2017
Finished at Fri Sep 15 06:26:19 IST 2017. 1ms
Started at Fri Sep 15 06:31:19 IST 2017
Finished at Fri Sep 15 06:31:19 IST 2017. 1ms
Started at Fri Sep 15 06:36:19 IST 2017
Finished at Fri Sep 15 06:36:19 IST 2017. 1ms
Started at Fri Sep 15 06:41:19 IST 2017
Finished at Fri Sep 15 06:41:19 IST 2017. 0ms
Started at Fri Sep 15 06:46:19 IST 2017
Finished at Fri Sep 15 06:46:19 IST 2017. 1ms
Started at Fri Sep 15 06:51:19 IST 2017
Finished at Fri Sep 15 06:51:19 IST 2017. 1ms
Started at Fri Sep 15 06:56:19 IST 2017
Finished at Fri Sep 15 06:56:19 IST 2017. 0ms
Started at Fri Sep 15 07:01:19 IST 2017
Finished at Fri Sep 15 07:01:19 IST 2017. 0ms
Started at Fri Sep 15 07:06:19 IST 2017
Finished at Fri Sep 15 07:06:19 IST 2017. 1ms
Started at Fri Sep 15 07:11:19 IST 2017
Finished at Fri Sep 15 07:11:19 IST 2017. 1ms
Started at Fri Sep 15 07:16:19 IST 2017
Finished at Fri Sep 15 07:16:19 IST 2017. 0ms
Started at Fri Sep 15 07:21:19 IST 2017
Finished at Fri Sep 15 07:21:19 IST 2017. 0ms
Started at Fri Sep 15 07:26:19 IST 2017
Finished at Fri Sep 15 07:26:19 IST 2017. 1ms
Started at Fri Sep 15 07:31:19 IST 2017
Finished at Fri Sep 15 07:31:19 IST 2017. 0ms
Started at Fri Sep 15 07:36:19 IST 2017
Finished at Fri Sep 15 07:36:19 IST 2017. 1ms
Started at Fri Sep 15 07:41:19 IST 2017
Finished at Fri Sep 15 07:41:19 IST 2017. 1ms
Started at Fri Sep 15 07:46:19 IST 2017
Finished at Fri Sep 15 07:46:19 IST 2017. 1ms
Started at Fri Sep 15 07:51:19 IST 2017
Finished at Fri Sep 15 07:51:19 IST 2017. 1ms
Started at Fri Sep 15 07:56:19 IST 2017
Finished at Fri Sep 15 07:56:19 IST 2017. 1ms
Started at Fri Sep 15 08:01:19 IST 2017
Finished at Fri Sep 15 08:01:19 IST 2017. 1ms
Started at Fri Sep 15 08:06:19 IST 2017
Finished at Fri Sep 15 08:06:19 IST 2017. 0ms
Started at Fri Sep 15 08:11:19 IST 2017
Finished at Fri Sep 15 08:11:19 IST 2017. 1ms
Started at Fri Sep 15 08:16:19 IST 2017
Finished at Fri Sep 15 08:16:19 IST 2017. 0ms
Started at Fri Sep 15 08:21:19 IST 2017
Finished at Fri Sep 15 08:21:19 IST 2017. 1ms
Started at Fri Sep 15 08:26:19 IST 2017
Finished at Fri Sep 15 08:26:19 IST 2017. 1ms
Started at Fri Sep 15 08:31:19 IST 2017
Finished at Fri Sep 15 08:31:19 IST 2017. 0ms
Started at Fri Sep 15 08:36:19 IST 2017
Finished at Fri Sep 15 08:36:19 IST 2017. 1ms
Started at Fri Sep 15 08:41:19 IST 2017
Finished at Fri Sep 15 08:41:19 IST 2017. 1ms
Started at Fri Sep 15 08:46:19 IST 2017
Finished at Fri Sep 15 08:46:19 IST 2017. 1ms
Started at Fri Sep 15 08:51:19 IST 2017
Finished at Fri Sep 15 08:51:19 IST 2017. 1ms
Started at Fri Sep 15 08:56:19 IST 2017
Finished at Fri Sep 15 08:56:19 IST 2017. 1ms
Started at Fri Sep 15 09:01:19 IST 2017
Finished at Fri Sep 15 09:01:19 IST 2017. 1ms
Started at Fri Sep 15 09:06:19 IST 2017
Finished at Fri Sep 15 09:06:19 IST 2017. 0ms
