Started at Sat Sep 16 09:16:19 IST 2017
Finished at Sat Sep 16 09:16:19 IST 2017. 2ms
Started at Sat Sep 16 09:21:19 IST 2017
Finished at Sat Sep 16 09:21:19 IST 2017. 1ms
Started at Sat Sep 16 09:26:19 IST 2017
Finished at Sat Sep 16 09:26:19 IST 2017. 1ms
Started at Sat Sep 16 09:31:19 IST 2017
Finished at Sat Sep 16 09:31:19 IST 2017. 1ms
Started at Sat Sep 16 09:36:19 IST 2017
Finished at Sat Sep 16 09:36:19 IST 2017. 0ms
Started at Sat Sep 16 09:41:19 IST 2017
Finished at Sat Sep 16 09:41:19 IST 2017. 1ms
Started at Sat Sep 16 09:46:19 IST 2017
Finished at Sat Sep 16 09:46:19 IST 2017. 1ms
Started at Sat Sep 16 09:51:19 IST 2017
Finished at Sat Sep 16 09:51:19 IST 2017. 1ms
Started at Sat Sep 16 09:56:19 IST 2017
Finished at Sat Sep 16 09:56:19 IST 2017. 0ms
Started at Sat Sep 16 10:01:19 IST 2017
Finished at Sat Sep 16 10:01:19 IST 2017. 1ms
Started at Sat Sep 16 10:06:19 IST 2017
Finished at Sat Sep 16 10:06:19 IST 2017. 1ms
Started at Sat Sep 16 10:11:19 IST 2017
Finished at Sat Sep 16 10:11:19 IST 2017. 1ms
Started at Sat Sep 16 10:16:19 IST 2017
Finished at Sat Sep 16 10:16:19 IST 2017. 0ms
Started at Sat Sep 16 10:21:19 IST 2017
Finished at Sat Sep 16 10:21:19 IST 2017. 1ms
Started at Sat Sep 16 10:26:19 IST 2017
Finished at Sat Sep 16 10:26:19 IST 2017. 1ms
Started at Sat Sep 16 10:31:19 IST 2017
Finished at Sat Sep 16 10:31:19 IST 2017. 1ms
Started at Sat Sep 16 10:36:19 IST 2017
Finished at Sat Sep 16 10:36:19 IST 2017. 0ms
Started at Sat Sep 16 10:41:19 IST 2017
Finished at Sat Sep 16 10:41:19 IST 2017. 1ms
Started at Sat Sep 16 10:46:19 IST 2017
Finished at Sat Sep 16 10:46:19 IST 2017. 1ms
Started at Sat Sep 16 10:51:19 IST 2017
Finished at Sat Sep 16 10:51:19 IST 2017. 1ms
Started at Sat Sep 16 10:56:19 IST 2017
Finished at Sat Sep 16 10:56:19 IST 2017. 1ms
Started at Sat Sep 16 11:01:19 IST 2017
Finished at Sat Sep 16 11:01:19 IST 2017. 0ms
Started at Sat Sep 16 11:06:19 IST 2017
Finished at Sat Sep 16 11:06:19 IST 2017. 0ms
Started at Sat Sep 16 11:11:19 IST 2017
Finished at Sat Sep 16 11:11:19 IST 2017. 1ms
Started at Sat Sep 16 11:16:19 IST 2017
Finished at Sat Sep 16 11:16:19 IST 2017. 0ms
Started at Sat Sep 16 11:21:19 IST 2017
Finished at Sat Sep 16 11:21:19 IST 2017. 1ms
Started at Sat Sep 16 11:26:19 IST 2017
Finished at Sat Sep 16 11:26:19 IST 2017. 0ms
Started at Sat Sep 16 11:31:19 IST 2017
Finished at Sat Sep 16 11:31:19 IST 2017. 1ms
Started at Sat Sep 16 11:36:19 IST 2017
Finished at Sat Sep 16 11:36:19 IST 2017. 1ms
Started at Sat Sep 16 11:41:19 IST 2017
Finished at Sat Sep 16 11:41:19 IST 2017. 0ms
Started at Sat Sep 16 11:46:19 IST 2017
Finished at Sat Sep 16 11:46:19 IST 2017. 0ms
Started at Sat Sep 16 11:51:19 IST 2017
Finished at Sat Sep 16 11:51:19 IST 2017. 0ms
Started at Sat Sep 16 11:56:19 IST 2017
Finished at Sat Sep 16 11:56:19 IST 2017. 1ms
Started at Sat Sep 16 12:01:19 IST 2017
Finished at Sat Sep 16 12:01:19 IST 2017. 1ms
Started at Sat Sep 16 12:06:19 IST 2017
Finished at Sat Sep 16 12:06:19 IST 2017. 1ms
Started at Sat Sep 16 12:11:19 IST 2017
Finished at Sat Sep 16 12:11:19 IST 2017. 0ms
Started at Sat Sep 16 12:16:19 IST 2017
Finished at Sat Sep 16 12:16:19 IST 2017. 1ms
Started at Sat Sep 16 12:21:19 IST 2017
Finished at Sat Sep 16 12:21:19 IST 2017. 1ms
Started at Sat Sep 16 12:26:19 IST 2017
Finished at Sat Sep 16 12:26:19 IST 2017. 1ms
Started at Sat Sep 16 12:31:19 IST 2017
Finished at Sat Sep 16 12:31:19 IST 2017. 0ms
Started at Sat Sep 16 12:36:19 IST 2017
Finished at Sat Sep 16 12:36:19 IST 2017. 1ms
Started at Sat Sep 16 12:41:19 IST 2017
Finished at Sat Sep 16 12:41:19 IST 2017. 1ms
Started at Sat Sep 16 12:46:19 IST 2017
Finished at Sat Sep 16 12:46:19 IST 2017. 0ms
Started at Sat Sep 16 12:51:19 IST 2017
Finished at Sat Sep 16 12:51:19 IST 2017. 0ms
Started at Sat Sep 16 12:56:19 IST 2017
Finished at Sat Sep 16 12:56:19 IST 2017. 1ms
Started at Sat Sep 16 13:01:19 IST 2017
Finished at Sat Sep 16 13:01:19 IST 2017. 1ms
Started at Sat Sep 16 13:06:19 IST 2017
Finished at Sat Sep 16 13:06:19 IST 2017. 1ms
Started at Sat Sep 16 13:11:19 IST 2017
Finished at Sat Sep 16 13:11:19 IST 2017. 1ms
Started at Sat Sep 16 13:16:19 IST 2017
Finished at Sat Sep 16 13:16:19 IST 2017. 1ms
Started at Sat Sep 16 13:21:19 IST 2017
Finished at Sat Sep 16 13:21:19 IST 2017. 0ms
Started at Sat Sep 16 13:26:19 IST 2017
Finished at Sat Sep 16 13:26:19 IST 2017. 1ms
Started at Sat Sep 16 13:31:19 IST 2017
Finished at Sat Sep 16 13:31:19 IST 2017. 0ms
Started at Sat Sep 16 13:36:19 IST 2017
Finished at Sat Sep 16 13:36:19 IST 2017. 1ms
Started at Sat Sep 16 13:41:19 IST 2017
Finished at Sat Sep 16 13:41:19 IST 2017. 0ms
Started at Sat Sep 16 13:46:19 IST 2017
Finished at Sat Sep 16 13:46:19 IST 2017. 1ms
Started at Sat Sep 16 13:51:19 IST 2017
Finished at Sat Sep 16 13:51:19 IST 2017. 1ms
Started at Sat Sep 16 13:56:19 IST 2017
Finished at Sat Sep 16 13:56:19 IST 2017. 1ms
Started at Sat Sep 16 14:01:19 IST 2017
Finished at Sat Sep 16 14:01:19 IST 2017. 0ms
Started at Sat Sep 16 14:06:19 IST 2017
Finished at Sat Sep 16 14:06:19 IST 2017. 1ms
Started at Sat Sep 16 14:11:19 IST 2017
Finished at Sat Sep 16 14:11:19 IST 2017. 0ms
Started at Sat Sep 16 14:16:19 IST 2017
Finished at Sat Sep 16 14:16:19 IST 2017. 0ms
Started at Sat Sep 16 14:21:19 IST 2017
Finished at Sat Sep 16 14:21:19 IST 2017. 1ms
Started at Sat Sep 16 14:26:19 IST 2017
Finished at Sat Sep 16 14:26:19 IST 2017. 1ms
Started at Sat Sep 16 14:31:19 IST 2017
Finished at Sat Sep 16 14:31:19 IST 2017. 0ms
Started at Sat Sep 16 14:36:19 IST 2017
Finished at Sat Sep 16 14:36:19 IST 2017. 0ms
Started at Sat Sep 16 14:41:19 IST 2017
Finished at Sat Sep 16 14:41:19 IST 2017. 0ms
Started at Sat Sep 16 14:46:19 IST 2017
Finished at Sat Sep 16 14:46:19 IST 2017. 1ms
Started at Sat Sep 16 14:51:19 IST 2017
Finished at Sat Sep 16 14:51:19 IST 2017. 1ms
Started at Sat Sep 16 14:56:19 IST 2017
Finished at Sat Sep 16 14:56:19 IST 2017. 1ms
Started at Sat Sep 16 15:01:19 IST 2017
Finished at Sat Sep 16 15:01:19 IST 2017. 0ms
Started at Sat Sep 16 15:06:19 IST 2017
Finished at Sat Sep 16 15:06:19 IST 2017. 0ms
Started at Sat Sep 16 15:11:19 IST 2017
Finished at Sat Sep 16 15:11:19 IST 2017. 0ms
Started at Sat Sep 16 15:16:19 IST 2017
Finished at Sat Sep 16 15:16:19 IST 2017. 1ms
Started at Sat Sep 16 15:21:19 IST 2017
Finished at Sat Sep 16 15:21:19 IST 2017. 1ms
Started at Sat Sep 16 15:26:19 IST 2017
Finished at Sat Sep 16 15:26:19 IST 2017. 0ms
Started at Sat Sep 16 15:31:19 IST 2017
Finished at Sat Sep 16 15:31:19 IST 2017. 1ms
Started at Sat Sep 16 15:36:19 IST 2017
Finished at Sat Sep 16 15:36:19 IST 2017. 1ms
Started at Sat Sep 16 15:41:19 IST 2017
Finished at Sat Sep 16 15:41:19 IST 2017. 0ms
Started at Sat Sep 16 15:46:19 IST 2017
Finished at Sat Sep 16 15:46:19 IST 2017. 1ms
Started at Sat Sep 16 15:51:19 IST 2017
Finished at Sat Sep 16 15:51:19 IST 2017. 1ms
Started at Sat Sep 16 15:56:19 IST 2017
Finished at Sat Sep 16 15:56:19 IST 2017. 1ms
Started at Sat Sep 16 16:01:19 IST 2017
Finished at Sat Sep 16 16:01:19 IST 2017. 0ms
Started at Sat Sep 16 16:06:19 IST 2017
Finished at Sat Sep 16 16:06:19 IST 2017. 1ms
Started at Sat Sep 16 16:11:19 IST 2017
Finished at Sat Sep 16 16:11:19 IST 2017. 0ms
Started at Sat Sep 16 16:16:19 IST 2017
Finished at Sat Sep 16 16:16:19 IST 2017. 0ms
Started at Sat Sep 16 16:21:19 IST 2017
Finished at Sat Sep 16 16:21:19 IST 2017. 1ms
Started at Sat Sep 16 16:26:19 IST 2017
Finished at Sat Sep 16 16:26:19 IST 2017. 0ms
Started at Sat Sep 16 16:31:19 IST 2017
Finished at Sat Sep 16 16:31:19 IST 2017. 1ms
Started at Sat Sep 16 16:36:19 IST 2017
Finished at Sat Sep 16 16:36:19 IST 2017. 0ms
Started at Sat Sep 16 16:41:19 IST 2017
Finished at Sat Sep 16 16:41:19 IST 2017. 1ms
Started at Sat Sep 16 16:46:19 IST 2017
Finished at Sat Sep 16 16:46:19 IST 2017. 1ms
Started at Sat Sep 16 16:51:19 IST 2017
Finished at Sat Sep 16 16:51:19 IST 2017. 1ms
Started at Sat Sep 16 16:56:19 IST 2017
Finished at Sat Sep 16 16:56:19 IST 2017. 1ms
Started at Sat Sep 16 17:01:19 IST 2017
Finished at Sat Sep 16 17:01:19 IST 2017. 0ms
Started at Sat Sep 16 17:06:19 IST 2017
Finished at Sat Sep 16 17:06:19 IST 2017. 1ms
Started at Sat Sep 16 17:11:19 IST 2017
Finished at Sat Sep 16 17:11:19 IST 2017. 1ms
Started at Sat Sep 16 17:16:19 IST 2017
Finished at Sat Sep 16 17:16:19 IST 2017. 1ms
Started at Sat Sep 16 17:21:19 IST 2017
Finished at Sat Sep 16 17:21:19 IST 2017. 0ms
Started at Sat Sep 16 17:26:19 IST 2017
Finished at Sat Sep 16 17:26:19 IST 2017. 0ms
Started at Sat Sep 16 17:31:19 IST 2017
Finished at Sat Sep 16 17:31:19 IST 2017. 0ms
Started at Sat Sep 16 17:36:19 IST 2017
Finished at Sat Sep 16 17:36:19 IST 2017. 1ms
Started at Sat Sep 16 17:41:19 IST 2017
Finished at Sat Sep 16 17:41:19 IST 2017. 1ms
Started at Sat Sep 16 17:46:19 IST 2017
Finished at Sat Sep 16 17:46:19 IST 2017. 0ms
Started at Sat Sep 16 17:51:19 IST 2017
Finished at Sat Sep 16 17:51:19 IST 2017. 0ms
Started at Sat Sep 16 17:56:19 IST 2017
Finished at Sat Sep 16 17:56:19 IST 2017. 1ms
Started at Sat Sep 16 18:01:19 IST 2017
Finished at Sat Sep 16 18:01:19 IST 2017. 1ms
Started at Sat Sep 16 18:06:19 IST 2017
Finished at Sat Sep 16 18:06:19 IST 2017. 1ms
Started at Sat Sep 16 18:11:19 IST 2017
Finished at Sat Sep 16 18:11:19 IST 2017. 0ms
Started at Sat Sep 16 18:16:19 IST 2017
Finished at Sat Sep 16 18:16:19 IST 2017. 0ms
Started at Sat Sep 16 18:21:19 IST 2017
Finished at Sat Sep 16 18:21:19 IST 2017. 1ms
Started at Sat Sep 16 18:26:19 IST 2017
Finished at Sat Sep 16 18:26:19 IST 2017. 0ms
Started at Sat Sep 16 18:31:19 IST 2017
Finished at Sat Sep 16 18:31:19 IST 2017. 1ms
Started at Sat Sep 16 18:36:19 IST 2017
Finished at Sat Sep 16 18:36:19 IST 2017. 0ms
Started at Sat Sep 16 18:41:19 IST 2017
Finished at Sat Sep 16 18:41:19 IST 2017. 1ms
Started at Sat Sep 16 18:46:19 IST 2017
Finished at Sat Sep 16 18:46:19 IST 2017. 0ms
Started at Sat Sep 16 18:51:19 IST 2017
Finished at Sat Sep 16 18:51:19 IST 2017. 1ms
Started at Sat Sep 16 18:56:19 IST 2017
Finished at Sat Sep 16 18:56:19 IST 2017. 0ms
Started at Sat Sep 16 19:01:19 IST 2017
Finished at Sat Sep 16 19:01:19 IST 2017. 1ms
Started at Sat Sep 16 19:06:19 IST 2017
Finished at Sat Sep 16 19:06:19 IST 2017. 0ms
Started at Sat Sep 16 19:11:19 IST 2017
Finished at Sat Sep 16 19:11:19 IST 2017. 0ms
Started at Sat Sep 16 19:16:19 IST 2017
Finished at Sat Sep 16 19:16:19 IST 2017. 0ms
Started at Sat Sep 16 19:21:19 IST 2017
Finished at Sat Sep 16 19:21:19 IST 2017. 0ms
Started at Sat Sep 16 19:26:19 IST 2017
Finished at Sat Sep 16 19:26:19 IST 2017. 0ms
Started at Sat Sep 16 19:31:19 IST 2017
Finished at Sat Sep 16 19:31:19 IST 2017. 0ms
Started at Sat Sep 16 19:36:19 IST 2017
Finished at Sat Sep 16 19:36:19 IST 2017. 0ms
Started at Sat Sep 16 19:41:19 IST 2017
Finished at Sat Sep 16 19:41:19 IST 2017. 1ms
Started at Sat Sep 16 19:46:19 IST 2017
Finished at Sat Sep 16 19:46:19 IST 2017. 0ms
Started at Sat Sep 16 19:51:19 IST 2017
Finished at Sat Sep 16 19:51:19 IST 2017. 1ms
Started at Sat Sep 16 19:56:19 IST 2017
Finished at Sat Sep 16 19:56:19 IST 2017. 1ms
Started at Sat Sep 16 20:01:19 IST 2017
Finished at Sat Sep 16 20:01:19 IST 2017. 0ms
Started at Sat Sep 16 20:06:19 IST 2017
Finished at Sat Sep 16 20:06:19 IST 2017. 1ms
Started at Sat Sep 16 20:11:19 IST 2017
Finished at Sat Sep 16 20:11:19 IST 2017. 1ms
Started at Sat Sep 16 20:16:19 IST 2017
Finished at Sat Sep 16 20:16:19 IST 2017. 1ms
Started at Sat Sep 16 20:21:19 IST 2017
Finished at Sat Sep 16 20:21:19 IST 2017. 1ms
Started at Sat Sep 16 20:26:19 IST 2017
Finished at Sat Sep 16 20:26:19 IST 2017. 0ms
Started at Sat Sep 16 20:31:19 IST 2017
Finished at Sat Sep 16 20:31:19 IST 2017. 1ms
Started at Sat Sep 16 20:36:19 IST 2017
Finished at Sat Sep 16 20:36:19 IST 2017. 1ms
Started at Sat Sep 16 20:41:19 IST 2017
Finished at Sat Sep 16 20:41:19 IST 2017. 1ms
Started at Sat Sep 16 20:46:19 IST 2017
Finished at Sat Sep 16 20:46:19 IST 2017. 0ms
Started at Sat Sep 16 20:51:19 IST 2017
Finished at Sat Sep 16 20:51:19 IST 2017. 1ms
Started at Sat Sep 16 20:56:19 IST 2017
Finished at Sat Sep 16 20:56:19 IST 2017. 1ms
Started at Sat Sep 16 21:01:19 IST 2017
Finished at Sat Sep 16 21:01:19 IST 2017. 1ms
Started at Sat Sep 16 21:06:19 IST 2017
Finished at Sat Sep 16 21:06:19 IST 2017. 0ms
Started at Sat Sep 16 21:11:19 IST 2017
Finished at Sat Sep 16 21:11:19 IST 2017. 1ms
Started at Sat Sep 16 21:16:19 IST 2017
Finished at Sat Sep 16 21:16:19 IST 2017. 0ms
Started at Sat Sep 16 21:21:19 IST 2017
Finished at Sat Sep 16 21:21:19 IST 2017. 0ms
Started at Sat Sep 16 21:26:19 IST 2017
Finished at Sat Sep 16 21:26:19 IST 2017. 0ms
Started at Sat Sep 16 21:31:19 IST 2017
Finished at Sat Sep 16 21:31:19 IST 2017. 0ms
Started at Sat Sep 16 21:36:19 IST 2017
Finished at Sat Sep 16 21:36:19 IST 2017. 0ms
Started at Sat Sep 16 21:41:19 IST 2017
Finished at Sat Sep 16 21:41:19 IST 2017. 1ms
Started at Sat Sep 16 21:46:19 IST 2017
Finished at Sat Sep 16 21:46:19 IST 2017. 1ms
Started at Sat Sep 16 21:51:19 IST 2017
Finished at Sat Sep 16 21:51:19 IST 2017. 1ms
Started at Sat Sep 16 21:56:19 IST 2017
Finished at Sat Sep 16 21:56:19 IST 2017. 1ms
Started at Sat Sep 16 22:01:19 IST 2017
Finished at Sat Sep 16 22:01:19 IST 2017. 1ms
Started at Sat Sep 16 22:06:19 IST 2017
Finished at Sat Sep 16 22:06:19 IST 2017. 1ms
Started at Sat Sep 16 22:11:19 IST 2017
Finished at Sat Sep 16 22:11:19 IST 2017. 1ms
Started at Sat Sep 16 22:16:19 IST 2017
Finished at Sat Sep 16 22:16:19 IST 2017. 0ms
Started at Sat Sep 16 22:21:19 IST 2017
Finished at Sat Sep 16 22:21:19 IST 2017. 1ms
Started at Sat Sep 16 22:26:19 IST 2017
Finished at Sat Sep 16 22:26:19 IST 2017. 0ms
Started at Sat Sep 16 22:31:19 IST 2017
Finished at Sat Sep 16 22:31:19 IST 2017. 1ms
Started at Sat Sep 16 22:36:19 IST 2017
Finished at Sat Sep 16 22:36:19 IST 2017. 1ms
Started at Sat Sep 16 22:41:19 IST 2017
Finished at Sat Sep 16 22:41:19 IST 2017. 1ms
Started at Sat Sep 16 22:46:19 IST 2017
Finished at Sat Sep 16 22:46:19 IST 2017. 0ms
Started at Sat Sep 16 22:51:19 IST 2017
Finished at Sat Sep 16 22:51:19 IST 2017. 1ms
Started at Sat Sep 16 22:56:19 IST 2017
Finished at Sat Sep 16 22:56:19 IST 2017. 0ms
Started at Sat Sep 16 23:01:19 IST 2017
Finished at Sat Sep 16 23:01:19 IST 2017. 1ms
Started at Sat Sep 16 23:06:19 IST 2017
Finished at Sat Sep 16 23:06:19 IST 2017. 0ms
Started at Sat Sep 16 23:11:19 IST 2017
Finished at Sat Sep 16 23:11:19 IST 2017. 1ms
Started at Sat Sep 16 23:16:19 IST 2017
Finished at Sat Sep 16 23:16:19 IST 2017. 1ms
Started at Sat Sep 16 23:21:19 IST 2017
Finished at Sat Sep 16 23:21:19 IST 2017. 1ms
Started at Sat Sep 16 23:26:19 IST 2017
Finished at Sat Sep 16 23:26:19 IST 2017. 1ms
Started at Sat Sep 16 23:31:19 IST 2017
Finished at Sat Sep 16 23:31:19 IST 2017. 1ms
Started at Sat Sep 16 23:36:19 IST 2017
Finished at Sat Sep 16 23:36:19 IST 2017. 1ms
Started at Sat Sep 16 23:41:19 IST 2017
Finished at Sat Sep 16 23:41:19 IST 2017. 0ms
Started at Sat Sep 16 23:46:19 IST 2017
Finished at Sat Sep 16 23:46:19 IST 2017. 1ms
Started at Sat Sep 16 23:51:19 IST 2017
Finished at Sat Sep 16 23:51:19 IST 2017. 0ms
Started at Sat Sep 16 23:56:19 IST 2017
Finished at Sat Sep 16 23:56:19 IST 2017. 0ms
Started at Sun Sep 17 00:01:19 IST 2017
Finished at Sun Sep 17 00:01:19 IST 2017. 0ms
Started at Sun Sep 17 00:06:19 IST 2017
Finished at Sun Sep 17 00:06:19 IST 2017. 1ms
Started at Sun Sep 17 00:11:19 IST 2017
Finished at Sun Sep 17 00:11:19 IST 2017. 0ms
Started at Sun Sep 17 00:16:19 IST 2017
Finished at Sun Sep 17 00:16:19 IST 2017. 0ms
Started at Sun Sep 17 00:21:19 IST 2017
Finished at Sun Sep 17 00:21:19 IST 2017. 1ms
Started at Sun Sep 17 00:26:19 IST 2017
Finished at Sun Sep 17 00:26:19 IST 2017. 1ms
Started at Sun Sep 17 00:31:19 IST 2017
Finished at Sun Sep 17 00:31:19 IST 2017. 1ms
Started at Sun Sep 17 00:36:19 IST 2017
Finished at Sun Sep 17 00:36:19 IST 2017. 1ms
Started at Sun Sep 17 00:41:19 IST 2017
Finished at Sun Sep 17 00:41:19 IST 2017. 1ms
Started at Sun Sep 17 00:46:19 IST 2017
Finished at Sun Sep 17 00:46:19 IST 2017. 0ms
Started at Sun Sep 17 00:51:19 IST 2017
Finished at Sun Sep 17 00:51:19 IST 2017. 0ms
Started at Sun Sep 17 00:56:19 IST 2017
Finished at Sun Sep 17 00:56:19 IST 2017. 0ms
Started at Sun Sep 17 01:01:19 IST 2017
Finished at Sun Sep 17 01:01:19 IST 2017. 1ms
Started at Sun Sep 17 01:06:19 IST 2017
Finished at Sun Sep 17 01:06:19 IST 2017. 1ms
Started at Sun Sep 17 01:11:19 IST 2017
Finished at Sun Sep 17 01:11:19 IST 2017. 1ms
Started at Sun Sep 17 01:16:19 IST 2017
Finished at Sun Sep 17 01:16:19 IST 2017. 0ms
Started at Sun Sep 17 01:21:19 IST 2017
Finished at Sun Sep 17 01:21:19 IST 2017. 1ms
Started at Sun Sep 17 01:26:19 IST 2017
Finished at Sun Sep 17 01:26:19 IST 2017. 1ms
Started at Sun Sep 17 01:31:19 IST 2017
Finished at Sun Sep 17 01:31:19 IST 2017. 1ms
Started at Sun Sep 17 01:36:19 IST 2017
Finished at Sun Sep 17 01:36:19 IST 2017. 0ms
Started at Sun Sep 17 01:41:19 IST 2017
Finished at Sun Sep 17 01:41:19 IST 2017. 1ms
Started at Sun Sep 17 01:46:19 IST 2017
Finished at Sun Sep 17 01:46:19 IST 2017. 0ms
Started at Sun Sep 17 01:51:19 IST 2017
Finished at Sun Sep 17 01:51:19 IST 2017. 0ms
Started at Sun Sep 17 01:56:19 IST 2017
Finished at Sun Sep 17 01:56:19 IST 2017. 1ms
Started at Sun Sep 17 02:01:19 IST 2017
Finished at Sun Sep 17 02:01:19 IST 2017. 1ms
Started at Sun Sep 17 02:06:19 IST 2017
Finished at Sun Sep 17 02:06:19 IST 2017. 0ms
Started at Sun Sep 17 02:11:19 IST 2017
Finished at Sun Sep 17 02:11:19 IST 2017. 1ms
Started at Sun Sep 17 02:16:19 IST 2017
Finished at Sun Sep 17 02:16:19 IST 2017. 1ms
Started at Sun Sep 17 02:21:19 IST 2017
Finished at Sun Sep 17 02:21:19 IST 2017. 1ms
Started at Sun Sep 17 02:26:19 IST 2017
Finished at Sun Sep 17 02:26:19 IST 2017. 1ms
Started at Sun Sep 17 02:31:19 IST 2017
Finished at Sun Sep 17 02:31:19 IST 2017. 1ms
Started at Sun Sep 17 02:36:19 IST 2017
Finished at Sun Sep 17 02:36:19 IST 2017. 1ms
Started at Sun Sep 17 02:41:19 IST 2017
Finished at Sun Sep 17 02:41:19 IST 2017. 1ms
Started at Sun Sep 17 02:46:19 IST 2017
Finished at Sun Sep 17 02:46:19 IST 2017. 0ms
Started at Sun Sep 17 02:51:19 IST 2017
Finished at Sun Sep 17 02:51:19 IST 2017. 0ms
Started at Sun Sep 17 02:56:19 IST 2017
Finished at Sun Sep 17 02:56:19 IST 2017. 1ms
Started at Sun Sep 17 03:01:19 IST 2017
Finished at Sun Sep 17 03:01:19 IST 2017. 1ms
Started at Sun Sep 17 03:06:19 IST 2017
Finished at Sun Sep 17 03:06:19 IST 2017. 1ms
Started at Sun Sep 17 03:11:19 IST 2017
Finished at Sun Sep 17 03:11:19 IST 2017. 1ms
Started at Sun Sep 17 03:16:19 IST 2017
Finished at Sun Sep 17 03:16:19 IST 2017. 1ms
Started at Sun Sep 17 03:21:19 IST 2017
Finished at Sun Sep 17 03:21:19 IST 2017. 0ms
Started at Sun Sep 17 03:26:19 IST 2017
Finished at Sun Sep 17 03:26:19 IST 2017. 1ms
Started at Sun Sep 17 03:31:19 IST 2017
Finished at Sun Sep 17 03:31:19 IST 2017. 1ms
Started at Sun Sep 17 03:36:19 IST 2017
Finished at Sun Sep 17 03:36:19 IST 2017. 1ms
Started at Sun Sep 17 03:41:19 IST 2017
Finished at Sun Sep 17 03:41:19 IST 2017. 1ms
Started at Sun Sep 17 03:46:19 IST 2017
Finished at Sun Sep 17 03:46:19 IST 2017. 0ms
Started at Sun Sep 17 03:51:19 IST 2017
Finished at Sun Sep 17 03:51:19 IST 2017. 1ms
Started at Sun Sep 17 03:56:19 IST 2017
Finished at Sun Sep 17 03:56:19 IST 2017. 1ms
Started at Sun Sep 17 04:01:19 IST 2017
Finished at Sun Sep 17 04:01:19 IST 2017. 0ms
Started at Sun Sep 17 04:06:19 IST 2017
Finished at Sun Sep 17 04:06:19 IST 2017. 1ms
Started at Sun Sep 17 04:11:19 IST 2017
Finished at Sun Sep 17 04:11:19 IST 2017. 1ms
Started at Sun Sep 17 04:16:19 IST 2017
Finished at Sun Sep 17 04:16:19 IST 2017. 1ms
Started at Sun Sep 17 04:21:19 IST 2017
Finished at Sun Sep 17 04:21:19 IST 2017. 1ms
Started at Sun Sep 17 04:26:19 IST 2017
Finished at Sun Sep 17 04:26:19 IST 2017. 0ms
Started at Sun Sep 17 04:31:19 IST 2017
Finished at Sun Sep 17 04:31:19 IST 2017. 0ms
Started at Sun Sep 17 04:36:19 IST 2017
Finished at Sun Sep 17 04:36:19 IST 2017. 0ms
Started at Sun Sep 17 04:41:19 IST 2017
Finished at Sun Sep 17 04:41:19 IST 2017. 1ms
Started at Sun Sep 17 04:46:19 IST 2017
Finished at Sun Sep 17 04:46:19 IST 2017. 1ms
Started at Sun Sep 17 04:51:19 IST 2017
Finished at Sun Sep 17 04:51:19 IST 2017. 1ms
Started at Sun Sep 17 04:56:19 IST 2017
Finished at Sun Sep 17 04:56:19 IST 2017. 1ms
Started at Sun Sep 17 05:01:19 IST 2017
Finished at Sun Sep 17 05:01:19 IST 2017. 1ms
Started at Sun Sep 17 05:06:19 IST 2017
Finished at Sun Sep 17 05:06:19 IST 2017. 1ms
Started at Sun Sep 17 05:11:19 IST 2017
Finished at Sun Sep 17 05:11:19 IST 2017. 0ms
Started at Sun Sep 17 05:16:19 IST 2017
Finished at Sun Sep 17 05:16:19 IST 2017. 1ms
Started at Sun Sep 17 05:21:19 IST 2017
Finished at Sun Sep 17 05:21:19 IST 2017. 0ms
Started at Sun Sep 17 05:26:19 IST 2017
Finished at Sun Sep 17 05:26:19 IST 2017. 1ms
Started at Sun Sep 17 05:31:19 IST 2017
Finished at Sun Sep 17 05:31:19 IST 2017. 1ms
Started at Sun Sep 17 05:36:19 IST 2017
Finished at Sun Sep 17 05:36:19 IST 2017. 1ms
Started at Sun Sep 17 05:41:19 IST 2017
Finished at Sun Sep 17 05:41:19 IST 2017. 0ms
Started at Sun Sep 17 05:46:19 IST 2017
Finished at Sun Sep 17 05:46:19 IST 2017. 1ms
Started at Sun Sep 17 05:51:19 IST 2017
Finished at Sun Sep 17 05:51:19 IST 2017. 1ms
Started at Sun Sep 17 05:56:19 IST 2017
Finished at Sun Sep 17 05:56:19 IST 2017. 0ms
Started at Sun Sep 17 06:01:19 IST 2017
Finished at Sun Sep 17 06:01:19 IST 2017. 1ms
Started at Sun Sep 17 06:06:19 IST 2017
Finished at Sun Sep 17 06:06:19 IST 2017. 0ms
Started at Sun Sep 17 06:11:19 IST 2017
Finished at Sun Sep 17 06:11:19 IST 2017. 0ms
Started at Sun Sep 17 06:16:19 IST 2017
Finished at Sun Sep 17 06:16:19 IST 2017. 0ms
Started at Sun Sep 17 06:21:19 IST 2017
Finished at Sun Sep 17 06:21:19 IST 2017. 8ms
Started at Sun Sep 17 06:26:19 IST 2017
Finished at Sun Sep 17 06:26:19 IST 2017. 1ms
Started at Sun Sep 17 06:31:19 IST 2017
Finished at Sun Sep 17 06:31:19 IST 2017. 1ms
Started at Sun Sep 17 06:36:19 IST 2017
Finished at Sun Sep 17 06:36:19 IST 2017. 0ms
Started at Sun Sep 17 06:41:19 IST 2017
Finished at Sun Sep 17 06:41:19 IST 2017. 0ms
Started at Sun Sep 17 06:46:19 IST 2017
Finished at Sun Sep 17 06:46:19 IST 2017. 0ms
Started at Sun Sep 17 06:51:19 IST 2017
Finished at Sun Sep 17 06:51:19 IST 2017. 0ms
Started at Sun Sep 17 06:56:19 IST 2017
Finished at Sun Sep 17 06:56:19 IST 2017. 0ms
Started at Sun Sep 17 07:01:19 IST 2017
Finished at Sun Sep 17 07:01:19 IST 2017. 1ms
Started at Sun Sep 17 07:06:19 IST 2017
Finished at Sun Sep 17 07:06:19 IST 2017. 1ms
Started at Sun Sep 17 07:11:19 IST 2017
Finished at Sun Sep 17 07:11:19 IST 2017. 0ms
Started at Sun Sep 17 07:16:19 IST 2017
Finished at Sun Sep 17 07:16:19 IST 2017. 1ms
Started at Sun Sep 17 07:21:19 IST 2017
Finished at Sun Sep 17 07:21:19 IST 2017. 1ms
Started at Sun Sep 17 07:26:19 IST 2017
Finished at Sun Sep 17 07:26:19 IST 2017. 1ms
Started at Sun Sep 17 07:31:19 IST 2017
Finished at Sun Sep 17 07:31:19 IST 2017. 1ms
Started at Sun Sep 17 07:36:19 IST 2017
Finished at Sun Sep 17 07:36:19 IST 2017. 1ms
Started at Sun Sep 17 07:41:19 IST 2017
Finished at Sun Sep 17 07:41:19 IST 2017. 0ms
Started at Sun Sep 17 07:46:19 IST 2017
Finished at Sun Sep 17 07:46:19 IST 2017. 1ms
Started at Sun Sep 17 07:51:19 IST 2017
Finished at Sun Sep 17 07:51:19 IST 2017. 0ms
Started at Sun Sep 17 07:56:19 IST 2017
Finished at Sun Sep 17 07:56:19 IST 2017. 1ms
Started at Sun Sep 17 08:01:19 IST 2017
Finished at Sun Sep 17 08:01:19 IST 2017. 1ms
Started at Sun Sep 17 08:06:19 IST 2017
Finished at Sun Sep 17 08:06:19 IST 2017. 0ms
Started at Sun Sep 17 08:11:19 IST 2017
Finished at Sun Sep 17 08:11:19 IST 2017. 0ms
Started at Sun Sep 17 08:16:19 IST 2017
Finished at Sun Sep 17 08:16:19 IST 2017. 1ms
Started at Sun Sep 17 08:21:19 IST 2017
Finished at Sun Sep 17 08:21:19 IST 2017. 1ms
Started at Sun Sep 17 08:26:19 IST 2017
Finished at Sun Sep 17 08:26:19 IST 2017. 0ms
Started at Sun Sep 17 08:31:19 IST 2017
Finished at Sun Sep 17 08:31:19 IST 2017. 1ms
Started at Sun Sep 17 08:36:19 IST 2017
Finished at Sun Sep 17 08:36:19 IST 2017. 1ms
Started at Sun Sep 17 08:41:19 IST 2017
Finished at Sun Sep 17 08:41:19 IST 2017. 1ms
Started at Sun Sep 17 08:46:19 IST 2017
Finished at Sun Sep 17 08:46:19 IST 2017. 0ms
Started at Sun Sep 17 08:51:19 IST 2017
Finished at Sun Sep 17 08:51:19 IST 2017. 1ms
Started at Sun Sep 17 08:56:19 IST 2017
Finished at Sun Sep 17 08:56:19 IST 2017. 1ms
Started at Sun Sep 17 09:01:19 IST 2017
Finished at Sun Sep 17 09:01:19 IST 2017. 1ms
Started at Sun Sep 17 09:06:19 IST 2017
Finished at Sun Sep 17 09:06:19 IST 2017. 1ms
Started at Sun Sep 17 09:11:19 IST 2017
Finished at Sun Sep 17 09:11:19 IST 2017. 1ms
Started at Sun Sep 17 09:16:19 IST 2017
Finished at Sun Sep 17 09:16:19 IST 2017. 1ms
