Started at Fri Sep 15 09:11:19 IST 2017
Finished at Fri Sep 15 09:11:19 IST 2017. 1ms
Started at Fri Sep 15 09:16:19 IST 2017
Finished at Fri Sep 15 09:16:19 IST 2017. 1ms
Started at Fri Sep 15 09:21:19 IST 2017
Finished at Fri Sep 15 09:21:19 IST 2017. 0ms
Started at Fri Sep 15 09:26:19 IST 2017
Finished at Fri Sep 15 09:26:19 IST 2017. 1ms
Started at Fri Sep 15 09:31:19 IST 2017
Finished at Fri Sep 15 09:31:19 IST 2017. 1ms
Started at Fri Sep 15 09:36:19 IST 2017
Finished at Fri Sep 15 09:36:19 IST 2017. 1ms
Started at Fri Sep 15 09:41:19 IST 2017
Finished at Fri Sep 15 09:41:19 IST 2017. 1ms
Started at Fri Sep 15 09:46:19 IST 2017
Finished at Fri Sep 15 09:46:19 IST 2017. 1ms
Started at Fri Sep 15 09:51:19 IST 2017
Finished at Fri Sep 15 09:51:19 IST 2017. 1ms
Started at Fri Sep 15 09:56:19 IST 2017
Finished at Fri Sep 15 09:56:19 IST 2017. 1ms
Started at Fri Sep 15 10:01:19 IST 2017
Finished at Fri Sep 15 10:01:19 IST 2017. 0ms
Started at Fri Sep 15 10:06:19 IST 2017
Finished at Fri Sep 15 10:06:19 IST 2017. 1ms
Started at Fri Sep 15 10:11:19 IST 2017
Finished at Fri Sep 15 10:11:19 IST 2017. 0ms
Started at Fri Sep 15 10:16:19 IST 2017
Finished at Fri Sep 15 10:16:19 IST 2017. 1ms
Started at Fri Sep 15 10:21:19 IST 2017
Finished at Fri Sep 15 10:21:19 IST 2017. 1ms
Started at Fri Sep 15 10:26:19 IST 2017
Finished at Fri Sep 15 10:26:19 IST 2017. 1ms
Started at Fri Sep 15 10:31:19 IST 2017
Finished at Fri Sep 15 10:31:19 IST 2017. 0ms
Started at Fri Sep 15 10:36:19 IST 2017
Finished at Fri Sep 15 10:36:19 IST 2017. 1ms
Started at Fri Sep 15 10:41:19 IST 2017
Finished at Fri Sep 15 10:41:19 IST 2017. 1ms
Started at Fri Sep 15 10:46:19 IST 2017
Finished at Fri Sep 15 10:46:19 IST 2017. 1ms
Started at Fri Sep 15 10:51:19 IST 2017
Finished at Fri Sep 15 10:51:19 IST 2017. 1ms
Started at Fri Sep 15 10:56:19 IST 2017
Finished at Fri Sep 15 10:56:19 IST 2017. 1ms
Started at Fri Sep 15 11:01:19 IST 2017
Finished at Fri Sep 15 11:01:19 IST 2017. 0ms
Started at Fri Sep 15 11:06:19 IST 2017
Finished at Fri Sep 15 11:06:19 IST 2017. 0ms
Started at Fri Sep 15 11:11:19 IST 2017
Finished at Fri Sep 15 11:11:19 IST 2017. 1ms
Started at Fri Sep 15 11:16:19 IST 2017
Finished at Fri Sep 15 11:16:19 IST 2017. 1ms
Started at Fri Sep 15 11:21:19 IST 2017
Finished at Fri Sep 15 11:21:19 IST 2017. 0ms
Started at Fri Sep 15 11:26:19 IST 2017
Finished at Fri Sep 15 11:26:19 IST 2017. 0ms
Started at Fri Sep 15 11:31:19 IST 2017
Finished at Fri Sep 15 11:31:19 IST 2017. 1ms
Started at Fri Sep 15 11:36:19 IST 2017
Finished at Fri Sep 15 11:36:19 IST 2017. 1ms
Started at Fri Sep 15 11:41:19 IST 2017
Finished at Fri Sep 15 11:41:19 IST 2017. 1ms
Started at Fri Sep 15 11:46:19 IST 2017
Finished at Fri Sep 15 11:46:19 IST 2017. 1ms
Started at Fri Sep 15 11:51:19 IST 2017
Finished at Fri Sep 15 11:51:19 IST 2017. 1ms
Started at Fri Sep 15 11:56:19 IST 2017
Finished at Fri Sep 15 11:56:19 IST 2017. 1ms
Started at Fri Sep 15 12:01:19 IST 2017
Finished at Fri Sep 15 12:01:19 IST 2017. 0ms
Started at Fri Sep 15 12:06:19 IST 2017
Finished at Fri Sep 15 12:06:19 IST 2017. 1ms
Started at Fri Sep 15 12:11:19 IST 2017
Finished at Fri Sep 15 12:11:19 IST 2017. 1ms
Started at Fri Sep 15 12:16:19 IST 2017
Finished at Fri Sep 15 12:16:19 IST 2017. 0ms
Started at Fri Sep 15 12:21:19 IST 2017
Finished at Fri Sep 15 12:21:19 IST 2017. 1ms
Started at Fri Sep 15 12:26:19 IST 2017
Finished at Fri Sep 15 12:26:19 IST 2017. 1ms
Started at Fri Sep 15 12:31:19 IST 2017
Finished at Fri Sep 15 12:31:19 IST 2017. 1ms
Started at Fri Sep 15 12:36:19 IST 2017
Finished at Fri Sep 15 12:36:19 IST 2017. 1ms
Started at Fri Sep 15 12:41:19 IST 2017
Finished at Fri Sep 15 12:41:19 IST 2017. 1ms
Started at Fri Sep 15 12:46:19 IST 2017
Finished at Fri Sep 15 12:46:19 IST 2017. 1ms
Started at Fri Sep 15 12:51:19 IST 2017
Finished at Fri Sep 15 12:51:19 IST 2017. 1ms
Started at Fri Sep 15 12:56:19 IST 2017
Finished at Fri Sep 15 12:56:19 IST 2017. 1ms
Started at Fri Sep 15 13:01:19 IST 2017
Finished at Fri Sep 15 13:01:19 IST 2017. 1ms
Started at Fri Sep 15 13:06:19 IST 2017
Finished at Fri Sep 15 13:06:19 IST 2017. 0ms
Started at Fri Sep 15 13:11:19 IST 2017
Finished at Fri Sep 15 13:11:19 IST 2017. 1ms
Started at Fri Sep 15 13:16:19 IST 2017
Finished at Fri Sep 15 13:16:19 IST 2017. 1ms
Started at Fri Sep 15 13:21:19 IST 2017
Finished at Fri Sep 15 13:21:19 IST 2017. 1ms
Started at Fri Sep 15 13:26:19 IST 2017
Finished at Fri Sep 15 13:26:19 IST 2017. 1ms
Started at Fri Sep 15 13:31:19 IST 2017
Finished at Fri Sep 15 13:31:19 IST 2017. 1ms
Started at Fri Sep 15 13:36:19 IST 2017
Finished at Fri Sep 15 13:36:19 IST 2017. 1ms
Started at Fri Sep 15 13:41:19 IST 2017
Finished at Fri Sep 15 13:41:19 IST 2017. 1ms
Started at Fri Sep 15 13:46:19 IST 2017
Finished at Fri Sep 15 13:46:19 IST 2017. 1ms
Started at Fri Sep 15 13:51:19 IST 2017
Finished at Fri Sep 15 13:51:19 IST 2017. 1ms
Started at Fri Sep 15 13:56:19 IST 2017
Finished at Fri Sep 15 13:56:19 IST 2017. 1ms
Started at Fri Sep 15 14:01:19 IST 2017
Finished at Fri Sep 15 14:01:19 IST 2017. 1ms
Started at Fri Sep 15 14:06:19 IST 2017
Finished at Fri Sep 15 14:06:19 IST 2017. 1ms
Started at Fri Sep 15 14:11:19 IST 2017
Finished at Fri Sep 15 14:11:19 IST 2017. 1ms
Started at Fri Sep 15 14:16:19 IST 2017
Finished at Fri Sep 15 14:16:19 IST 2017. 0ms
Started at Fri Sep 15 14:21:19 IST 2017
Finished at Fri Sep 15 14:21:19 IST 2017. 1ms
Started at Fri Sep 15 14:26:19 IST 2017
Finished at Fri Sep 15 14:26:19 IST 2017. 1ms
Started at Fri Sep 15 14:31:19 IST 2017
Finished at Fri Sep 15 14:31:19 IST 2017. 1ms
Started at Fri Sep 15 14:36:19 IST 2017
Finished at Fri Sep 15 14:36:19 IST 2017. 1ms
Started at Fri Sep 15 14:41:19 IST 2017
Finished at Fri Sep 15 14:41:19 IST 2017. 1ms
Started at Fri Sep 15 14:46:19 IST 2017
Finished at Fri Sep 15 14:46:19 IST 2017. 1ms
Started at Fri Sep 15 14:51:19 IST 2017
Finished at Fri Sep 15 14:51:19 IST 2017. 1ms
Started at Fri Sep 15 14:56:19 IST 2017
Finished at Fri Sep 15 14:56:19 IST 2017. 1ms
Started at Fri Sep 15 15:01:19 IST 2017
Finished at Fri Sep 15 15:01:19 IST 2017. 0ms
Started at Fri Sep 15 15:06:19 IST 2017
Finished at Fri Sep 15 15:06:19 IST 2017. 1ms
Started at Fri Sep 15 15:11:19 IST 2017
Finished at Fri Sep 15 15:11:19 IST 2017. 1ms
Started at Fri Sep 15 15:16:19 IST 2017
Finished at Fri Sep 15 15:16:19 IST 2017. 1ms
Started at Fri Sep 15 15:21:19 IST 2017
Finished at Fri Sep 15 15:21:19 IST 2017. 0ms
Started at Fri Sep 15 15:26:19 IST 2017
Finished at Fri Sep 15 15:26:19 IST 2017. 1ms
Started at Fri Sep 15 15:31:19 IST 2017
Finished at Fri Sep 15 15:31:19 IST 2017. 0ms
Started at Fri Sep 15 15:36:19 IST 2017
Finished at Fri Sep 15 15:36:19 IST 2017. 1ms
Started at Fri Sep 15 15:41:19 IST 2017
Finished at Fri Sep 15 15:41:19 IST 2017. 1ms
Started at Fri Sep 15 15:46:19 IST 2017
Finished at Fri Sep 15 15:46:19 IST 2017. 0ms
Started at Fri Sep 15 15:51:19 IST 2017
Finished at Fri Sep 15 15:51:19 IST 2017. 1ms
Started at Fri Sep 15 15:56:19 IST 2017
Finished at Fri Sep 15 15:56:19 IST 2017. 1ms
Started at Fri Sep 15 16:01:19 IST 2017
Finished at Fri Sep 15 16:01:19 IST 2017. 0ms
Started at Fri Sep 15 16:06:19 IST 2017
Finished at Fri Sep 15 16:06:19 IST 2017. 1ms
Started at Fri Sep 15 16:11:19 IST 2017
Finished at Fri Sep 15 16:11:19 IST 2017. 1ms
Started at Fri Sep 15 16:16:19 IST 2017
Finished at Fri Sep 15 16:16:19 IST 2017. 0ms
Started at Fri Sep 15 16:21:19 IST 2017
Finished at Fri Sep 15 16:21:19 IST 2017. 1ms
Started at Fri Sep 15 16:26:19 IST 2017
Finished at Fri Sep 15 16:26:19 IST 2017. 1ms
Started at Fri Sep 15 16:31:19 IST 2017
Finished at Fri Sep 15 16:31:19 IST 2017. 1ms
Started at Fri Sep 15 16:36:19 IST 2017
Finished at Fri Sep 15 16:36:19 IST 2017. 1ms
Started at Fri Sep 15 16:41:19 IST 2017
Finished at Fri Sep 15 16:41:19 IST 2017. 1ms
Started at Fri Sep 15 16:46:19 IST 2017
Finished at Fri Sep 15 16:46:19 IST 2017. 1ms
Started at Fri Sep 15 16:51:19 IST 2017
Finished at Fri Sep 15 16:51:19 IST 2017. 0ms
Started at Fri Sep 15 16:56:19 IST 2017
Finished at Fri Sep 15 16:56:19 IST 2017. 1ms
Started at Fri Sep 15 17:01:19 IST 2017
Finished at Fri Sep 15 17:01:19 IST 2017. 0ms
Started at Fri Sep 15 17:06:19 IST 2017
Finished at Fri Sep 15 17:06:19 IST 2017. 1ms
Started at Fri Sep 15 17:11:19 IST 2017
Finished at Fri Sep 15 17:11:19 IST 2017. 1ms
Started at Fri Sep 15 17:16:19 IST 2017
Finished at Fri Sep 15 17:16:19 IST 2017. 1ms
Started at Fri Sep 15 17:21:19 IST 2017
Finished at Fri Sep 15 17:21:19 IST 2017. 1ms
Started at Fri Sep 15 17:26:19 IST 2017
Finished at Fri Sep 15 17:26:19 IST 2017. 1ms
Started at Fri Sep 15 17:31:19 IST 2017
Finished at Fri Sep 15 17:31:19 IST 2017. 1ms
Started at Fri Sep 15 17:36:19 IST 2017
Finished at Fri Sep 15 17:36:19 IST 2017. 1ms
Started at Fri Sep 15 17:41:19 IST 2017
Finished at Fri Sep 15 17:41:19 IST 2017. 1ms
Started at Fri Sep 15 17:46:19 IST 2017
Finished at Fri Sep 15 17:46:19 IST 2017. 0ms
Started at Fri Sep 15 17:51:19 IST 2017
Finished at Fri Sep 15 17:51:19 IST 2017. 1ms
Started at Fri Sep 15 17:56:19 IST 2017
Finished at Fri Sep 15 17:56:19 IST 2017. 0ms
Started at Fri Sep 15 18:01:19 IST 2017
Finished at Fri Sep 15 18:01:19 IST 2017. 0ms
Started at Fri Sep 15 18:06:19 IST 2017
Finished at Fri Sep 15 18:06:19 IST 2017. 0ms
Started at Fri Sep 15 18:11:19 IST 2017
Finished at Fri Sep 15 18:11:19 IST 2017. 1ms
Started at Fri Sep 15 18:16:19 IST 2017
Finished at Fri Sep 15 18:16:19 IST 2017. 1ms
Started at Fri Sep 15 18:21:19 IST 2017
Finished at Fri Sep 15 18:21:19 IST 2017. 0ms
Started at Fri Sep 15 18:26:19 IST 2017
Finished at Fri Sep 15 18:26:19 IST 2017. 1ms
Started at Fri Sep 15 18:31:19 IST 2017
Finished at Fri Sep 15 18:31:19 IST 2017. 1ms
Started at Fri Sep 15 18:36:19 IST 2017
Finished at Fri Sep 15 18:36:19 IST 2017. 1ms
Started at Fri Sep 15 18:41:19 IST 2017
Finished at Fri Sep 15 18:41:19 IST 2017. 1ms
Started at Fri Sep 15 18:46:19 IST 2017
Finished at Fri Sep 15 18:46:19 IST 2017. 1ms
Started at Fri Sep 15 18:51:19 IST 2017
Finished at Fri Sep 15 18:51:19 IST 2017. 1ms
Started at Fri Sep 15 18:56:19 IST 2017
Finished at Fri Sep 15 18:56:19 IST 2017. 1ms
Started at Fri Sep 15 19:01:19 IST 2017
Finished at Fri Sep 15 19:01:19 IST 2017. 1ms
Started at Fri Sep 15 19:06:19 IST 2017
Finished at Fri Sep 15 19:06:19 IST 2017. 0ms
Started at Fri Sep 15 19:11:19 IST 2017
Finished at Fri Sep 15 19:11:19 IST 2017. 1ms
Started at Fri Sep 15 19:16:19 IST 2017
Finished at Fri Sep 15 19:16:19 IST 2017. 1ms
Started at Fri Sep 15 19:21:19 IST 2017
Finished at Fri Sep 15 19:21:19 IST 2017. 0ms
Started at Fri Sep 15 19:26:19 IST 2017
Finished at Fri Sep 15 19:26:19 IST 2017. 1ms
Started at Fri Sep 15 19:31:19 IST 2017
Finished at Fri Sep 15 19:31:19 IST 2017. 1ms
Started at Fri Sep 15 19:36:19 IST 2017
Finished at Fri Sep 15 19:36:19 IST 2017. 1ms
Started at Fri Sep 15 19:41:19 IST 2017
Finished at Fri Sep 15 19:41:19 IST 2017. 1ms
Started at Fri Sep 15 19:46:19 IST 2017
Finished at Fri Sep 15 19:46:19 IST 2017. 1ms
Started at Fri Sep 15 19:51:19 IST 2017
Finished at Fri Sep 15 19:51:19 IST 2017. 0ms
Started at Fri Sep 15 19:56:19 IST 2017
Finished at Fri Sep 15 19:56:19 IST 2017. 0ms
Started at Fri Sep 15 20:01:19 IST 2017
Finished at Fri Sep 15 20:01:19 IST 2017. 1ms
Started at Fri Sep 15 20:06:19 IST 2017
Finished at Fri Sep 15 20:06:19 IST 2017. 1ms
Started at Fri Sep 15 20:11:19 IST 2017
Finished at Fri Sep 15 20:11:19 IST 2017. 0ms
Started at Fri Sep 15 20:16:19 IST 2017
Finished at Fri Sep 15 20:16:19 IST 2017. 1ms
Started at Fri Sep 15 20:21:19 IST 2017
Finished at Fri Sep 15 20:21:19 IST 2017. 1ms
Started at Fri Sep 15 20:26:19 IST 2017
Finished at Fri Sep 15 20:26:19 IST 2017. 1ms
Started at Fri Sep 15 20:31:19 IST 2017
Finished at Fri Sep 15 20:31:19 IST 2017. 1ms
Started at Fri Sep 15 20:36:19 IST 2017
Finished at Fri Sep 15 20:36:19 IST 2017. 0ms
Started at Fri Sep 15 20:41:19 IST 2017
Finished at Fri Sep 15 20:41:19 IST 2017. 1ms
Started at Fri Sep 15 20:46:19 IST 2017
Finished at Fri Sep 15 20:46:19 IST 2017. 1ms
Started at Fri Sep 15 20:51:19 IST 2017
Finished at Fri Sep 15 20:51:19 IST 2017. 1ms
Started at Fri Sep 15 20:56:19 IST 2017
Finished at Fri Sep 15 20:56:19 IST 2017. 1ms
Started at Fri Sep 15 21:01:19 IST 2017
Finished at Fri Sep 15 21:01:19 IST 2017. 1ms
Started at Fri Sep 15 21:06:19 IST 2017
Finished at Fri Sep 15 21:06:19 IST 2017. 0ms
Started at Fri Sep 15 21:11:19 IST 2017
Finished at Fri Sep 15 21:11:19 IST 2017. 0ms
Started at Fri Sep 15 21:16:19 IST 2017
Finished at Fri Sep 15 21:16:19 IST 2017. 0ms
Started at Fri Sep 15 21:21:19 IST 2017
Finished at Fri Sep 15 21:21:19 IST 2017. 1ms
Started at Fri Sep 15 21:26:19 IST 2017
Finished at Fri Sep 15 21:26:19 IST 2017. 0ms
Started at Fri Sep 15 21:31:19 IST 2017
Finished at Fri Sep 15 21:31:19 IST 2017. 1ms
Started at Fri Sep 15 21:36:19 IST 2017
Finished at Fri Sep 15 21:36:19 IST 2017. 1ms
Started at Fri Sep 15 21:41:19 IST 2017
Finished at Fri Sep 15 21:41:19 IST 2017. 1ms
Started at Fri Sep 15 21:46:19 IST 2017
Finished at Fri Sep 15 21:46:19 IST 2017. 1ms
Started at Fri Sep 15 21:51:19 IST 2017
Finished at Fri Sep 15 21:51:19 IST 2017. 0ms
Started at Fri Sep 15 21:56:19 IST 2017
Finished at Fri Sep 15 21:56:19 IST 2017. 1ms
Started at Fri Sep 15 22:01:19 IST 2017
Finished at Fri Sep 15 22:01:19 IST 2017. 0ms
Started at Fri Sep 15 22:06:19 IST 2017
Finished at Fri Sep 15 22:06:19 IST 2017. 1ms
Started at Fri Sep 15 22:11:19 IST 2017
Finished at Fri Sep 15 22:11:19 IST 2017. 0ms
Started at Fri Sep 15 22:16:19 IST 2017
Finished at Fri Sep 15 22:16:19 IST 2017. 1ms
Started at Fri Sep 15 22:21:19 IST 2017
Finished at Fri Sep 15 22:21:19 IST 2017. 1ms
Started at Fri Sep 15 22:26:19 IST 2017
Finished at Fri Sep 15 22:26:19 IST 2017. 1ms
Started at Fri Sep 15 22:31:19 IST 2017
Finished at Fri Sep 15 22:31:19 IST 2017. 0ms
Started at Fri Sep 15 22:36:19 IST 2017
Finished at Fri Sep 15 22:36:19 IST 2017. 0ms
Started at Fri Sep 15 22:41:19 IST 2017
Finished at Fri Sep 15 22:41:19 IST 2017. 0ms
Started at Fri Sep 15 22:46:19 IST 2017
Finished at Fri Sep 15 22:46:19 IST 2017. 1ms
Started at Fri Sep 15 22:51:19 IST 2017
Finished at Fri Sep 15 22:51:19 IST 2017. 1ms
Started at Fri Sep 15 22:56:19 IST 2017
Finished at Fri Sep 15 22:56:19 IST 2017. 1ms
Started at Fri Sep 15 23:01:19 IST 2017
Finished at Fri Sep 15 23:01:19 IST 2017. 1ms
Started at Fri Sep 15 23:06:19 IST 2017
Finished at Fri Sep 15 23:06:19 IST 2017. 1ms
Started at Fri Sep 15 23:11:19 IST 2017
Finished at Fri Sep 15 23:11:19 IST 2017. 1ms
Started at Fri Sep 15 23:16:19 IST 2017
Finished at Fri Sep 15 23:16:19 IST 2017. 0ms
Started at Fri Sep 15 23:21:19 IST 2017
Finished at Fri Sep 15 23:21:19 IST 2017. 1ms
Started at Fri Sep 15 23:26:19 IST 2017
Finished at Fri Sep 15 23:26:19 IST 2017. 0ms
Started at Fri Sep 15 23:31:19 IST 2017
Finished at Fri Sep 15 23:31:19 IST 2017. 1ms
Started at Fri Sep 15 23:36:19 IST 2017
Finished at Fri Sep 15 23:36:19 IST 2017. 0ms
Started at Fri Sep 15 23:41:19 IST 2017
Finished at Fri Sep 15 23:41:19 IST 2017. 1ms
Started at Fri Sep 15 23:46:19 IST 2017
Finished at Fri Sep 15 23:46:19 IST 2017. 0ms
Started at Fri Sep 15 23:51:19 IST 2017
Finished at Fri Sep 15 23:51:19 IST 2017. 1ms
Started at Fri Sep 15 23:56:19 IST 2017
Finished at Fri Sep 15 23:56:19 IST 2017. 1ms
Started at Sat Sep 16 00:01:19 IST 2017
Finished at Sat Sep 16 00:01:19 IST 2017. 0ms
Started at Sat Sep 16 00:06:19 IST 2017
Finished at Sat Sep 16 00:06:19 IST 2017. 0ms
Started at Sat Sep 16 00:11:19 IST 2017
Finished at Sat Sep 16 00:11:19 IST 2017. 1ms
Started at Sat Sep 16 00:16:19 IST 2017
Finished at Sat Sep 16 00:16:19 IST 2017. 0ms
Started at Sat Sep 16 00:21:19 IST 2017
Finished at Sat Sep 16 00:21:19 IST 2017. 0ms
Started at Sat Sep 16 00:26:19 IST 2017
Finished at Sat Sep 16 00:26:19 IST 2017. 0ms
Started at Sat Sep 16 00:31:19 IST 2017
Finished at Sat Sep 16 00:31:19 IST 2017. 0ms
Started at Sat Sep 16 00:36:19 IST 2017
Finished at Sat Sep 16 00:36:19 IST 2017. 1ms
Started at Sat Sep 16 00:41:19 IST 2017
Finished at Sat Sep 16 00:41:19 IST 2017. 0ms
Started at Sat Sep 16 00:46:19 IST 2017
Finished at Sat Sep 16 00:46:19 IST 2017. 1ms
Started at Sat Sep 16 00:51:19 IST 2017
Finished at Sat Sep 16 00:51:19 IST 2017. 1ms
Started at Sat Sep 16 00:56:19 IST 2017
Finished at Sat Sep 16 00:56:19 IST 2017. 1ms
Started at Sat Sep 16 01:01:19 IST 2017
Finished at Sat Sep 16 01:01:19 IST 2017. 0ms
Started at Sat Sep 16 01:06:19 IST 2017
Finished at Sat Sep 16 01:06:19 IST 2017. 1ms
Started at Sat Sep 16 01:11:19 IST 2017
Finished at Sat Sep 16 01:11:19 IST 2017. 1ms
Started at Sat Sep 16 01:16:19 IST 2017
Finished at Sat Sep 16 01:16:19 IST 2017. 0ms
Started at Sat Sep 16 01:21:19 IST 2017
Finished at Sat Sep 16 01:21:19 IST 2017. 1ms
Started at Sat Sep 16 01:26:19 IST 2017
Finished at Sat Sep 16 01:26:19 IST 2017. 0ms
Started at Sat Sep 16 01:31:19 IST 2017
Finished at Sat Sep 16 01:31:19 IST 2017. 0ms
Started at Sat Sep 16 01:36:19 IST 2017
Finished at Sat Sep 16 01:36:19 IST 2017. 1ms
Started at Sat Sep 16 01:41:19 IST 2017
Finished at Sat Sep 16 01:41:19 IST 2017. 1ms
Started at Sat Sep 16 01:46:19 IST 2017
Finished at Sat Sep 16 01:46:19 IST 2017. 0ms
Started at Sat Sep 16 01:51:19 IST 2017
Finished at Sat Sep 16 01:51:19 IST 2017. 1ms
Started at Sat Sep 16 01:56:19 IST 2017
Finished at Sat Sep 16 01:56:19 IST 2017. 1ms
Started at Sat Sep 16 02:01:19 IST 2017
Finished at Sat Sep 16 02:01:19 IST 2017. 1ms
Started at Sat Sep 16 02:06:19 IST 2017
Finished at Sat Sep 16 02:06:19 IST 2017. 0ms
Started at Sat Sep 16 02:11:19 IST 2017
Finished at Sat Sep 16 02:11:19 IST 2017. 0ms
Started at Sat Sep 16 02:16:19 IST 2017
Finished at Sat Sep 16 02:16:19 IST 2017. 1ms
Started at Sat Sep 16 02:21:19 IST 2017
Finished at Sat Sep 16 02:21:19 IST 2017. 1ms
Started at Sat Sep 16 02:26:19 IST 2017
Finished at Sat Sep 16 02:26:19 IST 2017. 0ms
Started at Sat Sep 16 02:31:19 IST 2017
Finished at Sat Sep 16 02:31:19 IST 2017. 1ms
Started at Sat Sep 16 02:36:19 IST 2017
Finished at Sat Sep 16 02:36:19 IST 2017. 0ms
Started at Sat Sep 16 02:41:19 IST 2017
Finished at Sat Sep 16 02:41:19 IST 2017. 1ms
Started at Sat Sep 16 02:46:19 IST 2017
Finished at Sat Sep 16 02:46:19 IST 2017. 1ms
Started at Sat Sep 16 02:51:19 IST 2017
Finished at Sat Sep 16 02:51:19 IST 2017. 1ms
Started at Sat Sep 16 02:56:19 IST 2017
Finished at Sat Sep 16 02:56:19 IST 2017. 1ms
Started at Sat Sep 16 03:01:19 IST 2017
Finished at Sat Sep 16 03:01:19 IST 2017. 0ms
Started at Sat Sep 16 03:06:19 IST 2017
Finished at Sat Sep 16 03:06:19 IST 2017. 0ms
Started at Sat Sep 16 03:11:19 IST 2017
Finished at Sat Sep 16 03:11:19 IST 2017. 1ms
Started at Sat Sep 16 03:16:19 IST 2017
Finished at Sat Sep 16 03:16:19 IST 2017. 0ms
Started at Sat Sep 16 03:21:19 IST 2017
Finished at Sat Sep 16 03:21:19 IST 2017. 1ms
Started at Sat Sep 16 03:26:19 IST 2017
Finished at Sat Sep 16 03:26:19 IST 2017. 0ms
Started at Sat Sep 16 03:31:19 IST 2017
Finished at Sat Sep 16 03:31:19 IST 2017. 1ms
Started at Sat Sep 16 03:36:19 IST 2017
Finished at Sat Sep 16 03:36:19 IST 2017. 1ms
Started at Sat Sep 16 03:41:19 IST 2017
Finished at Sat Sep 16 03:41:19 IST 2017. 0ms
Started at Sat Sep 16 03:46:19 IST 2017
Finished at Sat Sep 16 03:46:19 IST 2017. 0ms
Started at Sat Sep 16 03:51:19 IST 2017
Finished at Sat Sep 16 03:51:19 IST 2017. 1ms
Started at Sat Sep 16 03:56:19 IST 2017
Finished at Sat Sep 16 03:56:19 IST 2017. 1ms
Started at Sat Sep 16 04:01:19 IST 2017
Finished at Sat Sep 16 04:01:19 IST 2017. 0ms
Started at Sat Sep 16 04:06:19 IST 2017
Finished at Sat Sep 16 04:06:19 IST 2017. 1ms
Started at Sat Sep 16 04:11:19 IST 2017
Finished at Sat Sep 16 04:11:19 IST 2017. 1ms
Started at Sat Sep 16 04:16:19 IST 2017
Finished at Sat Sep 16 04:16:19 IST 2017. 0ms
Started at Sat Sep 16 04:21:19 IST 2017
Finished at Sat Sep 16 04:21:19 IST 2017. 1ms
Started at Sat Sep 16 04:26:19 IST 2017
Finished at Sat Sep 16 04:26:19 IST 2017. 1ms
Started at Sat Sep 16 04:31:19 IST 2017
Finished at Sat Sep 16 04:31:19 IST 2017. 1ms
Started at Sat Sep 16 04:36:19 IST 2017
Finished at Sat Sep 16 04:36:19 IST 2017. 0ms
Started at Sat Sep 16 04:41:19 IST 2017
Finished at Sat Sep 16 04:41:19 IST 2017. 1ms
Started at Sat Sep 16 04:46:19 IST 2017
Finished at Sat Sep 16 04:46:19 IST 2017. 1ms
Started at Sat Sep 16 04:51:19 IST 2017
Finished at Sat Sep 16 04:51:19 IST 2017. 0ms
Started at Sat Sep 16 04:56:19 IST 2017
Finished at Sat Sep 16 04:56:19 IST 2017. 1ms
Started at Sat Sep 16 05:01:19 IST 2017
Finished at Sat Sep 16 05:01:19 IST 2017. 1ms
Started at Sat Sep 16 05:06:19 IST 2017
Finished at Sat Sep 16 05:06:19 IST 2017. 0ms
Started at Sat Sep 16 05:11:19 IST 2017
Finished at Sat Sep 16 05:11:19 IST 2017. 0ms
Started at Sat Sep 16 05:16:19 IST 2017
Finished at Sat Sep 16 05:16:19 IST 2017. 1ms
Started at Sat Sep 16 05:21:19 IST 2017
Finished at Sat Sep 16 05:21:19 IST 2017. 0ms
Started at Sat Sep 16 05:26:19 IST 2017
Finished at Sat Sep 16 05:26:19 IST 2017. 0ms
Started at Sat Sep 16 05:31:19 IST 2017
Finished at Sat Sep 16 05:31:19 IST 2017. 1ms
Started at Sat Sep 16 05:36:19 IST 2017
Finished at Sat Sep 16 05:36:19 IST 2017. 1ms
Started at Sat Sep 16 05:41:19 IST 2017
Finished at Sat Sep 16 05:41:19 IST 2017. 1ms
Started at Sat Sep 16 05:46:19 IST 2017
Finished at Sat Sep 16 05:46:19 IST 2017. 1ms
Started at Sat Sep 16 05:51:19 IST 2017
Finished at Sat Sep 16 05:51:19 IST 2017. 0ms
Started at Sat Sep 16 05:56:19 IST 2017
Finished at Sat Sep 16 05:56:19 IST 2017. 0ms
Started at Sat Sep 16 06:01:19 IST 2017
Finished at Sat Sep 16 06:01:19 IST 2017. 1ms
Started at Sat Sep 16 06:06:19 IST 2017
Finished at Sat Sep 16 06:06:19 IST 2017. 1ms
Started at Sat Sep 16 06:11:19 IST 2017
Finished at Sat Sep 16 06:11:19 IST 2017. 1ms
Started at Sat Sep 16 06:16:19 IST 2017
Finished at Sat Sep 16 06:16:19 IST 2017. 1ms
Started at Sat Sep 16 06:21:19 IST 2017
Finished at Sat Sep 16 06:21:19 IST 2017. 1ms
Started at Sat Sep 16 06:26:19 IST 2017
Finished at Sat Sep 16 06:26:19 IST 2017. 1ms
Started at Sat Sep 16 06:31:19 IST 2017
Finished at Sat Sep 16 06:31:19 IST 2017. 1ms
Started at Sat Sep 16 06:36:19 IST 2017
Finished at Sat Sep 16 06:36:19 IST 2017. 1ms
Started at Sat Sep 16 06:41:19 IST 2017
Finished at Sat Sep 16 06:41:19 IST 2017. 1ms
Started at Sat Sep 16 06:46:19 IST 2017
Finished at Sat Sep 16 06:46:19 IST 2017. 1ms
Started at Sat Sep 16 06:51:19 IST 2017
Finished at Sat Sep 16 06:51:19 IST 2017. 1ms
Started at Sat Sep 16 06:56:19 IST 2017
Finished at Sat Sep 16 06:56:19 IST 2017. 1ms
Started at Sat Sep 16 07:01:19 IST 2017
Finished at Sat Sep 16 07:01:19 IST 2017. 0ms
Started at Sat Sep 16 07:06:19 IST 2017
Finished at Sat Sep 16 07:06:19 IST 2017. 1ms
Started at Sat Sep 16 07:11:19 IST 2017
Finished at Sat Sep 16 07:11:19 IST 2017. 1ms
Started at Sat Sep 16 07:16:19 IST 2017
Finished at Sat Sep 16 07:16:19 IST 2017. 0ms
Started at Sat Sep 16 07:21:19 IST 2017
Finished at Sat Sep 16 07:21:19 IST 2017. 1ms
Started at Sat Sep 16 07:26:19 IST 2017
Finished at Sat Sep 16 07:26:19 IST 2017. 1ms
Started at Sat Sep 16 07:31:19 IST 2017
Finished at Sat Sep 16 07:31:19 IST 2017. 0ms
Started at Sat Sep 16 07:36:19 IST 2017
Finished at Sat Sep 16 07:36:19 IST 2017. 0ms
Started at Sat Sep 16 07:41:19 IST 2017
Finished at Sat Sep 16 07:41:19 IST 2017. 1ms
Started at Sat Sep 16 07:46:19 IST 2017
Finished at Sat Sep 16 07:46:19 IST 2017. 0ms
Started at Sat Sep 16 07:51:19 IST 2017
Finished at Sat Sep 16 07:51:19 IST 2017. 1ms
Started at Sat Sep 16 07:56:19 IST 2017
Finished at Sat Sep 16 07:56:19 IST 2017. 1ms
Started at Sat Sep 16 08:01:19 IST 2017
Finished at Sat Sep 16 08:01:19 IST 2017. 1ms
Started at Sat Sep 16 08:06:19 IST 2017
Finished at Sat Sep 16 08:06:19 IST 2017. 1ms
Started at Sat Sep 16 08:11:19 IST 2017
Finished at Sat Sep 16 08:11:19 IST 2017. 1ms
Started at Sat Sep 16 08:16:19 IST 2017
Finished at Sat Sep 16 08:16:19 IST 2017. 1ms
Started at Sat Sep 16 08:21:19 IST 2017
Finished at Sat Sep 16 08:21:19 IST 2017. 1ms
Started at Sat Sep 16 08:26:19 IST 2017
Finished at Sat Sep 16 08:26:19 IST 2017. 0ms
Started at Sat Sep 16 08:31:19 IST 2017
Finished at Sat Sep 16 08:31:19 IST 2017. 1ms
Started at Sat Sep 16 08:36:19 IST 2017
Finished at Sat Sep 16 08:36:19 IST 2017. 0ms
Started at Sat Sep 16 08:41:19 IST 2017
Finished at Sat Sep 16 08:41:19 IST 2017. 1ms
Started at Sat Sep 16 08:46:19 IST 2017
Finished at Sat Sep 16 08:46:19 IST 2017. 1ms
Started at Sat Sep 16 08:51:19 IST 2017
Finished at Sat Sep 16 08:51:19 IST 2017. 0ms
Started at Sat Sep 16 08:56:19 IST 2017
Finished at Sat Sep 16 08:56:19 IST 2017. 1ms
Started at Sat Sep 16 09:01:19 IST 2017
Finished at Sat Sep 16 09:01:19 IST 2017. 0ms
Started at Sat Sep 16 09:06:19 IST 2017
Finished at Sat Sep 16 09:06:19 IST 2017. 1ms
Started at Sat Sep 16 09:11:19 IST 2017
Finished at Sat Sep 16 09:11:19 IST 2017. 1ms
