Started at Wed Sep 13 09:06:19 IST 2017
Finished at Wed Sep 13 09:06:19 IST 2017. 1ms
Started at Wed Sep 13 09:11:19 IST 2017
Finished at Wed Sep 13 09:11:19 IST 2017. 1ms
Started at Wed Sep 13 09:16:19 IST 2017
Finished at Wed Sep 13 09:16:19 IST 2017. 1ms
Started at Wed Sep 13 09:21:19 IST 2017
Finished at Wed Sep 13 09:21:19 IST 2017. 1ms
Started at Wed Sep 13 09:26:19 IST 2017
Finished at Wed Sep 13 09:26:19 IST 2017. 1ms
Started at Wed Sep 13 09:31:19 IST 2017
Finished at Wed Sep 13 09:31:19 IST 2017. 1ms
Started at Wed Sep 13 09:36:19 IST 2017
Finished at Wed Sep 13 09:36:19 IST 2017. 1ms
Started at Wed Sep 13 09:41:19 IST 2017
Finished at Wed Sep 13 09:41:19 IST 2017. 0ms
Started at Wed Sep 13 09:46:19 IST 2017
Finished at Wed Sep 13 09:46:19 IST 2017. 1ms
Started at Wed Sep 13 09:51:19 IST 2017
Finished at Wed Sep 13 09:51:19 IST 2017. 1ms
Started at Wed Sep 13 09:56:19 IST 2017
Finished at Wed Sep 13 09:56:19 IST 2017. 1ms
Started at Wed Sep 13 10:01:19 IST 2017
Finished at Wed Sep 13 10:01:19 IST 2017. 1ms
Started at Wed Sep 13 10:06:19 IST 2017
Finished at Wed Sep 13 10:06:19 IST 2017. 1ms
Started at Wed Sep 13 10:11:19 IST 2017
Finished at Wed Sep 13 10:11:19 IST 2017. 1ms
Started at Wed Sep 13 10:16:19 IST 2017
Finished at Wed Sep 13 10:16:19 IST 2017. 0ms
Started at Wed Sep 13 10:21:19 IST 2017
Finished at Wed Sep 13 10:21:19 IST 2017. 1ms
Started at Wed Sep 13 10:26:19 IST 2017
Finished at Wed Sep 13 10:26:19 IST 2017. 1ms
Started at Wed Sep 13 10:31:19 IST 2017
Finished at Wed Sep 13 10:31:19 IST 2017. 1ms
Started at Wed Sep 13 10:36:19 IST 2017
Finished at Wed Sep 13 10:36:19 IST 2017. 1ms
Started at Wed Sep 13 10:41:19 IST 2017
Finished at Wed Sep 13 10:41:19 IST 2017. 1ms
Started at Wed Sep 13 10:46:19 IST 2017
Finished at Wed Sep 13 10:46:19 IST 2017. 1ms
Started at Wed Sep 13 10:51:19 IST 2017
Finished at Wed Sep 13 10:51:19 IST 2017. 1ms
Started at Wed Sep 13 10:56:19 IST 2017
Finished at Wed Sep 13 10:56:19 IST 2017. 1ms
Started at Wed Sep 13 11:01:19 IST 2017
Finished at Wed Sep 13 11:01:19 IST 2017. 1ms
Started at Wed Sep 13 11:06:19 IST 2017
Finished at Wed Sep 13 11:06:19 IST 2017. 1ms
Started at Wed Sep 13 11:11:19 IST 2017
Finished at Wed Sep 13 11:11:19 IST 2017. 1ms
Started at Wed Sep 13 11:16:19 IST 2017
Finished at Wed Sep 13 11:16:19 IST 2017. 1ms
Started at Wed Sep 13 11:21:19 IST 2017
Finished at Wed Sep 13 11:21:19 IST 2017. 1ms
Started at Wed Sep 13 11:26:19 IST 2017
Finished at Wed Sep 13 11:26:19 IST 2017. 1ms
Started at Wed Sep 13 11:31:19 IST 2017
Finished at Wed Sep 13 11:31:19 IST 2017. 1ms
Started at Wed Sep 13 11:36:19 IST 2017
Finished at Wed Sep 13 11:36:19 IST 2017. 1ms
Started at Wed Sep 13 11:41:19 IST 2017
Finished at Wed Sep 13 11:41:19 IST 2017. 1ms
Started at Wed Sep 13 11:46:19 IST 2017
Finished at Wed Sep 13 11:46:19 IST 2017. 1ms
Started at Wed Sep 13 11:51:19 IST 2017
Finished at Wed Sep 13 11:51:19 IST 2017. 0ms
Started at Wed Sep 13 11:56:19 IST 2017
Finished at Wed Sep 13 11:56:19 IST 2017. 1ms
Started at Wed Sep 13 12:01:19 IST 2017
Finished at Wed Sep 13 12:01:19 IST 2017. 1ms
Started at Wed Sep 13 12:06:19 IST 2017
Finished at Wed Sep 13 12:06:19 IST 2017. 1ms
Started at Wed Sep 13 12:11:19 IST 2017
Finished at Wed Sep 13 12:11:19 IST 2017. 1ms
Started at Wed Sep 13 12:16:19 IST 2017
Finished at Wed Sep 13 12:16:19 IST 2017. 1ms
Started at Wed Sep 13 12:21:19 IST 2017
Finished at Wed Sep 13 12:21:19 IST 2017. 1ms
Started at Wed Sep 13 12:26:19 IST 2017
Finished at Wed Sep 13 12:26:19 IST 2017. 1ms
Started at Wed Sep 13 12:31:19 IST 2017
Finished at Wed Sep 13 12:31:19 IST 2017. 0ms
Started at Wed Sep 13 12:36:19 IST 2017
Finished at Wed Sep 13 12:36:19 IST 2017. 1ms
Started at Wed Sep 13 12:41:19 IST 2017
Finished at Wed Sep 13 12:41:19 IST 2017. 1ms
Started at Wed Sep 13 12:46:19 IST 2017
Finished at Wed Sep 13 12:46:19 IST 2017. 1ms
Started at Wed Sep 13 12:51:19 IST 2017
Finished at Wed Sep 13 12:51:19 IST 2017. 1ms
Started at Wed Sep 13 12:56:19 IST 2017
Finished at Wed Sep 13 12:56:19 IST 2017. 1ms
Started at Wed Sep 13 13:01:19 IST 2017
Finished at Wed Sep 13 13:01:19 IST 2017. 1ms
Started at Wed Sep 13 13:06:19 IST 2017
Finished at Wed Sep 13 13:06:19 IST 2017. 1ms
Started at Wed Sep 13 13:11:19 IST 2017
Finished at Wed Sep 13 13:11:19 IST 2017. 0ms
Started at Wed Sep 13 13:16:19 IST 2017
Finished at Wed Sep 13 13:16:19 IST 2017. 1ms
Started at Wed Sep 13 13:21:19 IST 2017
Finished at Wed Sep 13 13:21:19 IST 2017. 1ms
Started at Wed Sep 13 13:26:19 IST 2017
Finished at Wed Sep 13 13:26:19 IST 2017. 1ms
Started at Wed Sep 13 13:31:19 IST 2017
Finished at Wed Sep 13 13:31:19 IST 2017. 1ms
Started at Wed Sep 13 13:36:19 IST 2017
Finished at Wed Sep 13 13:36:19 IST 2017. 1ms
Started at Wed Sep 13 13:41:19 IST 2017
Finished at Wed Sep 13 13:41:19 IST 2017. 1ms
Started at Wed Sep 13 13:46:19 IST 2017
Finished at Wed Sep 13 13:46:19 IST 2017. 1ms
Started at Wed Sep 13 13:51:19 IST 2017
Finished at Wed Sep 13 13:51:19 IST 2017. 1ms
Started at Wed Sep 13 13:56:19 IST 2017
Finished at Wed Sep 13 13:56:19 IST 2017. 1ms
Started at Wed Sep 13 14:01:19 IST 2017
Finished at Wed Sep 13 14:01:19 IST 2017. 1ms
Started at Wed Sep 13 14:06:19 IST 2017
Finished at Wed Sep 13 14:06:19 IST 2017. 1ms
Started at Wed Sep 13 14:11:19 IST 2017
Finished at Wed Sep 13 14:11:19 IST 2017. 1ms
Started at Wed Sep 13 14:16:19 IST 2017
Finished at Wed Sep 13 14:16:19 IST 2017. 1ms
Started at Wed Sep 13 14:21:19 IST 2017
Finished at Wed Sep 13 14:21:19 IST 2017. 0ms
Started at Wed Sep 13 14:26:19 IST 2017
Finished at Wed Sep 13 14:26:19 IST 2017. 1ms
Started at Wed Sep 13 14:31:19 IST 2017
Finished at Wed Sep 13 14:31:19 IST 2017. 1ms
Started at Wed Sep 13 14:36:19 IST 2017
Finished at Wed Sep 13 14:36:19 IST 2017. 1ms
Started at Wed Sep 13 14:41:19 IST 2017
Finished at Wed Sep 13 14:41:19 IST 2017. 1ms
Started at Wed Sep 13 14:46:19 IST 2017
Finished at Wed Sep 13 14:46:19 IST 2017. 1ms
Started at Wed Sep 13 14:51:19 IST 2017
Finished at Wed Sep 13 14:51:19 IST 2017. 1ms
Started at Wed Sep 13 14:56:19 IST 2017
Finished at Wed Sep 13 14:56:19 IST 2017. 1ms
Started at Wed Sep 13 15:01:19 IST 2017
Finished at Wed Sep 13 15:01:19 IST 2017. 1ms
Started at Wed Sep 13 15:06:19 IST 2017
Finished at Wed Sep 13 15:06:19 IST 2017. 1ms
Started at Wed Sep 13 15:11:19 IST 2017
Finished at Wed Sep 13 15:11:19 IST 2017. 1ms
Started at Wed Sep 13 15:16:19 IST 2017
Finished at Wed Sep 13 15:16:19 IST 2017. 0ms
Started at Wed Sep 13 15:21:19 IST 2017
Finished at Wed Sep 13 15:21:19 IST 2017. 0ms
Started at Wed Sep 13 15:26:19 IST 2017
Finished at Wed Sep 13 15:26:19 IST 2017. 1ms
Started at Wed Sep 13 15:31:19 IST 2017
Finished at Wed Sep 13 15:31:19 IST 2017. 1ms
Started at Wed Sep 13 15:36:19 IST 2017
Finished at Wed Sep 13 15:36:19 IST 2017. 1ms
Started at Wed Sep 13 15:41:19 IST 2017
Finished at Wed Sep 13 15:41:19 IST 2017. 1ms
Started at Wed Sep 13 15:46:19 IST 2017
Finished at Wed Sep 13 15:46:19 IST 2017. 1ms
Started at Wed Sep 13 15:51:19 IST 2017
Finished at Wed Sep 13 15:51:19 IST 2017. 1ms
Started at Wed Sep 13 15:56:19 IST 2017
Finished at Wed Sep 13 15:56:19 IST 2017. 1ms
Started at Wed Sep 13 16:01:19 IST 2017
Finished at Wed Sep 13 16:01:19 IST 2017. 1ms
Started at Wed Sep 13 16:06:19 IST 2017
Finished at Wed Sep 13 16:06:19 IST 2017. 1ms
Started at Wed Sep 13 16:11:19 IST 2017
Finished at Wed Sep 13 16:11:19 IST 2017. 1ms
Started at Wed Sep 13 16:16:19 IST 2017
Finished at Wed Sep 13 16:16:19 IST 2017. 1ms
Started at Wed Sep 13 16:21:19 IST 2017
Finished at Wed Sep 13 16:21:19 IST 2017. 1ms
Started at Wed Sep 13 16:26:19 IST 2017
Finished at Wed Sep 13 16:26:19 IST 2017. 1ms
Started at Wed Sep 13 16:31:19 IST 2017
Finished at Wed Sep 13 16:31:19 IST 2017. 1ms
Started at Wed Sep 13 16:36:19 IST 2017
Finished at Wed Sep 13 16:36:19 IST 2017. 1ms
Started at Wed Sep 13 16:41:19 IST 2017
Finished at Wed Sep 13 16:41:19 IST 2017. 1ms
Started at Wed Sep 13 16:46:19 IST 2017
Finished at Wed Sep 13 16:46:19 IST 2017. 1ms
Started at Wed Sep 13 16:51:19 IST 2017
Finished at Wed Sep 13 16:51:19 IST 2017. 1ms
Started at Wed Sep 13 16:56:19 IST 2017
Finished at Wed Sep 13 16:56:19 IST 2017. 1ms
Started at Wed Sep 13 17:01:19 IST 2017
Finished at Wed Sep 13 17:01:19 IST 2017. 1ms
Started at Wed Sep 13 17:06:19 IST 2017
Finished at Wed Sep 13 17:06:19 IST 2017. 1ms
Started at Wed Sep 13 17:11:19 IST 2017
Finished at Wed Sep 13 17:11:19 IST 2017. 1ms
Started at Wed Sep 13 17:16:19 IST 2017
Finished at Wed Sep 13 17:16:19 IST 2017. 1ms
Started at Wed Sep 13 17:21:19 IST 2017
Finished at Wed Sep 13 17:21:19 IST 2017. 1ms
Started at Wed Sep 13 17:26:19 IST 2017
Finished at Wed Sep 13 17:26:19 IST 2017. 1ms
Started at Wed Sep 13 17:31:19 IST 2017
Finished at Wed Sep 13 17:31:19 IST 2017. 1ms
Started at Wed Sep 13 17:36:19 IST 2017
Finished at Wed Sep 13 17:36:19 IST 2017. 1ms
Started at Wed Sep 13 17:41:19 IST 2017
Finished at Wed Sep 13 17:41:19 IST 2017. 1ms
Started at Wed Sep 13 17:46:19 IST 2017
Finished at Wed Sep 13 17:46:19 IST 2017. 1ms
Started at Wed Sep 13 17:51:19 IST 2017
Finished at Wed Sep 13 17:51:19 IST 2017. 1ms
Started at Wed Sep 13 17:56:19 IST 2017
Finished at Wed Sep 13 17:56:19 IST 2017. 1ms
Started at Wed Sep 13 18:01:19 IST 2017
Finished at Wed Sep 13 18:01:19 IST 2017. 1ms
Started at Wed Sep 13 18:06:19 IST 2017
Finished at Wed Sep 13 18:06:19 IST 2017. 1ms
Started at Wed Sep 13 18:11:19 IST 2017
Finished at Wed Sep 13 18:11:19 IST 2017. 1ms
Started at Wed Sep 13 18:16:19 IST 2017
Finished at Wed Sep 13 18:16:19 IST 2017. 1ms
Started at Wed Sep 13 18:21:19 IST 2017
Finished at Wed Sep 13 18:21:19 IST 2017. 1ms
Started at Wed Sep 13 18:26:19 IST 2017
Finished at Wed Sep 13 18:26:19 IST 2017. 1ms
Started at Wed Sep 13 18:31:19 IST 2017
Finished at Wed Sep 13 18:31:19 IST 2017. 1ms
Started at Wed Sep 13 18:36:19 IST 2017
Finished at Wed Sep 13 18:36:19 IST 2017. 1ms
Started at Wed Sep 13 18:41:19 IST 2017
Finished at Wed Sep 13 18:41:19 IST 2017. 0ms
Started at Wed Sep 13 18:46:19 IST 2017
Finished at Wed Sep 13 18:46:19 IST 2017. 1ms
Started at Wed Sep 13 18:51:19 IST 2017
Finished at Wed Sep 13 18:51:19 IST 2017. 1ms
Started at Wed Sep 13 18:56:19 IST 2017
Finished at Wed Sep 13 18:56:19 IST 2017. 1ms
Started at Wed Sep 13 19:01:19 IST 2017
Finished at Wed Sep 13 19:01:19 IST 2017. 1ms
Started at Wed Sep 13 19:06:19 IST 2017
Finished at Wed Sep 13 19:06:19 IST 2017. 1ms
Started at Wed Sep 13 19:11:19 IST 2017
Finished at Wed Sep 13 19:11:19 IST 2017. 1ms
Started at Wed Sep 13 19:16:19 IST 2017
Finished at Wed Sep 13 19:16:19 IST 2017. 1ms
Started at Wed Sep 13 19:21:19 IST 2017
Finished at Wed Sep 13 19:21:19 IST 2017. 1ms
Started at Wed Sep 13 19:26:19 IST 2017
Finished at Wed Sep 13 19:26:19 IST 2017. 1ms
Started at Wed Sep 13 19:31:19 IST 2017
Finished at Wed Sep 13 19:31:19 IST 2017. 1ms
Started at Wed Sep 13 19:36:19 IST 2017
Finished at Wed Sep 13 19:36:19 IST 2017. 1ms
Started at Wed Sep 13 19:41:19 IST 2017
Finished at Wed Sep 13 19:41:19 IST 2017. 1ms
Started at Wed Sep 13 19:46:19 IST 2017
Finished at Wed Sep 13 19:46:19 IST 2017. 1ms
Started at Wed Sep 13 19:51:19 IST 2017
Finished at Wed Sep 13 19:51:19 IST 2017. 1ms
Started at Wed Sep 13 19:56:19 IST 2017
Finished at Wed Sep 13 19:56:19 IST 2017. 1ms
Started at Wed Sep 13 20:01:19 IST 2017
Finished at Wed Sep 13 20:01:19 IST 2017. 1ms
Started at Wed Sep 13 20:06:19 IST 2017
Finished at Wed Sep 13 20:06:19 IST 2017. 1ms
Started at Wed Sep 13 20:11:19 IST 2017
Finished at Wed Sep 13 20:11:19 IST 2017. 1ms
Started at Wed Sep 13 20:16:19 IST 2017
Finished at Wed Sep 13 20:16:19 IST 2017. 1ms
Started at Wed Sep 13 20:21:19 IST 2017
Finished at Wed Sep 13 20:21:19 IST 2017. 1ms
Started at Wed Sep 13 20:26:19 IST 2017
Finished at Wed Sep 13 20:26:19 IST 2017. 1ms
Started at Wed Sep 13 20:31:19 IST 2017
Finished at Wed Sep 13 20:31:19 IST 2017. 1ms
Started at Wed Sep 13 20:36:19 IST 2017
Finished at Wed Sep 13 20:36:19 IST 2017. 1ms
Started at Wed Sep 13 20:41:19 IST 2017
Finished at Wed Sep 13 20:41:19 IST 2017. 0ms
Started at Wed Sep 13 20:46:19 IST 2017
Finished at Wed Sep 13 20:46:19 IST 2017. 1ms
Started at Wed Sep 13 20:51:19 IST 2017
Finished at Wed Sep 13 20:51:19 IST 2017. 1ms
Started at Wed Sep 13 20:56:19 IST 2017
Finished at Wed Sep 13 20:56:19 IST 2017. 1ms
Started at Wed Sep 13 21:01:19 IST 2017
Finished at Wed Sep 13 21:01:19 IST 2017. 1ms
Started at Wed Sep 13 21:06:19 IST 2017
Finished at Wed Sep 13 21:06:19 IST 2017. 1ms
Started at Wed Sep 13 21:11:19 IST 2017
Finished at Wed Sep 13 21:11:19 IST 2017. 1ms
Started at Wed Sep 13 21:16:19 IST 2017
Finished at Wed Sep 13 21:16:19 IST 2017. 1ms
Started at Wed Sep 13 21:21:19 IST 2017
Finished at Wed Sep 13 21:21:19 IST 2017. 0ms
Started at Wed Sep 13 21:26:19 IST 2017
Finished at Wed Sep 13 21:26:19 IST 2017. 1ms
Started at Wed Sep 13 21:31:19 IST 2017
Finished at Wed Sep 13 21:31:19 IST 2017. 0ms
Started at Wed Sep 13 21:36:19 IST 2017
Finished at Wed Sep 13 21:36:19 IST 2017. 1ms
Started at Wed Sep 13 21:41:19 IST 2017
Finished at Wed Sep 13 21:41:19 IST 2017. 1ms
Started at Wed Sep 13 21:46:19 IST 2017
Finished at Wed Sep 13 21:46:19 IST 2017. 1ms
Started at Wed Sep 13 21:51:19 IST 2017
Finished at Wed Sep 13 21:51:19 IST 2017. 1ms
Started at Wed Sep 13 21:56:19 IST 2017
Finished at Wed Sep 13 21:56:19 IST 2017. 1ms
Started at Wed Sep 13 22:01:19 IST 2017
Finished at Wed Sep 13 22:01:19 IST 2017. 1ms
Started at Wed Sep 13 22:06:19 IST 2017
Finished at Wed Sep 13 22:06:19 IST 2017. 1ms
Started at Wed Sep 13 22:11:19 IST 2017
Finished at Wed Sep 13 22:11:19 IST 2017. 1ms
Started at Wed Sep 13 22:16:19 IST 2017
Finished at Wed Sep 13 22:16:19 IST 2017. 1ms
Started at Wed Sep 13 22:21:19 IST 2017
Finished at Wed Sep 13 22:21:19 IST 2017. 1ms
Started at Wed Sep 13 22:26:19 IST 2017
Finished at Wed Sep 13 22:26:19 IST 2017. 1ms
Started at Wed Sep 13 22:31:19 IST 2017
Finished at Wed Sep 13 22:31:19 IST 2017. 1ms
Started at Wed Sep 13 22:36:19 IST 2017
Finished at Wed Sep 13 22:36:19 IST 2017. 1ms
Started at Wed Sep 13 22:41:19 IST 2017
Finished at Wed Sep 13 22:41:19 IST 2017. 1ms
Started at Wed Sep 13 22:46:19 IST 2017
Finished at Wed Sep 13 22:46:19 IST 2017. 1ms
Started at Wed Sep 13 22:51:19 IST 2017
Finished at Wed Sep 13 22:51:19 IST 2017. 1ms
Started at Wed Sep 13 22:56:19 IST 2017
Finished at Wed Sep 13 22:56:19 IST 2017. 1ms
Started at Wed Sep 13 23:01:19 IST 2017
Finished at Wed Sep 13 23:01:19 IST 2017. 1ms
Started at Wed Sep 13 23:06:19 IST 2017
Finished at Wed Sep 13 23:06:19 IST 2017. 1ms
Started at Wed Sep 13 23:11:19 IST 2017
Finished at Wed Sep 13 23:11:19 IST 2017. 1ms
Started at Wed Sep 13 23:16:19 IST 2017
Finished at Wed Sep 13 23:16:19 IST 2017. 1ms
Started at Wed Sep 13 23:21:19 IST 2017
Finished at Wed Sep 13 23:21:19 IST 2017. 1ms
Started at Wed Sep 13 23:26:19 IST 2017
Finished at Wed Sep 13 23:26:19 IST 2017. 1ms
Started at Wed Sep 13 23:31:19 IST 2017
Finished at Wed Sep 13 23:31:19 IST 2017. 1ms
Started at Wed Sep 13 23:36:19 IST 2017
Finished at Wed Sep 13 23:36:19 IST 2017. 1ms
Started at Wed Sep 13 23:41:19 IST 2017
Finished at Wed Sep 13 23:41:19 IST 2017. 1ms
Started at Wed Sep 13 23:46:19 IST 2017
Finished at Wed Sep 13 23:46:19 IST 2017. 1ms
Started at Wed Sep 13 23:51:19 IST 2017
Finished at Wed Sep 13 23:51:19 IST 2017. 1ms
Started at Wed Sep 13 23:56:19 IST 2017
Finished at Wed Sep 13 23:56:19 IST 2017. 1ms
Started at Thu Sep 14 00:01:19 IST 2017
Finished at Thu Sep 14 00:01:19 IST 2017. 1ms
Started at Thu Sep 14 00:06:19 IST 2017
Finished at Thu Sep 14 00:06:19 IST 2017. 1ms
Started at Thu Sep 14 00:11:19 IST 2017
Finished at Thu Sep 14 00:11:19 IST 2017. 1ms
Started at Thu Sep 14 00:16:19 IST 2017
Finished at Thu Sep 14 00:16:19 IST 2017. 1ms
Started at Thu Sep 14 00:21:19 IST 2017
Finished at Thu Sep 14 00:21:19 IST 2017. 1ms
Started at Thu Sep 14 00:26:19 IST 2017
Finished at Thu Sep 14 00:26:19 IST 2017. 1ms
Started at Thu Sep 14 00:31:19 IST 2017
Finished at Thu Sep 14 00:31:19 IST 2017. 1ms
Started at Thu Sep 14 00:36:19 IST 2017
Finished at Thu Sep 14 00:36:19 IST 2017. 1ms
Started at Thu Sep 14 00:41:19 IST 2017
Finished at Thu Sep 14 00:41:19 IST 2017. 1ms
Started at Thu Sep 14 00:46:19 IST 2017
Finished at Thu Sep 14 00:46:19 IST 2017. 1ms
Started at Thu Sep 14 00:51:19 IST 2017
Finished at Thu Sep 14 00:51:19 IST 2017. 1ms
Started at Thu Sep 14 00:56:19 IST 2017
Finished at Thu Sep 14 00:56:19 IST 2017. 1ms
Started at Thu Sep 14 01:01:19 IST 2017
Finished at Thu Sep 14 01:01:19 IST 2017. 1ms
Started at Thu Sep 14 01:06:19 IST 2017
Finished at Thu Sep 14 01:06:19 IST 2017. 1ms
Started at Thu Sep 14 01:11:19 IST 2017
Finished at Thu Sep 14 01:11:19 IST 2017. 1ms
Started at Thu Sep 14 01:16:19 IST 2017
Finished at Thu Sep 14 01:16:19 IST 2017. 1ms
Started at Thu Sep 14 01:21:19 IST 2017
Finished at Thu Sep 14 01:21:19 IST 2017. 1ms
Started at Thu Sep 14 01:26:19 IST 2017
Finished at Thu Sep 14 01:26:19 IST 2017. 1ms
Started at Thu Sep 14 01:31:19 IST 2017
Finished at Thu Sep 14 01:31:19 IST 2017. 1ms
Started at Thu Sep 14 01:36:19 IST 2017
Finished at Thu Sep 14 01:36:19 IST 2017. 1ms
Started at Thu Sep 14 01:41:19 IST 2017
Finished at Thu Sep 14 01:41:19 IST 2017. 1ms
Started at Thu Sep 14 01:46:19 IST 2017
Finished at Thu Sep 14 01:46:19 IST 2017. 1ms
Started at Thu Sep 14 01:51:19 IST 2017
Finished at Thu Sep 14 01:51:19 IST 2017. 0ms
Started at Thu Sep 14 01:56:19 IST 2017
Finished at Thu Sep 14 01:56:19 IST 2017. 1ms
Started at Thu Sep 14 02:01:19 IST 2017
Finished at Thu Sep 14 02:01:19 IST 2017. 1ms
Started at Thu Sep 14 02:06:19 IST 2017
Finished at Thu Sep 14 02:06:19 IST 2017. 1ms
Started at Thu Sep 14 02:11:19 IST 2017
Finished at Thu Sep 14 02:11:19 IST 2017. 1ms
Started at Thu Sep 14 02:16:19 IST 2017
Finished at Thu Sep 14 02:16:19 IST 2017. 1ms
Started at Thu Sep 14 02:21:19 IST 2017
Finished at Thu Sep 14 02:21:19 IST 2017. 1ms
Started at Thu Sep 14 02:26:19 IST 2017
Finished at Thu Sep 14 02:26:19 IST 2017. 1ms
Started at Thu Sep 14 02:31:19 IST 2017
Finished at Thu Sep 14 02:31:19 IST 2017. 1ms
Started at Thu Sep 14 02:36:19 IST 2017
Finished at Thu Sep 14 02:36:19 IST 2017. 1ms
Started at Thu Sep 14 02:41:19 IST 2017
Finished at Thu Sep 14 02:41:19 IST 2017. 1ms
Started at Thu Sep 14 02:46:19 IST 2017
Finished at Thu Sep 14 02:46:19 IST 2017. 1ms
Started at Thu Sep 14 02:51:19 IST 2017
Finished at Thu Sep 14 02:51:19 IST 2017. 1ms
Started at Thu Sep 14 02:56:19 IST 2017
Finished at Thu Sep 14 02:56:19 IST 2017. 1ms
Started at Thu Sep 14 03:01:19 IST 2017
Finished at Thu Sep 14 03:01:19 IST 2017. 0ms
Started at Thu Sep 14 03:06:19 IST 2017
Finished at Thu Sep 14 03:06:19 IST 2017. 1ms
Started at Thu Sep 14 03:11:19 IST 2017
Finished at Thu Sep 14 03:11:19 IST 2017. 1ms
Started at Thu Sep 14 03:16:19 IST 2017
Finished at Thu Sep 14 03:16:19 IST 2017. 1ms
Started at Thu Sep 14 03:21:19 IST 2017
Finished at Thu Sep 14 03:21:19 IST 2017. 1ms
Started at Thu Sep 14 03:26:19 IST 2017
Finished at Thu Sep 14 03:26:19 IST 2017. 1ms
Started at Thu Sep 14 03:31:19 IST 2017
Finished at Thu Sep 14 03:31:19 IST 2017. 1ms
Started at Thu Sep 14 03:36:19 IST 2017
Finished at Thu Sep 14 03:36:19 IST 2017. 1ms
Started at Thu Sep 14 03:41:19 IST 2017
Finished at Thu Sep 14 03:41:19 IST 2017. 1ms
Started at Thu Sep 14 03:46:19 IST 2017
Finished at Thu Sep 14 03:46:19 IST 2017. 1ms
Started at Thu Sep 14 03:51:19 IST 2017
Finished at Thu Sep 14 03:51:19 IST 2017. 1ms
Started at Thu Sep 14 03:56:19 IST 2017
Finished at Thu Sep 14 03:56:19 IST 2017. 1ms
Started at Thu Sep 14 04:01:19 IST 2017
Finished at Thu Sep 14 04:01:19 IST 2017. 1ms
Started at Thu Sep 14 04:06:19 IST 2017
Finished at Thu Sep 14 04:06:19 IST 2017. 1ms
Started at Thu Sep 14 04:11:19 IST 2017
Finished at Thu Sep 14 04:11:19 IST 2017. 1ms
Started at Thu Sep 14 04:16:19 IST 2017
Finished at Thu Sep 14 04:16:19 IST 2017. 1ms
Started at Thu Sep 14 04:21:19 IST 2017
Finished at Thu Sep 14 04:21:19 IST 2017. 1ms
Started at Thu Sep 14 04:26:19 IST 2017
Finished at Thu Sep 14 04:26:19 IST 2017. 1ms
Started at Thu Sep 14 04:31:19 IST 2017
Finished at Thu Sep 14 04:31:19 IST 2017. 1ms
Started at Thu Sep 14 04:36:19 IST 2017
Finished at Thu Sep 14 04:36:19 IST 2017. 0ms
Started at Thu Sep 14 04:41:19 IST 2017
Finished at Thu Sep 14 04:41:19 IST 2017. 1ms
Started at Thu Sep 14 04:46:19 IST 2017
Finished at Thu Sep 14 04:46:19 IST 2017. 1ms
Started at Thu Sep 14 04:51:19 IST 2017
Finished at Thu Sep 14 04:51:19 IST 2017. 1ms
Started at Thu Sep 14 04:56:19 IST 2017
Finished at Thu Sep 14 04:56:19 IST 2017. 1ms
Started at Thu Sep 14 05:01:19 IST 2017
Finished at Thu Sep 14 05:01:19 IST 2017. 1ms
Started at Thu Sep 14 05:06:19 IST 2017
Finished at Thu Sep 14 05:06:19 IST 2017. 0ms
Started at Thu Sep 14 05:11:19 IST 2017
Finished at Thu Sep 14 05:11:19 IST 2017. 1ms
Started at Thu Sep 14 05:16:19 IST 2017
Finished at Thu Sep 14 05:16:19 IST 2017. 1ms
Started at Thu Sep 14 05:21:19 IST 2017
Finished at Thu Sep 14 05:21:19 IST 2017. 0ms
Started at Thu Sep 14 05:26:19 IST 2017
Finished at Thu Sep 14 05:26:19 IST 2017. 1ms
Started at Thu Sep 14 05:31:19 IST 2017
Finished at Thu Sep 14 05:31:19 IST 2017. 1ms
Started at Thu Sep 14 05:36:19 IST 2017
Finished at Thu Sep 14 05:36:19 IST 2017. 1ms
Started at Thu Sep 14 05:41:19 IST 2017
Finished at Thu Sep 14 05:41:19 IST 2017. 1ms
Started at Thu Sep 14 05:46:19 IST 2017
Finished at Thu Sep 14 05:46:19 IST 2017. 1ms
Started at Thu Sep 14 05:51:19 IST 2017
Finished at Thu Sep 14 05:51:19 IST 2017. 1ms
Started at Thu Sep 14 05:56:19 IST 2017
Finished at Thu Sep 14 05:56:19 IST 2017. 1ms
Started at Thu Sep 14 06:01:19 IST 2017
Finished at Thu Sep 14 06:01:19 IST 2017. 1ms
Started at Thu Sep 14 06:06:19 IST 2017
Finished at Thu Sep 14 06:06:19 IST 2017. 1ms
Started at Thu Sep 14 06:11:19 IST 2017
Finished at Thu Sep 14 06:11:19 IST 2017. 1ms
Started at Thu Sep 14 06:16:19 IST 2017
Finished at Thu Sep 14 06:16:19 IST 2017. 0ms
Started at Thu Sep 14 06:21:19 IST 2017
Finished at Thu Sep 14 06:21:19 IST 2017. 1ms
Started at Thu Sep 14 06:26:19 IST 2017
Finished at Thu Sep 14 06:26:19 IST 2017. 1ms
Started at Thu Sep 14 06:31:19 IST 2017
Finished at Thu Sep 14 06:31:19 IST 2017. 1ms
Started at Thu Sep 14 06:36:19 IST 2017
Finished at Thu Sep 14 06:36:19 IST 2017. 1ms
Started at Thu Sep 14 06:41:19 IST 2017
Finished at Thu Sep 14 06:41:19 IST 2017. 1ms
Started at Thu Sep 14 06:46:19 IST 2017
Finished at Thu Sep 14 06:46:19 IST 2017. 1ms
Started at Thu Sep 14 06:51:19 IST 2017
Finished at Thu Sep 14 06:51:19 IST 2017. 1ms
Started at Thu Sep 14 06:56:19 IST 2017
Finished at Thu Sep 14 06:56:19 IST 2017. 0ms
Started at Thu Sep 14 07:01:19 IST 2017
Finished at Thu Sep 14 07:01:19 IST 2017. 1ms
Started at Thu Sep 14 07:06:19 IST 2017
Finished at Thu Sep 14 07:06:19 IST 2017. 1ms
Started at Thu Sep 14 07:11:19 IST 2017
Finished at Thu Sep 14 07:11:19 IST 2017. 1ms
Started at Thu Sep 14 07:16:19 IST 2017
Finished at Thu Sep 14 07:16:19 IST 2017. 1ms
Started at Thu Sep 14 07:21:19 IST 2017
Finished at Thu Sep 14 07:21:19 IST 2017. 1ms
Started at Thu Sep 14 07:26:19 IST 2017
Finished at Thu Sep 14 07:26:19 IST 2017. 1ms
Started at Thu Sep 14 07:31:19 IST 2017
Finished at Thu Sep 14 07:31:19 IST 2017. 1ms
Started at Thu Sep 14 07:36:19 IST 2017
Finished at Thu Sep 14 07:36:19 IST 2017. 1ms
Started at Thu Sep 14 07:41:19 IST 2017
Finished at Thu Sep 14 07:41:19 IST 2017. 1ms
Started at Thu Sep 14 07:46:19 IST 2017
Finished at Thu Sep 14 07:46:19 IST 2017. 1ms
Started at Thu Sep 14 07:51:19 IST 2017
Finished at Thu Sep 14 07:51:19 IST 2017. 1ms
Started at Thu Sep 14 07:56:19 IST 2017
Finished at Thu Sep 14 07:56:19 IST 2017. 1ms
Started at Thu Sep 14 08:01:19 IST 2017
Finished at Thu Sep 14 08:01:19 IST 2017. 1ms
Started at Thu Sep 14 08:06:19 IST 2017
Finished at Thu Sep 14 08:06:19 IST 2017. 1ms
Started at Thu Sep 14 08:11:19 IST 2017
Finished at Thu Sep 14 08:11:19 IST 2017. 1ms
Started at Thu Sep 14 08:16:19 IST 2017
Finished at Thu Sep 14 08:16:19 IST 2017. 0ms
Started at Thu Sep 14 08:21:19 IST 2017
Finished at Thu Sep 14 08:21:19 IST 2017. 1ms
Started at Thu Sep 14 08:26:19 IST 2017
Finished at Thu Sep 14 08:26:19 IST 2017. 1ms
Started at Thu Sep 14 08:31:19 IST 2017
Finished at Thu Sep 14 08:31:19 IST 2017. 1ms
Started at Thu Sep 14 08:36:19 IST 2017
Finished at Thu Sep 14 08:36:19 IST 2017. 1ms
Started at Thu Sep 14 08:41:19 IST 2017
Finished at Thu Sep 14 08:41:19 IST 2017. 1ms
Started at Thu Sep 14 08:46:19 IST 2017
Finished at Thu Sep 14 08:46:19 IST 2017. 1ms
Started at Thu Sep 14 08:51:19 IST 2017
Finished at Thu Sep 14 08:51:19 IST 2017. 1ms
Started at Thu Sep 14 08:56:19 IST 2017
Finished at Thu Sep 14 08:56:19 IST 2017. 1ms
Started at Thu Sep 14 09:01:19 IST 2017
Finished at Thu Sep 14 09:01:19 IST 2017. 1ms
Started at Thu Sep 14 09:06:19 IST 2017
Finished at Thu Sep 14 09:06:19 IST 2017. 1ms
