Started at Thu Jun 22 00:05:39 IST 2017
Finished at Thu Jun 22 00:05:39 IST 2017. 1ms
Started at Thu Jun 22 01:05:39 IST 2017
Finished at Thu Jun 22 01:05:39 IST 2017. 1ms
Started at Thu Jun 22 02:05:39 IST 2017
Finished at Thu Jun 22 02:05:39 IST 2017. 1ms
Started at Thu Jun 22 03:05:39 IST 2017
Finished at Thu Jun 22 03:05:39 IST 2017. 1ms
Started at Thu Jun 22 04:05:39 IST 2017
Finished at Thu Jun 22 04:05:39 IST 2017. 1ms
