Started at Wed Sep 13 05:38:31 IST 2017
Checking Ansible
Checking AppData
Checking Artifactory
Checking AWSCodePipe
Checking Building
Checking CI_CD
Checking Code Deploy
Checking CounterWebApp
Checking CTC_Demo
Checking Database Deploy
Checking docker
Checking DSL-Tutorial-1-Test
Checking EC2Launch
Checking GitAntBuild
Checking GitMavenBuild
Checking GitTalent_Docker
Checking GradleExample
Checking GradleSeed
Checking jpetstore
Checking jpetTest
Checking Mail
Checking RDGateway
Checking recruiting
Checking shrey_s
Checking shreys-s
Checking Sourcing
Checking UT_CC
Checking VPCSubnet
Checking shreys-s » content-jenkins-java-project
Checking shreys-s » docker-jenkins-pipeline
Checking shreys-s » docker-sample
Checking shreys-s » easyleave
Checking shreys-s » jenkins-docker-maven-example
Checking shreys-s » jenkins-git-maven-docker
Checking shreys-s » job-dsl-plugin
Checking shreys-s » kubernetes-ci-cd
Checking shreys-s » poc-jenkins-pipeline
Checking shreys-s » poc-jenkins-pipeline » master
Checking shreys-s » poc-jenkins-pipeline » patch-1
Checking shreys-s » kubernetes-ci-cd » ingress-update
Checking shreys-s » kubernetes-ci-cd » issue-25-add-apache-2-license
Checking shreys-s » kubernetes-ci-cd » master
Checking shreys-s » job-dsl-plugin » master
Checking shreys-s » jenkins-git-maven-docker » master
Checking shreys-s » jenkins-docker-maven-example » master
Checking shreys-s » easyleave » master
Checking shreys-s » docker-sample » master
Checking shreys-s » docker-jenkins-pipeline » master
Checking shreys-s » content-jenkins-java-project » master
Finished at Wed Sep 13 05:38:32 IST 2017. 555ms
