Started at Sat Sep 09 00:32:58 IST 2017
Checking Ansible
Checking AppData
Checking Artifactory
Checking AWSCodePipe
Checking Building
Checking capitalOne
Checking CI_CD
Checking CI_CD_Deploy
Checking Code Deploy
Checking CounterWebApp
Checking CTC
Checking CTC_Demo
Checking CTC_game
Checking Database Deploy
Checking DBAuto
Checking DemoSite
Checking docker
Checking Docker-Jenkins
Checking dotnet
Checking DSL-Tutorial-1-Test
Checking Dummy
Checking EC2Launch
Checking exp1
Checking Game
Checking GitAntBuild
Checking GitMavenBuild
Checking GitTalent_Docker
Checking GradleExample
Checking GradleSeed
Checking Helloworld
Checking jpet
Checking jpetstore
Checking jpetTest
Checking Mail
Checking mavn
Checking pipe
Checking RDGateway
Checking recruiting
Checking shrey_s
Checking shreys-s
Checking Sourcing
Checking tes
Checking testi
Checking uDeployDemo
Checking UT_CC
Checking VPCSubnet
Checking shreys-s » content-jenkins-java-project
Checking shreys-s » docker-jenkins-pipeline
Checking shreys-s » docker-sample
Checking shreys-s » easyleave
Checking shreys-s » jenkins-docker-maven-example
Checking shreys-s » jenkins-git-maven-docker
Checking shreys-s » job-dsl-plugin
Checking shreys-s » kubernetes-ci-cd
Checking shreys-s » poc-jenkins-pipeline
Checking shreys-s » poc-jenkins-pipeline » master
Checking shreys-s » poc-jenkins-pipeline » patch-1
Checking shreys-s » kubernetes-ci-cd » ingress-update
Checking shreys-s » kubernetes-ci-cd » issue-25-add-apache-2-license
Checking shreys-s » kubernetes-ci-cd » master
Checking shreys-s » job-dsl-plugin » master
Checking shreys-s » jenkins-git-maven-docker » master
Checking shreys-s » jenkins-docker-maven-example » master
Checking shreys-s » easyleave » master
Checking shreys-s » docker-sample » master
Checking shreys-s » docker-jenkins-pipeline » master
Checking shreys-s » content-jenkins-java-project » master
Finished at Sat Sep 09 00:32:58 IST 2017. 681ms
Started at Sun Sep 10 00:32:58 IST 2017
Checking Ansible
Checking AppData
Checking Artifactory
Checking AWSCodePipe
Checking Building
Checking capitalOne
Checking CI_CD
Checking CI_CD_Deploy
Checking Code Deploy
Checking CounterWebApp
Checking CTC
Checking CTC_Demo
Checking CTC_game
Checking Database Deploy
Checking DBAuto
Checking DemoSite
Checking docker
Checking Docker-Jenkins
Checking dotnet
Checking DSL-Tutorial-1-Test
Checking Dummy
Checking EC2Launch
Checking exp1
Checking Game
Checking GitAntBuild
Checking GitMavenBuild
Checking GitTalent_Docker
Checking GradleExample
Checking GradleSeed
Checking Helloworld
Checking jpet
Checking jpetstore
Checking jpetTest
Checking Mail
Checking mavn
Checking pipe
Checking RDGateway
Checking recruiting
Checking shrey_s
Checking shreys-s
Checking Sourcing
Checking tes
Checking testi
Checking uDeployDemo
Checking UT_CC
Checking VPCSubnet
Checking shreys-s » content-jenkins-java-project
Checking shreys-s » docker-jenkins-pipeline
Checking shreys-s » docker-sample
Checking shreys-s » easyleave
Checking shreys-s » jenkins-docker-maven-example
Checking shreys-s » jenkins-git-maven-docker
Checking shreys-s » job-dsl-plugin
Checking shreys-s » kubernetes-ci-cd
Checking shreys-s » poc-jenkins-pipeline
Checking shreys-s » poc-jenkins-pipeline » master
Checking shreys-s » poc-jenkins-pipeline » patch-1
Checking shreys-s » kubernetes-ci-cd » ingress-update
Checking shreys-s » kubernetes-ci-cd » issue-25-add-apache-2-license
Checking shreys-s » kubernetes-ci-cd » master
Checking shreys-s » job-dsl-plugin » master
Checking shreys-s » jenkins-git-maven-docker » master
Checking shreys-s » jenkins-docker-maven-example » master
Checking shreys-s » easyleave » master
Checking shreys-s » docker-sample » master
Checking shreys-s » docker-jenkins-pipeline » master
Checking shreys-s » content-jenkins-java-project » master
Finished at Sun Sep 10 00:32:58 IST 2017. 609ms
