just before slave ansibleserver gets launched ...
executing pre-launch scripts ...
[09/18/17 10:12:14] [SSH] Opening SSH connection to ansibleserver:22.
Connection timed out (Connection timed out)
SSH Connection failed with IOException: "Connection timed out (Connection timed out)".
java.io.IOException: There was a problem while connecting to ansibleserver:22
	at com.trilead.ssh2.Connection.connect(Connection.java:834)
	at com.trilead.ssh2.Connection.connect(Connection.java:703)
	at com.trilead.ssh2.Connection.connect(Connection.java:617)
	at hudson.plugins.sshslaves.SSHLauncher.openConnection(SSHLauncher.java:1284)
	at hudson.plugins.sshslaves.SSHLauncher$2.call(SSHLauncher.java:804)
	at hudson.plugins.sshslaves.SSHLauncher$2.call(SSHLauncher.java:793)
	at java.util.concurrent.FutureTask.run(FutureTask.java:266)
	at java.util.concurrent.ThreadPoolExecutor.runWorker(ThreadPoolExecutor.java:1142)
	at java.util.concurrent.ThreadPoolExecutor$Worker.run(ThreadPoolExecutor.java:617)
	at java.lang.Thread.run(Thread.java:748)
Caused by: java.net.ConnectException: Connection timed out (Connection timed out)
	at java.net.PlainSocketImpl.socketConnect(Native Method)
	at java.net.AbstractPlainSocketImpl.doConnect(AbstractPlainSocketImpl.java:350)
	at java.net.AbstractPlainSocketImpl.connectToAddress(AbstractPlainSocketImpl.java:206)
	at java.net.AbstractPlainSocketImpl.connect(AbstractPlainSocketImpl.java:188)
	at java.net.SocksSocketImpl.connect(SocksSocketImpl.java:392)
	at java.net.Socket.connect(Socket.java:589)
	at com.trilead.ssh2.transport.TransportManager.establishConnection(TransportManager.java:367)
	at com.trilead.ssh2.transport.TransportManager.initialize(TransportManager.java:480)
	at com.trilead.ssh2.Connection.connect(Connection.java:774)
	... 9 more
[09/18/17 10:14:21] Launch failed - cleaning up connection
[09/18/17 10:14:21] [SSH] Connection closed.
